EESchema Schematic File Version 4
LIBS:DAC-ADAU1966-cache
EELAYER 26 0
EELAYER END
$Descr A4 11693 8268
encoding utf-8
Sheet 1 6
Title "DAC-ADAU1966 with Passive Output Filters"
Date "2018-09-05"
Rev "3.0"
Comp "Open Hardware DSP Platform - www.ohdsp.org"
Comment1 "MERCHANTABILITY, SATISFACTORY QUALITY AND FITNESS FOR A PARTICULAR PURPOSE."
Comment2 "is distributed WITHOUT ANY EXPRESS OR IMPLIED WARRANTY, INCLUDING OF "
Comment3 "Licensed under the TAPR Open Hardware License (www.tapr.org/OHL). This documentation"
Comment4 "Copyright Paul Janicki 2018"
$EndDescr
$Sheet
S 1600 5100 1550 2400
U 5616730E
F0 "Connectors" 60
F1 "Connectors.sch" 60
F2 "MCLK" O R 3150 6150 60 
F3 "LRCLK" O R 3150 6250 60 
F4 "BCLK" O R 3150 6350 60 
F5 "SDATA1" O R 3150 6450 60 
F6 "SDATA2" O R 3150 6550 60 
F7 "SDATA3" O R 3150 6650 60 
F8 "SDATA4" O R 3150 6750 60 
F9 "SPI_MISO" I R 3150 5350 60 
F10 "SPI_SCLK" O R 3150 5450 60 
F11 "SPI_MOSI" O R 3150 5550 60 
F12 "SPI_SS" O R 3150 5650 60 
F13 "GPIO" O R 3150 5850 60 
F14 "SPI_RST" O R 3150 7300 60 
F15 "SDATA5" O R 3150 6850 60 
F16 "SDATA6" O R 3150 6950 60 
F17 "SDATA7" O R 3150 7050 60 
F18 "SDATA8" O R 3150 7150 60 
$EndSheet
$Sheet
S 8825 5225 1800 1050
U 562E6585
F0 "PowerSupply" 60
F1 "PowerSupply.sch" 60
$EndSheet
$Sheet
S 2800 1250 2750 3350
U 563058AB
F0 "ADAU1966" 60
F1 "ADAU1966.sch" 60
F2 "DACOUT_LRCLK" I L 2800 1400 60 
F3 "DACOUT_BCLK" I L 2800 1500 60 
F4 "DACOUT_SDATA1" I L 2800 1600 60 
F5 "DACOUT_SDATA2" I L 2800 1700 60 
F6 "DACOUT_SDATA3" I L 2800 1800 60 
F7 "MCLK" I L 2800 2700 60 
F8 "DACOUT_SDATA4" I L 2800 1900 60 
F9 "DACOUT_SDATA5" I L 2800 2000 60 
F10 "DACOUT_SDATA6" I L 2800 2100 60 
F11 "OUT_1P" O R 5550 1350 60 
F12 "OUT_1N" O R 5550 1450 60 
F13 "OUT_2P" O R 5550 1550 60 
F14 "OUT_2N" O R 5550 1650 60 
F15 "OUT_3P" O R 5550 1750 60 
F16 "OUT_3N" O R 5550 1850 60 
F17 "OUT_4P" O R 5550 1950 60 
F18 "OUT_4N" O R 5550 2050 60 
F19 "OUT_5P" O R 5550 2150 60 
F20 "OUT_5N" O R 5550 2250 60 
F21 "OUT_6P" O R 5550 2350 60 
F22 "OUT_6N" O R 5550 2450 60 
F23 "OUT_7P" O R 5550 2550 60 
F24 "OUT_7N" O R 5550 2650 60 
F25 "OUT_8P" O R 5550 2750 60 
F26 "OUT_8N" O R 5550 2850 60 
F27 "OUT_9P" O R 5550 2950 60 
F28 "OUT_9N" O R 5550 3050 60 
F29 "OUT_10P" O R 5550 3150 60 
F30 "OUT_10N" O R 5550 3250 60 
F31 "OUT_11P" O R 5550 3350 60 
F32 "OUT_11N" O R 5550 3450 60 
F33 "OUT_12P" O R 5550 3550 60 
F34 "OUT_12N" O R 5550 3650 60 
F35 "OUT_13P" O R 5550 3750 60 
F36 "OUT_13N" O R 5550 3850 60 
F37 "OUT_14P" O R 5550 3950 60 
F38 "OUT_15P" O R 5550 4150 60 
F39 "OUT_14N" O R 5550 4050 60 
F40 "OUT_15N" O R 5550 4250 60 
F41 "OUT_16P" O R 5550 4350 60 
F42 "OUT_16N" O R 5550 4450 60 
F43 "DAC_MOSI" I L 2800 3350 60 
F44 "DAC_MISO" O L 2800 3150 60 
F45 "DAC_CLK" I L 2800 3250 60 
F46 "DAC_CS" I L 2800 3450 60 
F47 "RST_IN" I L 2800 3850 60 
F48 "DACOUT_SDATA7" I L 2800 2200 60 
F49 "DACOUT_SDATA8" I L 2800 2300 60 
F50 "MCLK_OUT" O L 2800 2800 60 
$EndSheet
Text Label 3600 6250 2    59   ~ 0
LRCLK
Text Label 3600 6350 2    59   ~ 0
BCLK
Text Label 3600 6450 2    59   ~ 0
SDATA1
Text Label 3600 6550 2    59   ~ 0
SDATA2
Text Label 3600 6650 2    59   ~ 0
SDATA3
Text Label 3600 6750 2    59   ~ 0
SDATA4
Text Label 2100 1400 0    59   ~ 0
LRCLK
Text Label 2100 1500 0    59   ~ 0
BCLK
Text Label 2100 1600 0    59   ~ 0
SDATA1
Text Label 2100 1700 0    59   ~ 0
SDATA2
Text Label 2100 1800 0    59   ~ 0
SDATA3
Text Label 2100 1900 0    59   ~ 0
SDATA4
Text Label 3600 6150 2    59   ~ 0
MCLK
Text Label 1500 2800 0    59   ~ 0
MCLK
Wire Wire Line
	1200 2100 1450 2100
Wire Wire Line
	1200 2000 1450 2000
Connection ~ 1200 2100
Wire Wire Line
	1950 2000 2800 2000
Wire Wire Line
	2800 2100 1950 2100
Wire Wire Line
	2100 1900 2800 1900
Wire Wire Line
	2800 1800 2100 1800
Wire Wire Line
	2100 1700 2800 1700
Wire Wire Line
	2800 1600 2100 1600
Wire Wire Line
	2100 1500 2800 1500
Wire Wire Line
	2800 1400 2100 1400
Wire Wire Line
	3600 6150 3150 6150
Wire Wire Line
	3600 6250 3150 6250
Wire Wire Line
	3150 6350 3600 6350
Wire Wire Line
	3600 6450 3150 6450
Wire Wire Line
	3150 6550 3600 6550
Wire Wire Line
	3600 6650 3150 6650
Wire Wire Line
	3150 6750 3600 6750
Wire Wire Line
	1500 2800 1850 2800
Wire Wire Line
	5550 1350 5700 1350
Wire Wire Line
	5700 1350 5700 1200
Wire Wire Line
	5700 1200 6950 1200
Wire Wire Line
	6950 1300 5750 1300
Wire Wire Line
	5750 1300 5750 1450
Wire Wire Line
	5750 1450 5550 1450
Wire Wire Line
	5550 1550 5800 1550
Wire Wire Line
	5800 1550 5800 1400
Wire Wire Line
	5800 1400 6950 1400
Wire Wire Line
	5850 1500 6950 1500
Wire Wire Line
	5850 1500 5850 1650
Wire Wire Line
	5850 1650 5550 1650
Wire Wire Line
	5550 1750 5900 1750
Wire Wire Line
	5900 1750 5900 1600
Wire Wire Line
	5900 1600 6950 1600
Wire Wire Line
	6950 1700 5950 1700
Wire Wire Line
	5950 1700 5950 1850
Wire Wire Line
	5950 1850 5550 1850
Wire Wire Line
	5550 1950 6000 1950
Wire Wire Line
	6000 1950 6000 1800
Wire Wire Line
	6000 1800 6950 1800
Wire Wire Line
	6950 1900 6050 1900
Wire Wire Line
	6050 1900 6050 2050
Wire Wire Line
	6050 2050 5550 2050
Wire Wire Line
	5550 2150 6100 2150
Wire Wire Line
	6100 2150 6100 2000
Wire Wire Line
	6100 2000 6950 2000
Wire Wire Line
	6950 2100 6150 2100
Wire Wire Line
	6150 2100 6150 2250
Wire Wire Line
	6150 2250 5550 2250
Wire Wire Line
	5550 2350 6200 2350
Wire Wire Line
	6200 2350 6200 2200
Wire Wire Line
	6200 2200 6950 2200
Wire Wire Line
	6950 2300 6250 2300
Wire Wire Line
	6250 2300 6250 2450
Wire Wire Line
	6250 2450 5550 2450
Wire Wire Line
	5550 2550 6300 2550
Wire Wire Line
	6300 2550 6300 2400
Wire Wire Line
	6300 2400 6950 2400
Wire Wire Line
	6950 2500 6350 2500
Wire Wire Line
	6350 2500 6350 2650
Wire Wire Line
	6350 2650 5550 2650
Wire Wire Line
	5550 2750 6400 2750
Wire Wire Line
	6400 2750 6400 2600
Wire Wire Line
	6400 2600 6950 2600
Wire Wire Line
	6950 2700 6450 2700
Wire Wire Line
	6450 2700 6450 2850
Wire Wire Line
	6450 2850 5550 2850
Wire Wire Line
	5550 4450 5700 4450
Wire Wire Line
	5700 4450 5700 4600
Wire Wire Line
	5700 4600 6950 4600
Wire Wire Line
	5550 4350 5750 4350
Wire Wire Line
	5750 4350 5750 4500
Wire Wire Line
	5750 4500 6950 4500
Wire Wire Line
	6950 4400 5800 4400
Wire Wire Line
	5800 4400 5800 4250
Wire Wire Line
	5800 4250 5550 4250
Wire Wire Line
	5550 4150 5850 4150
Wire Wire Line
	5850 4150 5850 4300
Wire Wire Line
	5850 4300 6950 4300
Wire Wire Line
	6950 4200 5900 4200
Wire Wire Line
	5900 4200 5900 4050
Wire Wire Line
	5900 4050 5550 4050
Wire Wire Line
	5550 3950 5950 3950
Wire Wire Line
	5950 3950 5950 4100
Wire Wire Line
	5950 4100 6950 4100
Wire Wire Line
	6950 4000 6000 4000
Wire Wire Line
	6000 4000 6000 3850
Wire Wire Line
	6000 3850 5550 3850
Wire Wire Line
	5550 3750 6050 3750
Wire Wire Line
	6050 3750 6050 3900
Wire Wire Line
	6050 3900 6950 3900
Wire Wire Line
	6950 3800 6100 3800
Wire Wire Line
	6100 3800 6100 3650
Wire Wire Line
	6100 3650 5550 3650
Wire Wire Line
	5550 3550 6150 3550
Wire Wire Line
	6150 3550 6150 3700
Wire Wire Line
	6150 3700 6950 3700
Wire Wire Line
	6950 3600 6200 3600
Wire Wire Line
	6200 3600 6200 3450
Wire Wire Line
	6200 3450 5550 3450
Wire Wire Line
	5550 3350 6250 3350
Wire Wire Line
	6250 3350 6250 3500
Wire Wire Line
	6250 3500 6950 3500
Wire Wire Line
	6950 3400 6300 3400
Wire Wire Line
	6300 3400 6300 3250
Wire Wire Line
	6300 3250 5550 3250
Wire Wire Line
	5550 3150 6350 3150
Wire Wire Line
	6350 3150 6350 3300
Wire Wire Line
	6350 3300 6950 3300
Wire Wire Line
	6950 3200 6400 3200
Wire Wire Line
	6400 3200 6400 3050
Wire Wire Line
	6400 3050 5550 3050
Wire Wire Line
	5550 2950 6450 2950
Wire Wire Line
	6450 2950 6450 3100
Wire Wire Line
	6450 3100 6950 3100
$Sheet
S 6950 1050 1950 3700
U 5633C57F
F0 "AnaloguePassiveFilters" 60
F1 "AnaloguePassiveFilters.sch" 60
F2 "P1" I L 6950 1200 60 
F3 "N1" I L 6950 1300 60 
F4 "P2" I L 6950 1400 60 
F5 "N2" I L 6950 1500 60 
F6 "P3" I L 6950 1600 60 
F7 "N3" I L 6950 1700 60 
F8 "P4" I L 6950 1800 60 
F9 "N4" I L 6950 1900 60 
F10 "P5" I L 6950 2000 60 
F11 "N5" I L 6950 2100 60 
F12 "P6" I L 6950 2200 60 
F13 "N6" I L 6950 2300 60 
F14 "P7" I L 6950 2400 60 
F15 "N7" I L 6950 2500 60 
F16 "P8" I L 6950 2600 60 
F17 "N8" I L 6950 2700 60 
F18 "P9" I L 6950 3100 60 
F19 "N9" I L 6950 3200 60 
F20 "P10" I L 6950 3300 60 
F21 "N10" I L 6950 3400 60 
F22 "P11" I L 6950 3500 60 
F23 "N11" I L 6950 3600 60 
F24 "P12" I L 6950 3700 60 
F25 "N12" I L 6950 3800 60 
F26 "P13" I L 6950 3900 60 
F27 "N13" I L 6950 4000 60 
F28 "P14" I L 6950 4100 60 
F29 "N14" I L 6950 4200 60 
F30 "P15" I L 6950 4300 60 
F31 "N15" I L 6950 4400 60 
F32 "P16" I L 6950 4500 60 
F33 "N16" I L 6950 4600 60 
$EndSheet
Text Notes 575  1075 0    118  ~ 0
Open Hardware DSP Platform - www.ohdsp.org\nDAC-ADAU1966 with Passive Output Filters\nRevision 3.0
Text Notes 4800 5950 0    60   ~ 0
All digital I/O is 3V3. Use outside this voltage can cause damage.\n\nSee bill of materials for detailed parts information.\nParts with 'N/F' value are NOT FITTED.\n\nTrace impedance on SPI/I2C, MCLK, and I2S is designed for approx 89ohm.\n26AWG ribbon cable used with Ground-Signal-Ground is approx 89ohm.
Text Label 3600 5550 2    60   ~ 0
SPI_MOSI
Text Label 3600 5350 2    60   ~ 0
SPI_MISO
Text Label 3600 5450 2    60   ~ 0
SPI_CLK
Text Label 3600 5650 2    60   ~ 0
SPI_CS
Wire Wire Line
	3600 5350 3150 5350
Wire Wire Line
	3150 5450 3600 5450
Wire Wire Line
	3600 5550 3150 5550
Wire Wire Line
	3150 5650 3600 5650
Text Label 2350 3350 0    60   ~ 0
SPI_MOSI
Text Label 2350 3150 0    60   ~ 0
SPI_MISO
Text Label 2350 3250 0    60   ~ 0
SPI_CLK
Text Label 2350 3450 0    60   ~ 0
SPI_CS
Wire Wire Line
	2350 3150 2800 3150
Wire Wire Line
	2800 3250 2350 3250
Wire Wire Line
	2350 3350 2800 3350
Wire Wire Line
	2800 3450 2350 3450
Wire Wire Line
	3150 5850 3850 5850
$Comp
L MyKiCadLibs-Lib:PIN TP101
U 1 1 5711E338
P 3950 5850
F 0 "TP101" H 4250 5850 40  0000 L CNN
F 1 "Test point" H 4225 5800 40  0001 L CNN
F 2 "MyKiCadLibs-Footprints:TP-1mm" H 4290 5740 60  0001 C CNN
F 3 "" H 4290 5740 60  0000 C CNN
F 4 "1mm test point" V 4340 5850 40  0001 C CNN "Description"
	1    3950 5850
	1    0    0    -1  
$EndComp
$Comp
L MyKiCadLibs-Lib:R R101
U 1 1 571724B2
P 1700 2000
F 0 "R101" V 1750 1700 40  0000 C CNN
F 1 "1k" V 1707 2001 40  0000 C CNN
F 2 "MyKiCadLibs-Footprints:SMD-0805" V 1630 2000 30  0001 C CNN
F 3 "" V 1620 2000 30  0000 C CNN
F 4 "100mW" V 1800 2000 40  0001 C CNN "Power"
F 5 "Thick or thin film resistor" V 1945 2000 40  0001 C CNN "Description"
F 6 "0805" V 1875 2000 40  0001 C CNN "Size"
F 7 "1%" V 2025 2000 40  0001 C CNN "Tolerance"
	1    1700 2000
	0    1    -1   0   
$EndComp
$Comp
L MyKiCadLibs-Lib:R R102
U 1 1 57173998
P 1700 2100
F 0 "R102" V 1750 1800 40  0000 C CNN
F 1 "1k" V 1707 2101 40  0000 C CNN
F 2 "MyKiCadLibs-Footprints:SMD-0805" V 1630 2100 30  0001 C CNN
F 3 "" V 1620 2100 30  0000 C CNN
F 4 "100mW" V 1800 2100 40  0001 C CNN "Power"
F 5 "Thick or thin film resistor" V 1945 2100 40  0001 C CNN "Description"
F 6 "0805" V 1875 2100 40  0001 C CNN "Size"
F 7 "1%" V 2025 2100 40  0001 C CNN "Tolerance"
	1    1700 2100
	0    1    -1   0   
$EndComp
Text Notes 4800 5250 0    118  ~ 0
Notes:
$Sheet
S 4850 6550 1450 950 
U 592CD480
F0 "Reset-NCP308" 60
F1 "Reset-NCP308.sch" 60
F2 "GLB_RESET" O L 4850 6750 60 
F3 "RST_IN" I L 4850 7300 60 
$EndSheet
$Comp
L MyKiCadLibs-Lib:R R103
U 1 1 592E0E8A
P 3850 6250
F 0 "R103" V 3950 6250 40  0000 C CNN
F 1 "10k" V 3857 6251 40  0000 C CNN
F 2 "MyKiCadLibs-Footprints:SMD-0805" V 3780 6250 30  0001 C CNN
F 3 "" V 3770 6250 30  0000 C CNN
F 4 "100mW" V 3950 6250 40  0001 C CNN "Power"
F 5 "Thick or thin film resistor" V 4095 6250 40  0001 C CNN "Description"
F 6 "0805" V 4025 6250 40  0001 C CNN "Size"
F 7 "1%" V 4175 6250 40  0001 C CNN "Tolerance"
	1    3850 6250
	1    0    0    1   
$EndComp
$Comp
L power:GNDD #PWR102
U 1 1 592E4673
P 3850 6600
F 0 "#PWR102" H 3850 6350 50  0001 C CNN
F 1 "GNDD" H 3850 6450 50  0000 C CNN
F 2 "" H 3850 6600 60  0000 C CNN
F 3 "" H 3850 6600 60  0000 C CNN
	1    3850 6600
	1    0    0    -1  
$EndComp
Wire Wire Line
	3850 6600 3850 6500
Wire Wire Line
	3850 6000 3850 5850
Connection ~ 3850 5850
Wire Wire Line
	3150 7300 4850 7300
Wire Wire Line
	4850 6750 4300 6750
Text Label 4300 6750 0    60   ~ 0
GLB_RST
Wire Wire Line
	2800 3850 2250 3850
Text Label 2250 3850 0    60   ~ 0
GLB_RST
Text Label 3600 6850 2    59   ~ 0
SDATA5
Text Label 3600 6950 2    59   ~ 0
SDATA6
Text Label 3600 7050 2    59   ~ 0
SDATA7
Text Label 3600 7150 2    59   ~ 0
SDATA8
Wire Wire Line
	3600 6850 3150 6850
Wire Wire Line
	3150 6950 3600 6950
Wire Wire Line
	3600 7050 3150 7050
Wire Wire Line
	3150 7150 3600 7150
$Comp
L MyKiCadLibs-Lib:R R106
U 1 1 59A4E2DB
P 2300 2700
F 0 "R106" V 2350 2400 40  0000 C CNN
F 1 "0" V 2307 2701 40  0000 C CNN
F 2 "MyKiCadLibs-Footprints:SMD-0805" V 2230 2700 30  0001 C CNN
F 3 "" V 2220 2700 30  0000 C CNN
F 4 "100mW" V 2400 2700 40  0001 C CNN "Power"
F 5 "Thick or thin film resistor" V 2545 2700 40  0001 C CNN "Description"
F 6 "0805" V 2475 2700 40  0001 C CNN "Size"
F 7 "1%" V 2625 2700 40  0001 C CNN "Tolerance"
	1    2300 2700
	0    1    -1   0   
$EndComp
$Comp
L MyKiCadLibs-Lib:R R107
U 1 1 59A4E2E5
P 2300 2800
F 0 "R107" V 2350 2500 40  0000 C CNN
F 1 "N/F" V 2307 2801 40  0000 C CNN
F 2 "MyKiCadLibs-Footprints:SMD-0805" V 2230 2800 30  0001 C CNN
F 3 "" V 2220 2800 30  0000 C CNN
F 4 "100mW" V 2400 2800 40  0001 C CNN "Power"
F 5 "Thick or thin film resistor - NOT FITTED" V 2545 2800 40  0001 C CNN "Description"
F 6 "0805" V 2475 2800 40  0001 C CNN "Size"
F 7 "1%" V 2625 2800 40  0001 C CNN "Tolerance"
	1    2300 2800
	0    1    -1   0   
$EndComp
Wire Wire Line
	2550 2700 2800 2700
Wire Wire Line
	2800 2800 2550 2800
Wire Wire Line
	2050 2700 1850 2700
Wire Wire Line
	1850 2700 1850 2800
Connection ~ 1850 2800
Wire Wire Line
	2100 2200 2800 2200
Wire Wire Line
	2800 2300 2100 2300
Text Label 2100 2000 0    59   ~ 0
SDATA5
Text Label 2100 2100 0    59   ~ 0
SDATA6
Text Label 2100 2200 0    59   ~ 0
SDATA7
Text Label 2100 2300 0    59   ~ 0
SDATA8
$Comp
L power:GNDD #PWR101
U 1 1 5638700A
P 1200 2400
F 0 "#PWR101" H 1200 2150 50  0001 C CNN
F 1 "GNDD" H 1200 2250 50  0000 C CNN
F 2 "" H 1200 2400 60  0000 C CNN
F 3 "" H 1200 2400 60  0000 C CNN
	1    1200 2400
	1    0    0    -1  
$EndComp
Wire Wire Line
	1200 2000 1200 2100
Wire Wire Line
	1200 2100 1200 2400
Wire Wire Line
	3850 5850 3950 5850
Wire Wire Line
	1850 2800 2050 2800
$EndSCHEMATC
