EESchema Schematic File Version 4
LIBS:DAC-ADAU1966-cache
EELAYER 26 0
EELAYER END
$Descr A4 11693 8268
encoding utf-8
Sheet 6 6
Title "DAC-ADAU1966 with Passive Output Filters"
Date "2018-09-05"
Rev "3.0"
Comp "Open Hardware DSP Platform - www.ohdsp.org"
Comment1 "MERCHANTABILITY, SATISFACTORY QUALITY AND FITNESS FOR A PARTICULAR PURPOSE."
Comment2 "is distributed WITHOUT ANY EXPRESS OR IMPLIED WARRANTY, INCLUDING OF "
Comment3 "Licensed under the TAPR Open Hardware License (www.tapr.org/OHL). This documentation"
Comment4 "Copyright Paul Janicki 2018"
$EndDescr
Text Notes 1000 1300 0    59   ~ 0
Generate a global reset based on 2V5 voltage rail.\nUse NCP308SNADJT1G adjustable version.\nSupports SPI reset and external reset push button.
Text Notes 1000 1000 0    118  ~ 0
Voltage Monitor Reset
Text Notes 8800 3750 0    59   ~ 0
External push button\nreset input
$Comp
L power:GNDD #PWR607
U 1 1 57DA6BEE
P 6600 3800
F 0 "#PWR607" H 6600 3550 60  0001 C CNN
F 1 "GNDD" H 6600 3650 60  0000 C CNN
F 2 "" H 6600 3800 60  0000 C CNN
F 3 "" H 6600 3800 60  0000 C CNN
	1    6600 3800
	-1   0    0    -1  
$EndComp
$Comp
L power:GNDD #PWR606
U 1 1 57DA6BFA
P 2750 3700
F 0 "#PWR606" H 2750 3450 60  0001 C CNN
F 1 "GNDD" H 2750 3550 60  0000 C CNN
F 2 "" H 2750 3700 60  0000 C CNN
F 3 "" H 2750 3700 60  0000 C CNN
	1    2750 3700
	-1   0    0    -1  
$EndComp
$Comp
L power:GNDD #PWR605
U 1 1 57DA6C00
P 6300 3400
F 0 "#PWR605" H 6300 3150 60  0001 C CNN
F 1 "GNDD" H 6300 3250 60  0000 C CNN
F 2 "" H 6300 3400 60  0000 C CNN
F 3 "" H 6300 3400 60  0000 C CNN
	1    6300 3400
	1    0    0    -1  
$EndComp
$Comp
L power:GNDD #PWR608
U 1 1 57DA6C06
P 4900 3850
F 0 "#PWR608" H 4900 3600 60  0001 C CNN
F 1 "GNDD" H 4900 3700 60  0000 C CNN
F 2 "" H 4900 3850 60  0000 C CNN
F 3 "" H 4900 3850 60  0000 C CNN
	1    4900 3850
	-1   0    0    -1  
$EndComp
Text HLabel 8300 2250 2    60   Output ~ 0
GLB_RESET
Text HLabel 8600 3250 2    60   Input ~ 0
RST_IN
$Comp
L power:GNDD #PWR603
U 1 1 57DA6C27
P 8200 2800
F 0 "#PWR603" H 8200 2550 60  0001 C CNN
F 1 "GNDD" H 8200 2650 60  0000 C CNN
F 2 "" H 8200 2800 60  0000 C CNN
F 3 "" H 8200 2800 60  0000 C CNN
	1    8200 2800
	-1   0    0    -1  
$EndComp
$Comp
L power:GNDD #PWR610
U 1 1 57DA6C34
P 8100 3900
F 0 "#PWR610" H 8100 3650 60  0001 C CNN
F 1 "GNDD" H 8100 3750 60  0000 C CNN
F 2 "" H 8100 3900 60  0000 C CNN
F 3 "" H 8100 3900 60  0000 C CNN
	1    8100 3900
	-1   0    0    -1  
$EndComp
$Comp
L MyKiCadLibs-Lib:PIN TP602
U 1 1 57DA6C41
P 7500 2100
F 0 "TP602" H 7875 2100 40  0000 C CNN
F 1 "PIN" H 8000 2100 40  0001 C CNN
F 2 "MyKiCadLibs-Footprints:TP-2mm" H 7840 1990 60  0001 C CNN
F 3 "" H 7840 1990 60  0000 C CNN
	1    7500 2100
	1    0    0    -1  
$EndComp
$Comp
L MyKiCadLibs-Lib:CONN_2x1 P601
U 1 1 57DA6C4A
P 8150 3600
F 0 "P601" V 8645 3445 40  0000 C CNN
F 1 "CONN_2x1" V 8590 3560 40  0000 C CNN
F 2 "MyKiCadLibs-Footprints:CONN_SIL_2_1MM" H 8490 3490 60  0001 C CNN
F 3 "" H 8490 3490 60  0000 C CNN
F 4 "1x2 2.54mm pitch pin header" H 8400 3350 40  0001 C CNN "Description"
	1    8150 3600
	1    0    0    -1  
$EndComp
$Comp
L MyKiCadLibs-Lib:C C607
U 1 1 57DA6C62
P 8200 2550
F 0 "C607" H 8200 2650 40  0000 L CNN
F 1 "100n" H 8210 2465 40  0000 L CNN
F 2 "MyKiCadLibs-Footprints:SMD-0805" H 8238 2400 30  0001 C CNN
F 3 "" H 8200 2650 60  0000 C CNN
F 4 "50V" H 8265 2400 40  0000 C CNN "Voltage"
F 5 "X7R" H 8270 2325 40  0000 C CNN "Type"
F 6 "Ceramic capacitor" H 8200 2850 40  0001 L CNN "Description"
F 7 "10%" H 8600 3050 40  0001 C CNN "Tolerance"
F 8 "0805" H 8200 2550 60  0001 C CNN "Size"
	1    8200 2550
	1    0    0    -1  
$EndComp
$Comp
L MyKiCadLibs-Lib:C C605
U 1 1 57DA6C6E
P 6600 3550
F 0 "C605" H 6600 3650 40  0000 L CNN
F 1 "10n" H 6610 3465 40  0000 L CNN
F 2 "MyKiCadLibs-Footprints:SMD-0805" H 6638 3400 30  0001 C CNN
F 3 "" H 6600 3650 60  0000 C CNN
F 4 "50V" H 6665 3400 40  0000 C CNN "Voltage"
F 5 "X7R" H 6670 3325 40  0000 C CNN "Type"
F 6 "Ceramic capacitor" H 6600 3850 40  0001 L CNN "Description"
F 7 "10%" H 7000 4050 40  0001 C CNN "Tolerance"
F 8 "0805" H 6600 3550 60  0001 C CNN "Size"
	1    6600 3550
	1    0    0    -1  
$EndComp
$Comp
L MyKiCadLibs-Lib:C C602
U 1 1 57DA6C86
P 2750 3350
F 0 "C602" H 2750 3450 40  0000 L CNN
F 1 "10u" H 2760 3265 40  0000 L CNN
F 2 "MyKiCadLibs-Footprints:SMD-0805" H 2788 3200 30  0001 C CNN
F 3 "" H 2750 3450 60  0000 C CNN
F 4 "10V" H 2815 3200 40  0000 C CNN "Voltage"
F 5 "X5R" H 2820 3125 40  0000 C CNN "Type"
F 6 "Ceramic capacitor" H 2750 3650 40  0001 L CNN "Description"
F 7 "20%" H 3150 3850 40  0001 C CNN "Tolerance"
F 8 "0805" H 2750 3350 60  0001 C CNN "Size"
	1    2750 3350
	1    0    0    -1  
$EndComp
$Comp
L MyKiCadLibs-Lib:C C603
U 1 1 57DA6C92
P 3000 3350
F 0 "C603" H 3000 3450 40  0000 L CNN
F 1 "100n" H 3010 3265 40  0000 L CNN
F 2 "MyKiCadLibs-Footprints:SMD-0805" H 3038 3200 30  0001 C CNN
F 3 "" H 3000 3450 60  0000 C CNN
F 4 "50V" H 3065 3200 40  0000 C CNN "Voltage"
F 5 "X7R" H 3070 3125 40  0000 C CNN "Type"
F 6 "Ceramic capacitor" H 3000 3650 40  0001 L CNN "Description"
F 7 "10%" H 3400 3850 40  0001 C CNN "Tolerance"
F 8 "0805" H 3000 3350 60  0001 C CNN "Size"
	1    3000 3350
	1    0    0    -1  
$EndComp
$Comp
L MyKiCadLibs-Lib:R R607
U 1 1 57DA6D02
P 4900 3450
F 0 "R607" V 4820 3450 40  0000 C CNN
F 1 "2k0" V 4907 3451 40  0000 C CNN
F 2 "MyKiCadLibs-Footprints:SMD-0805" V 4830 3450 30  0001 C CNN
F 3 "" V 4820 3450 30  0000 C CNN
F 4 "100mW" V 5000 3450 40  0001 C CNN "Power"
F 5 "Thick or thin film resistor" V 5145 3450 40  0001 C CNN "Description"
F 6 "0805" V 5075 3450 40  0001 C CNN "Size"
F 7 "1%" V 5225 3450 40  0001 C CNN "Tolerance"
	1    4900 3450
	1    0    0    1   
$EndComp
$Comp
L MyKiCadLibs-Lib:R R608
U 1 1 57DA6D0D
P 6900 3250
F 0 "R608" V 6800 3250 40  0000 C CNN
F 1 "100" V 6907 3251 40  0000 C CNN
F 2 "MyKiCadLibs-Footprints:SMD-0805" V 6830 3250 30  0001 C CNN
F 3 "" V 6820 3250 30  0000 C CNN
F 4 "100mW" V 7000 3250 40  0001 C CNN "Power"
F 5 "Thick or thin film resistor" V 7145 3250 40  0001 C CNN "Description"
F 6 "0805" V 7075 3250 40  0001 C CNN "Size"
F 7 "1%" V 7225 3250 40  0001 C CNN "Tolerance"
	1    6900 3250
	0    -1   1    0   
$EndComp
$Comp
L MyKiCadLibs-Lib:R R610
U 1 1 57DA6D23
P 7150 2250
F 0 "R610" V 7050 2250 40  0000 C CNN
F 1 "100" V 7157 2251 40  0000 C CNN
F 2 "MyKiCadLibs-Footprints:SMD-0805" V 7080 2250 30  0001 C CNN
F 3 "" V 7070 2250 30  0000 C CNN
F 4 "100mW" V 7250 2250 40  0001 C CNN "Power"
F 5 "Thick or thin film resistor" V 7395 2250 40  0001 C CNN "Description"
F 6 "0805" V 7325 2250 40  0001 C CNN "Size"
F 7 "1%" V 7475 2250 40  0001 C CNN "Tolerance"
	1    7150 2250
	0    1    1    0   
$EndComp
Wire Wire Line
	8100 3700 8150 3700
Wire Wire Line
	8100 3900 8100 3700
Connection ~ 7950 3250
Wire Wire Line
	7150 3250 8600 3250
Wire Wire Line
	7950 3250 7950 3600
Wire Wire Line
	7950 3600 8150 3600
Wire Wire Line
	6550 2250 6900 2250
Wire Wire Line
	6550 3050 6250 3050
Wire Wire Line
	6550 2150 6550 3050
Wire Wire Line
	7400 2250 8300 2250
Wire Wire Line
	8200 2800 8200 2750
Connection ~ 6600 3250
Wire Wire Line
	6600 3350 6600 3250
Wire Wire Line
	6250 3250 6650 3250
Wire Wire Line
	4900 3700 4900 3850
Wire Wire Line
	3450 2700 3450 3150
Connection ~ 4900 3150
Wire Wire Line
	4900 3200 4900 3150
Wire Wire Line
	4600 3150 5350 3150
Wire Wire Line
	6300 3150 6250 3150
Wire Wire Line
	6300 3400 6300 3150
Connection ~ 3000 3050
Connection ~ 2750 3050
Wire Wire Line
	3000 3050 3000 3150
Wire Wire Line
	2750 2950 2750 3150
Connection ~ 2750 3650
Wire Wire Line
	2750 3650 3000 3650
Wire Wire Line
	3000 3650 3000 3550
Wire Wire Line
	2750 3550 2750 3700
Wire Wire Line
	6600 3800 6600 3750
Wire Wire Line
	7450 2100 7500 2100
Wire Wire Line
	7450 2100 7450 2250
Connection ~ 7450 2250
Wire Wire Line
	8200 2350 8200 2250
Connection ~ 8200 2250
Wire Wire Line
	3450 3150 4100 3150
$Comp
L MyKiCadLibs-Lib:R R605
U 1 1 57DA6CE1
P 4350 3150
F 0 "R605" V 4300 3450 40  0000 C CNN
F 1 "10k" V 4357 3151 40  0000 C CNN
F 2 "MyKiCadLibs-Footprints:SMD-0805" V 4280 3150 30  0001 C CNN
F 3 "" V 4270 3150 30  0000 C CNN
F 4 "100mW" V 4450 3150 40  0001 C CNN "Power"
F 5 "Thick or thin film resistor" V 4595 3150 40  0001 C CNN "Description"
F 6 "0805" V 4525 3150 40  0001 C CNN "Size"
F 7 "1%" V 4675 3150 40  0001 C CNN "Tolerance"
	1    4350 3150
	0    -1   1    0   
$EndComp
$Comp
L power:+2V5 #PWR602
U 1 1 592CDB09
P 3450 2700
F 0 "#PWR602" H 3450 2550 50  0001 C CNN
F 1 "+2V5" H 3450 2840 50  0000 C CNN
F 2 "" H 3450 2700 50  0001 C CNN
F 3 "" H 3450 2700 50  0001 C CNN
	1    3450 2700
	1    0    0    -1  
$EndComp
$Comp
L power:+3V3 #PWR604
U 1 1 592CDB4F
P 2750 2950
F 0 "#PWR604" H 2750 2800 50  0001 C CNN
F 1 "+3V3" H 2750 3090 50  0000 C CNN
F 2 "" H 2750 2950 50  0001 C CNN
F 3 "" H 2750 2950 50  0001 C CNN
	1    2750 2950
	1    0    0    -1  
$EndComp
Wire Wire Line
	2750 3050 5350 3050
$Comp
L MyKiCadLibs-Lib:IC-RST-NCP308 U601
U 1 1 59C757D9
P 6250 3050
F 0 "U601" H 6700 3300 60  0000 C CNN
F 1 "NCP308SNADJT1G" H 6700 3200 60  0000 C CNN
F 2 "MyKiCadLibs-Footprints:IC-SOT23-6" H 6750 2700 60  0001 C CNN
F 3 "" H 6200 3650 60  0001 C CNN
F 4 "On Semi NCP308 SOT-23-6 TSOP-6 Supervisor" H 6700 2600 60  0001 C CNN "Description"
	1    6250 3050
	-1   0    0    -1  
$EndComp
Text Notes 3600 3850 0    59   ~ 0
USE 1% RESISTORS \nOR BETTER\nSENSE2 Vmin=4.7V\nSENSE3 Vmin=2.45V\nEnsure power rails\nare above these values
$Comp
L power:GNDD #PWR609
U 1 1 59C7B2BD
P 5200 3850
F 0 "#PWR609" H 5200 3600 60  0001 C CNN
F 1 "GNDD" H 5200 3700 60  0000 C CNN
F 2 "" H 5200 3850 60  0000 C CNN
F 3 "" H 5200 3850 60  0000 C CNN
	1    5200 3850
	-1   0    0    -1  
$EndComp
$Comp
L MyKiCadLibs-Lib:C C601
U 1 1 59C7B2C8
P 5200 3600
F 0 "C601" H 5200 3700 40  0000 L CNN
F 1 "10n" H 5210 3515 40  0000 L CNN
F 2 "MyKiCadLibs-Footprints:SMD-0805" H 5238 3450 30  0001 C CNN
F 3 "" H 5200 3700 60  0000 C CNN
F 4 "50V" H 5265 3450 40  0000 C CNN "Voltage"
F 5 "X7R" H 5270 3375 40  0000 C CNN "Type"
F 6 "Ceramic capacitor" H 5200 3900 40  0001 L CNN "Description"
F 7 "10%" H 5600 4100 40  0001 C CNN "Tolerance"
F 8 "0805" H 5200 3600 60  0001 C CNN "Size"
	1    5200 3600
	1    0    0    -1  
$EndComp
Wire Wire Line
	5200 3850 5200 3800
Wire Wire Line
	5200 3400 5200 3250
Wire Wire Line
	5200 3250 5350 3250
$Comp
L MyKiCadLibs-Lib:R R601
U 1 1 59C7B74C
P 6550 1900
F 0 "R601" V 6470 1900 40  0000 C CNN
F 1 "2k0" V 6557 1901 40  0000 C CNN
F 2 "MyKiCadLibs-Footprints:SMD-0805" V 6480 1900 30  0001 C CNN
F 3 "" V 6470 1900 30  0000 C CNN
F 4 "100mW" V 6650 1900 40  0001 C CNN "Power"
F 5 "Thick or thin film resistor" V 6795 1900 40  0001 C CNN "Description"
F 6 "0805" V 6725 1900 40  0001 C CNN "Size"
F 7 "1%" V 6875 1900 40  0001 C CNN "Tolerance"
	1    6550 1900
	-1   0    0    -1  
$EndComp
Connection ~ 6550 2250
$Comp
L power:+3V3 #PWR601
U 1 1 59C7B998
P 6550 1550
F 0 "#PWR601" H 6550 1400 50  0001 C CNN
F 1 "+3V3" H 6550 1690 50  0000 C CNN
F 2 "" H 6550 1550 50  0001 C CNN
F 3 "" H 6550 1550 50  0001 C CNN
	1    6550 1550
	1    0    0    -1  
$EndComp
Wire Wire Line
	6550 1550 6550 1650
$EndSCHEMATC
