EESchema Schematic File Version 2
LIBS:power
LIBS:MyKiCadLibs-Lib
LIBS:DACOne-cache
EELAYER 25 0
EELAYER END
$Descr A3 16535 11693
encoding utf-8
Sheet 5 6
Title "DACOne - ADAU1966 with Passive Output Filters"
Date "2018-04-30"
Rev "3.0"
Comp "Open Hardware DSP Platform - www.ohdsp.org"
Comment1 "MERCHANTABILITY, SATISFACTORY QUALITY AND FITNESS FOR A PARTICULAR PURPOSE."
Comment2 "is distributed WITHOUT ANY EXPRESS OR IMPLIED WARRANTY, INCLUDING OF "
Comment3 "Licensed under the TAPR Open Hardware License (www.tapr.org/OHL). This documentation"
Comment4 "Copyright Paul Janicki 2018"
$EndDescr
Text HLabel 5050 1400 0    60   Input ~ 0
P1
Text HLabel 5050 2250 0    60   Input ~ 0
N1
$Comp
L GNDA #PWR501
U 1 1 563051ED
P 6050 1800
F 0 "#PWR501" H 6050 1550 50  0001 C CNN
F 1 "GNDA" H 6050 1650 50  0000 C CNN
F 2 "" H 6050 1800 60  0000 C CNN
F 3 "" H 6050 1800 60  0000 C CNN
	1    6050 1800
	1    0    0    -1  
$EndComp
Text HLabel 5050 2450 0    60   Input ~ 0
P2
Text HLabel 5050 3300 0    60   Input ~ 0
N2
$Comp
L GNDA #PWR503
U 1 1 563A7485
P 6050 2850
F 0 "#PWR503" H 6050 2600 50  0001 C CNN
F 1 "GNDA" H 6050 2700 50  0000 C CNN
F 2 "" H 6050 2850 60  0000 C CNN
F 3 "" H 6050 2850 60  0000 C CNN
	1    6050 2850
	1    0    0    -1  
$EndComp
Text HLabel 5050 3500 0    60   Input ~ 0
P3
Text HLabel 5050 4350 0    60   Input ~ 0
N3
$Comp
L GNDA #PWR505
U 1 1 563A77DD
P 6050 3900
F 0 "#PWR505" H 6050 3650 50  0001 C CNN
F 1 "GNDA" H 6050 3750 50  0000 C CNN
F 2 "" H 6050 3900 60  0000 C CNN
F 3 "" H 6050 3900 60  0000 C CNN
	1    6050 3900
	1    0    0    -1  
$EndComp
Text HLabel 5050 4550 0    60   Input ~ 0
P4
Text HLabel 5050 5400 0    60   Input ~ 0
N4
$Comp
L GNDA #PWR511
U 1 1 563A7826
P 6050 4950
F 0 "#PWR511" H 6050 4700 50  0001 C CNN
F 1 "GNDA" H 6050 4800 50  0000 C CNN
F 2 "" H 6050 4950 60  0000 C CNN
F 3 "" H 6050 4950 60  0000 C CNN
	1    6050 4950
	1    0    0    -1  
$EndComp
Text HLabel 5050 5950 0    60   Input ~ 0
P5
Text HLabel 5050 6800 0    60   Input ~ 0
N5
Text HLabel 5050 7000 0    60   Input ~ 0
P6
Text HLabel 5050 7850 0    60   Input ~ 0
N6
Text HLabel 5050 8050 0    60   Input ~ 0
P7
Text HLabel 5050 8900 0    60   Input ~ 0
N7
Text HLabel 5050 9100 0    60   Input ~ 0
P8
Text HLabel 5050 9950 0    60   Input ~ 0
N8
Wire Wire Line
	5650 1400 5800 1400
Connection ~ 5700 1400
Wire Wire Line
	5650 2250 5800 2250
Wire Wire Line
	5700 1400 5700 1550
Wire Wire Line
	5700 2250 5700 1950
Wire Wire Line
	5050 2250 5150 2250
Wire Wire Line
	5150 1400 5050 1400
Connection ~ 5700 2250
Wire Wire Line
	5850 1600 5850 2100
Wire Wire Line
	5850 1700 6050 1700
Wire Wire Line
	6050 1700 6050 1800
Connection ~ 5850 1700
Wire Wire Line
	5850 1600 5900 1600
Wire Wire Line
	5850 2100 5900 2100
Wire Wire Line
	6300 2250 6950 2250
Wire Wire Line
	6450 2250 6450 2100
Wire Wire Line
	6450 2100 6400 2100
Wire Wire Line
	6300 1400 7050 1400
Wire Wire Line
	6450 1400 6450 1600
Wire Wire Line
	6450 1600 6400 1600
Wire Wire Line
	5650 2450 5800 2450
Connection ~ 5700 2450
Wire Wire Line
	5650 3300 5800 3300
Wire Wire Line
	5700 2450 5700 2600
Wire Wire Line
	5700 3300 5700 3000
Wire Wire Line
	5050 3300 5150 3300
Wire Wire Line
	5150 2450 5050 2450
Connection ~ 5700 3300
Wire Wire Line
	5850 2650 5850 3150
Wire Wire Line
	5850 2750 6050 2750
Wire Wire Line
	6050 2750 6050 2850
Connection ~ 5850 2750
Wire Wire Line
	5850 2650 5900 2650
Wire Wire Line
	5850 3150 5900 3150
Wire Wire Line
	6450 3150 6450 3400
Wire Wire Line
	6450 3150 6400 3150
Wire Wire Line
	6300 2450 6850 2450
Wire Wire Line
	6450 2450 6450 2650
Wire Wire Line
	6450 2650 6400 2650
Wire Wire Line
	5650 3500 5800 3500
Connection ~ 5700 3500
Wire Wire Line
	5650 4350 5800 4350
Wire Wire Line
	5700 3500 5700 3650
Wire Wire Line
	5700 4350 5700 4050
Wire Wire Line
	5050 4350 5150 4350
Wire Wire Line
	5150 3500 5050 3500
Connection ~ 5700 4350
Wire Wire Line
	5850 3700 5850 4200
Wire Wire Line
	5850 3800 6050 3800
Wire Wire Line
	6050 3800 6050 3900
Connection ~ 5850 3800
Wire Wire Line
	5850 3700 5900 3700
Wire Wire Line
	5850 4200 5900 4200
Wire Wire Line
	6300 4350 6450 4350
Wire Wire Line
	6450 4350 6450 4200
Wire Wire Line
	6400 4200 6850 4200
Wire Wire Line
	6300 3500 7350 3500
Wire Wire Line
	6450 3500 6450 3700
Wire Wire Line
	6450 3700 6400 3700
Wire Wire Line
	5650 4550 5800 4550
Connection ~ 5700 4550
Wire Wire Line
	5650 5400 5800 5400
Wire Wire Line
	5700 4550 5700 4700
Wire Wire Line
	5700 5400 5700 5100
Wire Wire Line
	5050 5400 5150 5400
Wire Wire Line
	5150 4550 5050 4550
Connection ~ 5700 5400
Wire Wire Line
	5850 4750 5850 5250
Wire Wire Line
	5850 4850 6050 4850
Wire Wire Line
	6050 4850 6050 4950
Connection ~ 5850 4850
Wire Wire Line
	5850 4750 5900 4750
Wire Wire Line
	5850 5250 5900 5250
Wire Wire Line
	6300 5400 7050 5400
Wire Wire Line
	6450 5400 6450 5250
Wire Wire Line
	6450 5250 6400 5250
Wire Wire Line
	6300 4550 6950 4550
Wire Wire Line
	6450 4550 6450 4750
Wire Wire Line
	6450 4750 6400 4750
Wire Wire Line
	5050 6800 5150 6800
Wire Wire Line
	5150 5950 5050 5950
Wire Wire Line
	5050 7850 5150 7850
Wire Wire Line
	5150 7000 5050 7000
Wire Wire Line
	5050 8900 5150 8900
Wire Wire Line
	5150 8050 5050 8050
Wire Wire Line
	5050 9950 5150 9950
Wire Wire Line
	5150 9100 5050 9100
Wire Wire Line
	7050 1400 7050 3100
Connection ~ 6450 1400
Wire Wire Line
	6950 2250 6950 3200
Connection ~ 6450 2250
Wire Wire Line
	6850 2450 6850 3300
Connection ~ 6450 2450
Connection ~ 6450 3300
Wire Wire Line
	7350 3800 7050 3800
Wire Wire Line
	7050 3800 7050 5400
Connection ~ 6450 5400
Wire Wire Line
	7350 3700 6950 3700
Wire Wire Line
	6950 3700 6950 4550
Connection ~ 6450 4550
Wire Wire Line
	7350 3600 6850 3600
Wire Wire Line
	6850 3600 6850 4200
Connection ~ 6450 4200
Connection ~ 6450 3500
Wire Wire Line
	6450 3400 7350 3400
Wire Wire Line
	6300 3300 6450 3300
Wire Wire Line
	6850 3300 7350 3300
Wire Wire Line
	6950 3200 7350 3200
Wire Wire Line
	7050 3100 7350 3100
$Comp
L GNDA #PWR507
U 1 1 563AD1EC
P 7250 4000
F 0 "#PWR507" H 7250 3750 50  0001 C CNN
F 1 "GNDA" H 7250 3850 50  0000 C CNN
F 2 "" H 7250 4000 60  0000 C CNN
F 3 "" H 7250 4000 60  0000 C CNN
	1    7250 4000
	1    0    0    -1  
$EndComp
Wire Wire Line
	7250 3000 7250 4000
Wire Wire Line
	7250 3900 7350 3900
Wire Wire Line
	7250 3000 7350 3000
Connection ~ 7250 3900
$Comp
L GNDA #PWR508
U 1 1 563AD4A5
P 7950 4000
F 0 "#PWR508" H 7950 3750 50  0001 C CNN
F 1 "GNDA" H 7950 3850 50  0000 C CNN
F 2 "" H 7950 4000 60  0000 C CNN
F 3 "" H 7950 4000 60  0000 C CNN
	1    7950 4000
	1    0    0    -1  
$EndComp
Wire Wire Line
	7950 3000 7950 4000
Wire Wire Line
	7950 3900 7850 3900
Wire Wire Line
	7950 3800 7850 3800
Connection ~ 7950 3900
Wire Wire Line
	7850 3700 7950 3700
Connection ~ 7950 3800
Wire Wire Line
	7850 3600 7950 3600
Connection ~ 7950 3700
Wire Wire Line
	7850 3500 7950 3500
Connection ~ 7950 3600
Wire Wire Line
	7850 3400 7950 3400
Connection ~ 7950 3500
Wire Wire Line
	7850 3300 7950 3300
Connection ~ 7950 3400
Wire Wire Line
	7850 3200 7950 3200
Connection ~ 7950 3300
Wire Wire Line
	7850 3100 7950 3100
Connection ~ 7950 3200
Wire Wire Line
	7850 3000 7950 3000
Connection ~ 7950 3100
Wire Wire Line
	7050 5950 7050 7650
Wire Wire Line
	6950 6800 6950 7750
Wire Wire Line
	6850 7000 6850 7850
Wire Wire Line
	7350 8350 7050 8350
Wire Wire Line
	7050 8350 7050 9950
Wire Wire Line
	7350 8250 6950 8250
Wire Wire Line
	6950 8250 6950 9100
Wire Wire Line
	7350 8150 6850 8150
Wire Wire Line
	6850 8150 6850 8750
Wire Wire Line
	6850 7850 7350 7850
Wire Wire Line
	6950 7750 7350 7750
Wire Wire Line
	7050 7650 7350 7650
$Comp
L GNDA #PWR519
U 1 1 563AE802
P 7250 8550
F 0 "#PWR519" H 7250 8300 50  0001 C CNN
F 1 "GNDA" H 7250 8400 50  0000 C CNN
F 2 "" H 7250 8550 60  0000 C CNN
F 3 "" H 7250 8550 60  0000 C CNN
	1    7250 8550
	1    0    0    -1  
$EndComp
Wire Wire Line
	7250 7550 7250 8550
Wire Wire Line
	7250 8450 7350 8450
Wire Wire Line
	7250 7550 7350 7550
Connection ~ 7250 8450
$Comp
L GNDA #PWR520
U 1 1 563AE80C
P 7950 8550
F 0 "#PWR520" H 7950 8300 50  0001 C CNN
F 1 "GNDA" H 7950 8400 50  0000 C CNN
F 2 "" H 7950 8550 60  0000 C CNN
F 3 "" H 7950 8550 60  0000 C CNN
	1    7950 8550
	1    0    0    -1  
$EndComp
Wire Wire Line
	7950 7550 7950 8550
Wire Wire Line
	7950 8450 7850 8450
Wire Wire Line
	7950 8350 7850 8350
Connection ~ 7950 8450
Wire Wire Line
	7850 8250 7950 8250
Connection ~ 7950 8350
Wire Wire Line
	7850 8150 7950 8150
Connection ~ 7950 8250
Wire Wire Line
	7850 8050 7950 8050
Connection ~ 7950 8150
Wire Wire Line
	7850 7950 7950 7950
Connection ~ 7950 8050
Wire Wire Line
	7850 7850 7950 7850
Connection ~ 7950 7950
Wire Wire Line
	7850 7750 7950 7750
Connection ~ 7950 7850
Wire Wire Line
	7850 7650 7950 7650
Connection ~ 7950 7750
Wire Wire Line
	7850 7550 7950 7550
Connection ~ 7950 7650
Text HLabel 8750 1450 0    60   Input ~ 0
P9
Text HLabel 8750 2300 0    60   Input ~ 0
N9
Text HLabel 8750 2500 0    60   Input ~ 0
P10
Text HLabel 8750 3350 0    60   Input ~ 0
N10
Text HLabel 8750 3550 0    60   Input ~ 0
P11
Text HLabel 8750 4400 0    60   Input ~ 0
N11
Text HLabel 8750 4600 0    60   Input ~ 0
P12
Text HLabel 8750 5450 0    60   Input ~ 0
N12
Text HLabel 8750 6000 0    60   Input ~ 0
P13
Text HLabel 8750 6850 0    60   Input ~ 0
N13
Text HLabel 8750 7050 0    60   Input ~ 0
P14
Text HLabel 8750 7900 0    60   Input ~ 0
N14
Text HLabel 8750 8100 0    60   Input ~ 0
P15
Text HLabel 8750 8950 0    60   Input ~ 0
N15
Text HLabel 8750 9150 0    60   Input ~ 0
P16
Text HLabel 8750 10000 0    60   Input ~ 0
N16
Wire Wire Line
	8750 2300 8850 2300
Wire Wire Line
	8850 1450 8750 1450
Wire Wire Line
	8750 3350 8850 3350
Wire Wire Line
	8850 2500 8750 2500
Wire Wire Line
	8750 4400 8850 4400
Wire Wire Line
	8850 3550 8750 3550
Wire Wire Line
	8750 5450 8850 5450
Wire Wire Line
	8850 4600 8750 4600
Wire Wire Line
	8750 6850 8850 6850
Wire Wire Line
	8850 6000 8750 6000
Wire Wire Line
	8750 7900 8850 7900
Wire Wire Line
	8850 7050 8750 7050
Wire Wire Line
	8750 8950 8850 8950
Wire Wire Line
	8850 8100 8750 8100
Wire Wire Line
	8750 10000 8850 10000
Wire Wire Line
	8850 9150 8750 9150
Wire Wire Line
	10750 1450 10750 3150
Wire Wire Line
	10650 2300 10650 3250
Wire Wire Line
	10550 2500 10550 3350
Wire Wire Line
	11050 3850 10750 3850
Wire Wire Line
	10750 3850 10750 5450
Wire Wire Line
	11050 3750 10650 3750
Wire Wire Line
	10650 3750 10650 4600
Wire Wire Line
	11050 3650 10550 3650
Wire Wire Line
	10550 3650 10550 4250
Wire Wire Line
	10550 3350 11050 3350
Wire Wire Line
	10650 3250 11050 3250
Wire Wire Line
	10750 3150 11050 3150
$Comp
L GNDA #PWR509
U 1 1 563B327C
P 10950 4050
F 0 "#PWR509" H 10950 3800 50  0001 C CNN
F 1 "GNDA" H 10950 3900 50  0000 C CNN
F 2 "" H 10950 4050 60  0000 C CNN
F 3 "" H 10950 4050 60  0000 C CNN
	1    10950 4050
	1    0    0    -1  
$EndComp
Wire Wire Line
	10950 3050 10950 4050
Wire Wire Line
	10950 3950 11050 3950
Wire Wire Line
	10950 3050 11050 3050
Connection ~ 10950 3950
$Comp
L GNDA #PWR510
U 1 1 563B3287
P 11650 4050
F 0 "#PWR510" H 11650 3800 50  0001 C CNN
F 1 "GNDA" H 11650 3900 50  0000 C CNN
F 2 "" H 11650 4050 60  0000 C CNN
F 3 "" H 11650 4050 60  0000 C CNN
	1    11650 4050
	1    0    0    -1  
$EndComp
Wire Wire Line
	11650 3050 11650 4050
Wire Wire Line
	11650 3950 11550 3950
Wire Wire Line
	11650 3850 11550 3850
Connection ~ 11650 3950
Wire Wire Line
	11550 3750 11650 3750
Connection ~ 11650 3850
Wire Wire Line
	11550 3650 11650 3650
Connection ~ 11650 3750
Wire Wire Line
	11550 3550 11650 3550
Connection ~ 11650 3650
Wire Wire Line
	11550 3450 11650 3450
Connection ~ 11650 3550
Wire Wire Line
	11550 3350 11650 3350
Connection ~ 11650 3450
Wire Wire Line
	11550 3250 11650 3250
Connection ~ 11650 3350
Wire Wire Line
	11550 3150 11650 3150
Connection ~ 11650 3250
Wire Wire Line
	11550 3050 11650 3050
Connection ~ 11650 3150
Wire Wire Line
	10750 6000 10750 7700
Wire Wire Line
	10650 6850 10650 7800
Wire Wire Line
	10550 7050 10550 7900
Wire Wire Line
	11050 8400 10750 8400
Wire Wire Line
	10750 8400 10750 10000
Wire Wire Line
	11050 8300 10650 8300
Wire Wire Line
	10650 8300 10650 9150
Wire Wire Line
	11050 8200 10550 8200
Wire Wire Line
	10550 8200 10550 8800
Wire Wire Line
	10550 7900 11050 7900
Wire Wire Line
	10650 7800 11050 7800
Wire Wire Line
	10750 7700 11050 7700
$Comp
L GNDA #PWR521
U 1 1 563B32BD
P 10950 8600
F 0 "#PWR521" H 10950 8350 50  0001 C CNN
F 1 "GNDA" H 10950 8450 50  0000 C CNN
F 2 "" H 10950 8600 60  0000 C CNN
F 3 "" H 10950 8600 60  0000 C CNN
	1    10950 8600
	1    0    0    -1  
$EndComp
Wire Wire Line
	10950 7600 10950 8600
Wire Wire Line
	10950 8500 11050 8500
Wire Wire Line
	10950 7600 11050 7600
Connection ~ 10950 8500
$Comp
L GNDA #PWR522
U 1 1 563B32C8
P 11650 8600
F 0 "#PWR522" H 11650 8350 50  0001 C CNN
F 1 "GNDA" H 11650 8450 50  0000 C CNN
F 2 "" H 11650 8600 60  0000 C CNN
F 3 "" H 11650 8600 60  0000 C CNN
	1    11650 8600
	1    0    0    -1  
$EndComp
Wire Wire Line
	11650 7600 11650 8600
Wire Wire Line
	11650 8500 11550 8500
Wire Wire Line
	11650 8400 11550 8400
Connection ~ 11650 8500
Wire Wire Line
	11550 8300 11650 8300
Connection ~ 11650 8400
Wire Wire Line
	11550 8200 11650 8200
Connection ~ 11650 8300
Wire Wire Line
	11550 8100 11650 8100
Connection ~ 11650 8200
Wire Wire Line
	11550 8000 11650 8000
Connection ~ 11650 8100
Wire Wire Line
	11550 7900 11650 7900
Connection ~ 11650 8000
Wire Wire Line
	11550 7800 11650 7800
Connection ~ 11650 7900
Wire Wire Line
	11550 7700 11650 7700
Connection ~ 11650 7800
Wire Wire Line
	11550 7600 11650 7600
Connection ~ 11650 7700
Text Notes 850  1150 0    118  ~ 0
Analogue Passive Filters\nDifferential Outputs
$Comp
L CONN_02X10 P501
U 1 1 570D512A
P 7600 3450
F 0 "P501" H 7600 4000 50  0000 C CNN
F 1 "CONN_02X10" V 7600 3500 50  0000 C CNN
F 2 "MyKiCadLibs-Footprints:CONN_DIL_2X10_BOX_1MM" H 6800 2550 60  0001 C CNN
F 3 "" H 6800 2550 60  0000 C CNN
F 4 "2x10 2.54mm pitch box header" H 7600 2900 40  0001 C CNN "Description"
	1    7600 3450
	-1   0    0    -1  
$EndComp
$Comp
L CONN_02X10 P502
U 1 1 570D966E
P 7600 8000
F 0 "P502" H 7600 8550 50  0000 C CNN
F 1 "CONN_02X10" V 7600 8050 50  0000 C CNN
F 2 "MyKiCadLibs-Footprints:CONN_DIL_2X10_BOX_1MM" H 6800 7100 60  0001 C CNN
F 3 "" H 6800 7100 60  0000 C CNN
F 4 "2x10 2.54mm pitch box header" H 7600 7450 40  0001 C CNN "Description"
	1    7600 8000
	-1   0    0    -1  
$EndComp
$Comp
L CONN_02X10 P503
U 1 1 570DBBC9
P 11300 3500
F 0 "P503" H 11300 4050 50  0000 C CNN
F 1 "CONN_02X10" V 11300 3550 50  0000 C CNN
F 2 "MyKiCadLibs-Footprints:CONN_DIL_2X10_BOX_1MM" H 10500 2600 60  0001 C CNN
F 3 "" H 10500 2600 60  0000 C CNN
F 4 "2x10 2.54mm pitch box header" H 11300 2950 40  0001 C CNN "Description"
	1    11300 3500
	-1   0    0    -1  
$EndComp
$Comp
L CONN_02X10 P504
U 1 1 570DC783
P 11300 8050
F 0 "P504" H 11300 8600 50  0000 C CNN
F 1 "CONN_02X10" V 11300 8100 50  0000 C CNN
F 2 "MyKiCadLibs-Footprints:CONN_DIL_2X10_BOX_1MM" H 10500 7150 60  0001 C CNN
F 3 "" H 10500 7150 60  0000 C CNN
F 4 "2x10 2.54mm pitch box header" H 11300 7500 40  0001 C CNN "Description"
	1    11300 8050
	-1   0    0    -1  
$EndComp
$Comp
L R R501
U 1 1 570F6DFD
P 5400 1400
F 0 "R501" V 5320 1400 40  0000 C CNN
F 1 "240" V 5407 1401 40  0000 C CNN
F 2 "MyKiCadLibs-Footprints:SMD-1206" V 5330 1400 30  0001 C CNN
F 3 "" V 5320 1400 30  0000 C CNN
F 4 "250mW" V 5500 1400 40  0001 C CNN "Power"
F 5 "MELF0204 1% =>250mW or 1206 1% =>250mW" V 5645 1400 40  0001 C CNN "Description"
F 6 "1206" V 5575 1400 40  0001 C CNN "Size"
F 7 "1%" V 5725 1400 40  0001 C CNN "Tolerance"
	1    5400 1400
	0    -1   -1   0   
$EndComp
$Comp
L R R502
U 1 1 570F875D
P 5400 2250
F 0 "R502" V 5320 2250 40  0000 C CNN
F 1 "240" V 5407 2251 40  0000 C CNN
F 2 "MyKiCadLibs-Footprints:SMD-1206" V 5330 2250 30  0001 C CNN
F 3 "" V 5320 2250 30  0000 C CNN
F 4 "250mW" V 5500 2250 40  0001 C CNN "Power"
F 5 "MELF0204 1% =>250mW or 1206 1% =>250mW" V 5645 2250 40  0001 C CNN "Description"
F 6 "1206" V 5575 2250 40  0001 C CNN "Size"
F 7 "1%" V 5725 2250 40  0001 C CNN "Tolerance"
	1    5400 2250
	0    -1   1    0   
$EndComp
$Comp
L R R517
U 1 1 570F8CC3
P 6050 1400
F 0 "R517" V 5970 1400 40  0000 C CNN
F 1 "100" V 6057 1401 40  0000 C CNN
F 2 "MyKiCadLibs-Footprints:SMD-1206" V 5980 1400 30  0001 C CNN
F 3 "" V 5970 1400 30  0000 C CNN
F 4 "250mW" V 6150 1400 40  0001 C CNN "Power"
F 5 "MELF0204 1% =>250mW or 1206 1% =>250mW" V 6295 1400 40  0001 C CNN "Description"
F 6 "1206" V 6225 1400 40  0001 C CNN "Size"
F 7 "1%" V 6375 1400 40  0001 C CNN "Tolerance"
	1    6050 1400
	0    -1   1    0   
$EndComp
$Comp
L R R518
U 1 1 570F923C
P 6050 2250
F 0 "R518" V 5970 2250 40  0000 C CNN
F 1 "100" V 6057 2251 40  0000 C CNN
F 2 "MyKiCadLibs-Footprints:SMD-1206" V 5980 2250 30  0001 C CNN
F 3 "" V 5970 2250 30  0000 C CNN
F 4 "250mW" V 6150 2250 40  0001 C CNN "Power"
F 5 "MELF0204 1% =>250mW or 1206 1% =>250mW" V 6295 2250 40  0001 C CNN "Description"
F 6 "1206" V 6225 2250 40  0001 C CNN "Size"
F 7 "1%" V 6375 2250 40  0001 C CNN "Tolerance"
	1    6050 2250
	0    -1   -1   0   
$EndComp
$Comp
L R R533
U 1 1 570F97BA
P 6150 1600
F 0 "R533" V 6070 1600 40  0000 C CNN
F 1 "100k" V 6157 1601 40  0000 C CNN
F 2 "MyKiCadLibs-Footprints:SMD-1206" V 6080 1600 30  0001 C CNN
F 3 "" V 6070 1600 30  0000 C CNN
F 4 "250mW" V 6250 1600 40  0001 C CNN "Power"
F 5 "MELF0204 1% =>250mW or 1206 1% =>250mW" V 6395 1600 40  0001 C CNN "Description"
F 6 "1206" V 6325 1600 40  0001 C CNN "Size"
F 7 "1%" V 6475 1600 40  0001 C CNN "Tolerance"
	1    6150 1600
	0    1    -1   0   
$EndComp
$Comp
L R R534
U 1 1 570F9AC6
P 6150 2100
F 0 "R534" V 6070 2100 40  0000 C CNN
F 1 "100k" V 6157 2101 40  0000 C CNN
F 2 "MyKiCadLibs-Footprints:SMD-1206" V 6080 2100 30  0001 C CNN
F 3 "" V 6070 2100 30  0000 C CNN
F 4 "250mW" V 6250 2100 40  0001 C CNN "Power"
F 5 "MELF0204 1% =>250mW or 1206 1% =>250mW" V 6395 2100 40  0001 C CNN "Description"
F 6 "1206" V 6325 2100 40  0001 C CNN "Size"
F 7 "1%" V 6475 2100 40  0001 C CNN "Tolerance"
	1    6150 2100
	0    1    1    0   
$EndComp
$Comp
L C C501
U 1 1 570FBAA0
P 5700 1750
F 0 "C501" H 5700 1850 40  0000 L CNN
F 1 "2n7" H 5710 1665 40  0000 L CNN
F 2 "MyKiCadLibs-Footprints:SMD-0805" H 5738 1600 30  0001 C CNN
F 3 "" H 5700 1850 60  0000 C CNN
F 4 "50V" H 5715 1595 40  0000 L CNN "Voltage"
F 5 "C0G" H 5715 1525 40  0000 L CNN "Type"
F 6 "Ceramic capacitor" H 5700 2050 40  0001 L CNN "Description"
F 7 "5%" H 5770 1385 40  0001 C CNN "Tolerance"
F 8 "0805" H 5710 1455 40  0001 L CNN "Size"
	1    5700 1750
	-1   0    0    1   
$EndComp
$Comp
L R R503
U 1 1 570FD605
P 5400 2450
F 0 "R503" V 5320 2450 40  0000 C CNN
F 1 "240" V 5407 2451 40  0000 C CNN
F 2 "MyKiCadLibs-Footprints:SMD-1206" V 5330 2450 30  0001 C CNN
F 3 "" V 5320 2450 30  0000 C CNN
F 4 "250mW" V 5500 2450 40  0001 C CNN "Power"
F 5 "MELF0204 1% =>250mW or 1206 1% =>250mW" V 5645 2450 40  0001 C CNN "Description"
F 6 "1206" V 5575 2450 40  0001 C CNN "Size"
F 7 "1%" V 5725 2450 40  0001 C CNN "Tolerance"
	1    5400 2450
	0    -1   -1   0   
$EndComp
$Comp
L R R504
U 1 1 570FD60F
P 5400 3300
F 0 "R504" V 5320 3300 40  0000 C CNN
F 1 "240" V 5407 3301 40  0000 C CNN
F 2 "MyKiCadLibs-Footprints:SMD-1206" V 5330 3300 30  0001 C CNN
F 3 "" V 5320 3300 30  0000 C CNN
F 4 "250mW" V 5500 3300 40  0001 C CNN "Power"
F 5 "MELF0204 1% =>250mW or 1206 1% =>250mW" V 5645 3300 40  0001 C CNN "Description"
F 6 "1206" V 5575 3300 40  0001 C CNN "Size"
F 7 "1%" V 5725 3300 40  0001 C CNN "Tolerance"
	1    5400 3300
	0    -1   1    0   
$EndComp
$Comp
L R R519
U 1 1 570FD619
P 6050 2450
F 0 "R519" V 5970 2450 40  0000 C CNN
F 1 "100" V 6057 2451 40  0000 C CNN
F 2 "MyKiCadLibs-Footprints:SMD-1206" V 5980 2450 30  0001 C CNN
F 3 "" V 5970 2450 30  0000 C CNN
F 4 "250mW" V 6150 2450 40  0001 C CNN "Power"
F 5 "MELF0204 1% =>250mW or 1206 1% =>250mW" V 6295 2450 40  0001 C CNN "Description"
F 6 "1206" V 6225 2450 40  0001 C CNN "Size"
F 7 "1%" V 6375 2450 40  0001 C CNN "Tolerance"
	1    6050 2450
	0    -1   -1   0   
$EndComp
$Comp
L R R520
U 1 1 570FD623
P 6050 3300
F 0 "R520" V 5970 3300 40  0000 C CNN
F 1 "100" V 6057 3301 40  0000 C CNN
F 2 "MyKiCadLibs-Footprints:SMD-1206" V 5980 3300 30  0001 C CNN
F 3 "" V 5970 3300 30  0000 C CNN
F 4 "250mW" V 6150 3300 40  0001 C CNN "Power"
F 5 "MELF0204 1% =>250mW or 1206 1% =>250mW" V 6295 3300 40  0001 C CNN "Description"
F 6 "1206" V 6225 3300 40  0001 C CNN "Size"
F 7 "1%" V 6375 3300 40  0001 C CNN "Tolerance"
	1    6050 3300
	0    -1   -1   0   
$EndComp
$Comp
L R R535
U 1 1 570FD62D
P 6150 2650
F 0 "R535" V 6070 2650 40  0000 C CNN
F 1 "100k" V 6157 2651 40  0000 C CNN
F 2 "MyKiCadLibs-Footprints:SMD-1206" V 6080 2650 30  0001 C CNN
F 3 "" V 6070 2650 30  0000 C CNN
F 4 "250mW" V 6250 2650 40  0001 C CNN "Power"
F 5 "MELF0204 1% =>250mW or 1206 1% =>250mW" V 6395 2650 40  0001 C CNN "Description"
F 6 "1206" V 6325 2650 40  0001 C CNN "Size"
F 7 "1%" V 6475 2650 40  0001 C CNN "Tolerance"
	1    6150 2650
	0    1    -1   0   
$EndComp
$Comp
L R R536
U 1 1 570FD637
P 6150 3150
F 0 "R536" V 6070 3150 40  0000 C CNN
F 1 "100k" V 6157 3151 40  0000 C CNN
F 2 "MyKiCadLibs-Footprints:SMD-1206" V 6080 3150 30  0001 C CNN
F 3 "" V 6070 3150 30  0000 C CNN
F 4 "250mW" V 6250 3150 40  0001 C CNN "Power"
F 5 "MELF0204 1% =>250mW or 1206 1% =>250mW" V 6395 3150 40  0001 C CNN "Description"
F 6 "1206" V 6325 3150 40  0001 C CNN "Size"
F 7 "1%" V 6475 3150 40  0001 C CNN "Tolerance"
	1    6150 3150
	0    1    1    0   
$EndComp
$Comp
L C C502
U 1 1 570FD642
P 5700 2800
F 0 "C502" H 5700 2900 40  0000 L CNN
F 1 "2n7" H 5710 2715 40  0000 L CNN
F 2 "MyKiCadLibs-Footprints:SMD-0805" H 5738 2650 30  0001 C CNN
F 3 "" H 5700 2900 60  0000 C CNN
F 4 "50V" H 5715 2645 40  0000 L CNN "Voltage"
F 5 "C0G" H 5715 2575 40  0000 L CNN "Type"
F 6 "Ceramic capacitor" H 5700 3100 40  0001 L CNN "Description"
F 7 "5%" H 5770 2435 40  0001 C CNN "Tolerance"
F 8 "0805" H 5710 2505 40  0001 L CNN "Size"
	1    5700 2800
	-1   0    0    1   
$EndComp
$Comp
L R R505
U 1 1 570FF46E
P 5400 3500
F 0 "R505" V 5320 3500 40  0000 C CNN
F 1 "240" V 5407 3501 40  0000 C CNN
F 2 "MyKiCadLibs-Footprints:SMD-1206" V 5330 3500 30  0001 C CNN
F 3 "" V 5320 3500 30  0000 C CNN
F 4 "250mW" V 5500 3500 40  0001 C CNN "Power"
F 5 "MELF0204 1% =>250mW or 1206 1% =>250mW" V 5645 3500 40  0001 C CNN "Description"
F 6 "1206" V 5575 3500 40  0001 C CNN "Size"
F 7 "1%" V 5725 3500 40  0001 C CNN "Tolerance"
	1    5400 3500
	0    -1   -1   0   
$EndComp
$Comp
L R R506
U 1 1 570FF478
P 5400 4350
F 0 "R506" V 5320 4350 40  0000 C CNN
F 1 "240" V 5407 4351 40  0000 C CNN
F 2 "MyKiCadLibs-Footprints:SMD-1206" V 5330 4350 30  0001 C CNN
F 3 "" V 5320 4350 30  0000 C CNN
F 4 "250mW" V 5500 4350 40  0001 C CNN "Power"
F 5 "MELF0204 1% =>250mW or 1206 1% =>250mW" V 5645 4350 40  0001 C CNN "Description"
F 6 "1206" V 5575 4350 40  0001 C CNN "Size"
F 7 "1%" V 5725 4350 40  0001 C CNN "Tolerance"
	1    5400 4350
	0    -1   1    0   
$EndComp
$Comp
L R R521
U 1 1 570FF482
P 6050 3500
F 0 "R521" V 5970 3500 40  0000 C CNN
F 1 "100" V 6057 3501 40  0000 C CNN
F 2 "MyKiCadLibs-Footprints:SMD-1206" V 5980 3500 30  0001 C CNN
F 3 "" V 5970 3500 30  0000 C CNN
F 4 "250mW" V 6150 3500 40  0001 C CNN "Power"
F 5 "MELF0204 1% =>250mW or 1206 1% =>250mW" V 6295 3500 40  0001 C CNN "Description"
F 6 "1206" V 6225 3500 40  0001 C CNN "Size"
F 7 "1%" V 6375 3500 40  0001 C CNN "Tolerance"
	1    6050 3500
	0    -1   -1   0   
$EndComp
$Comp
L R R522
U 1 1 570FF48C
P 6050 4350
F 0 "R522" V 5970 4350 40  0000 C CNN
F 1 "100" V 6057 4351 40  0000 C CNN
F 2 "MyKiCadLibs-Footprints:SMD-1206" V 5980 4350 30  0001 C CNN
F 3 "" V 5970 4350 30  0000 C CNN
F 4 "250mW" V 6150 4350 40  0001 C CNN "Power"
F 5 "MELF0204 1% =>250mW or 1206 1% =>250mW" V 6295 4350 40  0001 C CNN "Description"
F 6 "1206" V 6225 4350 40  0001 C CNN "Size"
F 7 "1%" V 6375 4350 40  0001 C CNN "Tolerance"
	1    6050 4350
	0    -1   -1   0   
$EndComp
$Comp
L R R537
U 1 1 570FF496
P 6150 3700
F 0 "R537" V 6070 3700 40  0000 C CNN
F 1 "100k" V 6157 3701 40  0000 C CNN
F 2 "MyKiCadLibs-Footprints:SMD-1206" V 6080 3700 30  0001 C CNN
F 3 "" V 6070 3700 30  0000 C CNN
F 4 "250mW" V 6250 3700 40  0001 C CNN "Power"
F 5 "MELF0204 1% =>250mW or 1206 1% =>250mW" V 6395 3700 40  0001 C CNN "Description"
F 6 "1206" V 6325 3700 40  0001 C CNN "Size"
F 7 "1%" V 6475 3700 40  0001 C CNN "Tolerance"
	1    6150 3700
	0    1    -1   0   
$EndComp
$Comp
L R R538
U 1 1 570FF4A0
P 6150 4200
F 0 "R538" V 6070 4200 40  0000 C CNN
F 1 "100k" V 6157 4201 40  0000 C CNN
F 2 "MyKiCadLibs-Footprints:SMD-1206" V 6080 4200 30  0001 C CNN
F 3 "" V 6070 4200 30  0000 C CNN
F 4 "250mW" V 6250 4200 40  0001 C CNN "Power"
F 5 "MELF0204 1% =>250mW or 1206 1% =>250mW" V 6395 4200 40  0001 C CNN "Description"
F 6 "1206" V 6325 4200 40  0001 C CNN "Size"
F 7 "1%" V 6475 4200 40  0001 C CNN "Tolerance"
	1    6150 4200
	0    1    1    0   
$EndComp
$Comp
L C C503
U 1 1 570FF4AB
P 5700 3850
F 0 "C503" H 5700 3950 40  0000 L CNN
F 1 "2n7" H 5710 3765 40  0000 L CNN
F 2 "MyKiCadLibs-Footprints:SMD-0805" H 5738 3700 30  0001 C CNN
F 3 "" H 5700 3950 60  0000 C CNN
F 4 "50V" H 5715 3695 40  0000 L CNN "Voltage"
F 5 "C0G" H 5715 3625 40  0000 L CNN "Type"
F 6 "Ceramic capacitor" H 5700 4150 40  0001 L CNN "Description"
F 7 "5%" H 5770 3485 40  0001 C CNN "Tolerance"
F 8 "0805" H 5710 3555 40  0001 L CNN "Size"
	1    5700 3850
	-1   0    0    1   
$EndComp
$Comp
L R R507
U 1 1 570FF65D
P 5400 4550
F 0 "R507" V 5320 4550 40  0000 C CNN
F 1 "240" V 5407 4551 40  0000 C CNN
F 2 "MyKiCadLibs-Footprints:SMD-1206" V 5330 4550 30  0001 C CNN
F 3 "" V 5320 4550 30  0000 C CNN
F 4 "250mW" V 5500 4550 40  0001 C CNN "Power"
F 5 "MELF0204 1% =>250mW or 1206 1% =>250mW" V 5645 4550 40  0001 C CNN "Description"
F 6 "1206" V 5575 4550 40  0001 C CNN "Size"
F 7 "1%" V 5725 4550 40  0001 C CNN "Tolerance"
	1    5400 4550
	0    -1   -1   0   
$EndComp
$Comp
L R R508
U 1 1 570FF667
P 5400 5400
F 0 "R508" V 5320 5400 40  0000 C CNN
F 1 "240" V 5407 5401 40  0000 C CNN
F 2 "MyKiCadLibs-Footprints:SMD-1206" V 5330 5400 30  0001 C CNN
F 3 "" V 5320 5400 30  0000 C CNN
F 4 "250mW" V 5500 5400 40  0001 C CNN "Power"
F 5 "MELF0204 1% =>250mW or 1206 1% =>250mW" V 5645 5400 40  0001 C CNN "Description"
F 6 "1206" V 5575 5400 40  0001 C CNN "Size"
F 7 "1%" V 5725 5400 40  0001 C CNN "Tolerance"
	1    5400 5400
	0    -1   1    0   
$EndComp
$Comp
L R R523
U 1 1 570FF671
P 6050 4550
F 0 "R523" V 5970 4550 40  0000 C CNN
F 1 "100" V 6057 4551 40  0000 C CNN
F 2 "MyKiCadLibs-Footprints:SMD-1206" V 5980 4550 30  0001 C CNN
F 3 "" V 5970 4550 30  0000 C CNN
F 4 "250mW" V 6150 4550 40  0001 C CNN "Power"
F 5 "MELF0204 1% =>250mW or 1206 1% =>250mW" V 6295 4550 40  0001 C CNN "Description"
F 6 "1206" V 6225 4550 40  0001 C CNN "Size"
F 7 "1%" V 6375 4550 40  0001 C CNN "Tolerance"
	1    6050 4550
	0    -1   -1   0   
$EndComp
$Comp
L R R524
U 1 1 570FF67B
P 6050 5400
F 0 "R524" V 5970 5400 40  0000 C CNN
F 1 "100" V 6057 5401 40  0000 C CNN
F 2 "MyKiCadLibs-Footprints:SMD-1206" V 5980 5400 30  0001 C CNN
F 3 "" V 5970 5400 30  0000 C CNN
F 4 "250mW" V 6150 5400 40  0001 C CNN "Power"
F 5 "MELF0204 1% =>250mW or 1206 1% =>250mW" V 6295 5400 40  0001 C CNN "Description"
F 6 "1206" V 6225 5400 40  0001 C CNN "Size"
F 7 "1%" V 6375 5400 40  0001 C CNN "Tolerance"
	1    6050 5400
	0    -1   -1   0   
$EndComp
$Comp
L R R539
U 1 1 570FF685
P 6150 4750
F 0 "R539" V 6070 4750 40  0000 C CNN
F 1 "100k" V 6157 4751 40  0000 C CNN
F 2 "MyKiCadLibs-Footprints:SMD-1206" V 6080 4750 30  0001 C CNN
F 3 "" V 6070 4750 30  0000 C CNN
F 4 "250mW" V 6250 4750 40  0001 C CNN "Power"
F 5 "MELF0204 1% =>250mW or 1206 1% =>250mW" V 6395 4750 40  0001 C CNN "Description"
F 6 "1206" V 6325 4750 40  0001 C CNN "Size"
F 7 "1%" V 6475 4750 40  0001 C CNN "Tolerance"
	1    6150 4750
	0    1    -1   0   
$EndComp
$Comp
L R R540
U 1 1 570FF68F
P 6150 5250
F 0 "R540" V 6070 5250 40  0000 C CNN
F 1 "100k" V 6157 5251 40  0000 C CNN
F 2 "MyKiCadLibs-Footprints:SMD-1206" V 6080 5250 30  0001 C CNN
F 3 "" V 6070 5250 30  0000 C CNN
F 4 "250mW" V 6250 5250 40  0001 C CNN "Power"
F 5 "MELF0204 1% =>250mW or 1206 1% =>250mW" V 6395 5250 40  0001 C CNN "Description"
F 6 "1206" V 6325 5250 40  0001 C CNN "Size"
F 7 "1%" V 6475 5250 40  0001 C CNN "Tolerance"
	1    6150 5250
	0    1    1    0   
$EndComp
$Comp
L C C504
U 1 1 570FF69A
P 5700 4900
F 0 "C504" H 5700 5000 40  0000 L CNN
F 1 "2n7" H 5710 4815 40  0000 L CNN
F 2 "MyKiCadLibs-Footprints:SMD-0805" H 5738 4750 30  0001 C CNN
F 3 "" H 5700 5000 60  0000 C CNN
F 4 "50V" H 5715 4745 40  0000 L CNN "Voltage"
F 5 "C0G" H 5715 4675 40  0000 L CNN "Type"
F 6 "Ceramic capacitor" H 5700 5200 40  0001 L CNN "Description"
F 7 "5%" H 5770 4535 40  0001 C CNN "Tolerance"
F 8 "0805" H 5710 4605 40  0001 L CNN "Size"
	1    5700 4900
	-1   0    0    1   
$EndComp
$Comp
L GNDA #PWR513
U 1 1 57111C88
P 6050 6350
F 0 "#PWR513" H 6050 6100 50  0001 C CNN
F 1 "GNDA" H 6050 6200 50  0000 C CNN
F 2 "" H 6050 6350 60  0000 C CNN
F 3 "" H 6050 6350 60  0000 C CNN
	1    6050 6350
	1    0    0    -1  
$EndComp
$Comp
L GNDA #PWR515
U 1 1 57111C8E
P 6050 7400
F 0 "#PWR515" H 6050 7150 50  0001 C CNN
F 1 "GNDA" H 6050 7250 50  0000 C CNN
F 2 "" H 6050 7400 60  0000 C CNN
F 3 "" H 6050 7400 60  0000 C CNN
	1    6050 7400
	1    0    0    -1  
$EndComp
$Comp
L GNDA #PWR517
U 1 1 57111C94
P 6050 8450
F 0 "#PWR517" H 6050 8200 50  0001 C CNN
F 1 "GNDA" H 6050 8300 50  0000 C CNN
F 2 "" H 6050 8450 60  0000 C CNN
F 3 "" H 6050 8450 60  0000 C CNN
	1    6050 8450
	1    0    0    -1  
$EndComp
$Comp
L GNDA #PWR523
U 1 1 57111C9A
P 6050 9500
F 0 "#PWR523" H 6050 9250 50  0001 C CNN
F 1 "GNDA" H 6050 9350 50  0000 C CNN
F 2 "" H 6050 9500 60  0000 C CNN
F 3 "" H 6050 9500 60  0000 C CNN
	1    6050 9500
	1    0    0    -1  
$EndComp
Wire Wire Line
	5650 5950 5800 5950
Connection ~ 5700 5950
Wire Wire Line
	5650 6800 5800 6800
Wire Wire Line
	5700 5950 5700 6100
Wire Wire Line
	5700 6800 5700 6500
Connection ~ 5700 6800
Wire Wire Line
	5850 6150 5850 6650
Wire Wire Line
	5850 6250 6050 6250
Wire Wire Line
	6050 6250 6050 6350
Connection ~ 5850 6250
Wire Wire Line
	5850 6150 5900 6150
Wire Wire Line
	5850 6650 5900 6650
Wire Wire Line
	6300 6800 6950 6800
Wire Wire Line
	6450 6800 6450 6650
Wire Wire Line
	6450 6650 6400 6650
Wire Wire Line
	6300 5950 7050 5950
Wire Wire Line
	6450 5950 6450 6150
Wire Wire Line
	6450 6150 6400 6150
Wire Wire Line
	5650 7000 5800 7000
Connection ~ 5700 7000
Wire Wire Line
	5650 7850 5800 7850
Wire Wire Line
	5700 7000 5700 7150
Wire Wire Line
	5700 7850 5700 7550
Connection ~ 5700 7850
Wire Wire Line
	5850 7200 5850 7700
Wire Wire Line
	5850 7300 6050 7300
Wire Wire Line
	6050 7300 6050 7400
Connection ~ 5850 7300
Wire Wire Line
	5850 7200 5900 7200
Wire Wire Line
	5850 7700 5900 7700
Wire Wire Line
	6450 7700 6450 7950
Wire Wire Line
	6450 7700 6400 7700
Wire Wire Line
	6300 7000 6850 7000
Wire Wire Line
	6450 7000 6450 7200
Wire Wire Line
	6450 7200 6400 7200
Wire Wire Line
	5650 8050 5800 8050
Connection ~ 5700 8050
Wire Wire Line
	5650 8900 5800 8900
Wire Wire Line
	5700 8050 5700 8200
Wire Wire Line
	5700 8900 5700 8600
Connection ~ 5700 8900
Wire Wire Line
	5850 8250 5850 8750
Wire Wire Line
	5850 8350 6050 8350
Wire Wire Line
	6050 8350 6050 8450
Connection ~ 5850 8350
Wire Wire Line
	5850 8250 5900 8250
Wire Wire Line
	5850 8750 5900 8750
Wire Wire Line
	6300 8900 6450 8900
Wire Wire Line
	6450 8900 6450 8750
Wire Wire Line
	6850 8750 6400 8750
Wire Wire Line
	6300 8050 7350 8050
Wire Wire Line
	6450 8050 6450 8250
Wire Wire Line
	6450 8250 6400 8250
Wire Wire Line
	5650 9100 5800 9100
Connection ~ 5700 9100
Wire Wire Line
	5650 9950 5800 9950
Wire Wire Line
	5700 9100 5700 9250
Wire Wire Line
	5700 9950 5700 9650
Connection ~ 5700 9950
Wire Wire Line
	5850 9300 5850 9800
Wire Wire Line
	5850 9400 6050 9400
Wire Wire Line
	6050 9400 6050 9500
Connection ~ 5850 9400
Wire Wire Line
	5850 9300 5900 9300
Wire Wire Line
	5850 9800 5900 9800
Wire Wire Line
	7050 9950 6300 9950
Wire Wire Line
	6450 9950 6450 9800
Wire Wire Line
	6450 9800 6400 9800
Wire Wire Line
	6950 9100 6300 9100
Wire Wire Line
	6450 9100 6450 9300
Wire Wire Line
	6450 9300 6400 9300
Connection ~ 6450 5950
Connection ~ 6450 6800
Connection ~ 6450 7000
Connection ~ 6450 7850
Connection ~ 6450 9950
Connection ~ 6450 9100
Connection ~ 6450 8750
Connection ~ 6450 8050
Wire Wire Line
	6450 7950 7350 7950
Wire Wire Line
	6300 7850 6450 7850
$Comp
L R R509
U 1 1 57111CF5
P 5400 5950
F 0 "R509" V 5320 5950 40  0000 C CNN
F 1 "240" V 5407 5951 40  0000 C CNN
F 2 "MyKiCadLibs-Footprints:SMD-1206" V 5330 5950 30  0001 C CNN
F 3 "" V 5320 5950 30  0000 C CNN
F 4 "250mW" V 5500 5950 40  0001 C CNN "Power"
F 5 "MELF0204 1% =>250mW or 1206 1% =>250mW" V 5645 5950 40  0001 C CNN "Description"
F 6 "1206" V 5575 5950 40  0001 C CNN "Size"
F 7 "1%" V 5725 5950 40  0001 C CNN "Tolerance"
	1    5400 5950
	0    -1   -1   0   
$EndComp
$Comp
L R R510
U 1 1 57111CFF
P 5400 6800
F 0 "R510" V 5320 6800 40  0000 C CNN
F 1 "240" V 5407 6801 40  0000 C CNN
F 2 "MyKiCadLibs-Footprints:SMD-1206" V 5330 6800 30  0001 C CNN
F 3 "" V 5320 6800 30  0000 C CNN
F 4 "250mW" V 5500 6800 40  0001 C CNN "Power"
F 5 "MELF0204 1% =>250mW or 1206 1% =>250mW" V 5645 6800 40  0001 C CNN "Description"
F 6 "1206" V 5575 6800 40  0001 C CNN "Size"
F 7 "1%" V 5725 6800 40  0001 C CNN "Tolerance"
	1    5400 6800
	0    -1   1    0   
$EndComp
$Comp
L R R525
U 1 1 57111D09
P 6050 5950
F 0 "R525" V 5970 5950 40  0000 C CNN
F 1 "100" V 6057 5951 40  0000 C CNN
F 2 "MyKiCadLibs-Footprints:SMD-1206" V 5980 5950 30  0001 C CNN
F 3 "" V 5970 5950 30  0000 C CNN
F 4 "250mW" V 6150 5950 40  0001 C CNN "Power"
F 5 "MELF0204 1% =>250mW or 1206 1% =>250mW" V 6295 5950 40  0001 C CNN "Description"
F 6 "1206" V 6225 5950 40  0001 C CNN "Size"
F 7 "1%" V 6375 5950 40  0001 C CNN "Tolerance"
	1    6050 5950
	0    -1   1    0   
$EndComp
$Comp
L R R526
U 1 1 57111D13
P 6050 6800
F 0 "R526" V 5970 6800 40  0000 C CNN
F 1 "100" V 6057 6801 40  0000 C CNN
F 2 "MyKiCadLibs-Footprints:SMD-1206" V 5980 6800 30  0001 C CNN
F 3 "" V 5970 6800 30  0000 C CNN
F 4 "250mW" V 6150 6800 40  0001 C CNN "Power"
F 5 "MELF0204 1% =>250mW or 1206 1% =>250mW" V 6295 6800 40  0001 C CNN "Description"
F 6 "1206" V 6225 6800 40  0001 C CNN "Size"
F 7 "1%" V 6375 6800 40  0001 C CNN "Tolerance"
	1    6050 6800
	0    -1   -1   0   
$EndComp
$Comp
L R R541
U 1 1 57111D1D
P 6150 6150
F 0 "R541" V 6070 6150 40  0000 C CNN
F 1 "100k" V 6157 6151 40  0000 C CNN
F 2 "MyKiCadLibs-Footprints:SMD-1206" V 6080 6150 30  0001 C CNN
F 3 "" V 6070 6150 30  0000 C CNN
F 4 "250mW" V 6250 6150 40  0001 C CNN "Power"
F 5 "MELF0204 1% =>250mW or 1206 1% =>250mW" V 6395 6150 40  0001 C CNN "Description"
F 6 "1206" V 6325 6150 40  0001 C CNN "Size"
F 7 "1%" V 6475 6150 40  0001 C CNN "Tolerance"
	1    6150 6150
	0    1    -1   0   
$EndComp
$Comp
L R R542
U 1 1 57111D27
P 6150 6650
F 0 "R542" V 6070 6650 40  0000 C CNN
F 1 "100k" V 6157 6651 40  0000 C CNN
F 2 "MyKiCadLibs-Footprints:SMD-1206" V 6080 6650 30  0001 C CNN
F 3 "" V 6070 6650 30  0000 C CNN
F 4 "250mW" V 6250 6650 40  0001 C CNN "Power"
F 5 "MELF0204 1% =>250mW or 1206 1% =>250mW" V 6395 6650 40  0001 C CNN "Description"
F 6 "1206" V 6325 6650 40  0001 C CNN "Size"
F 7 "1%" V 6475 6650 40  0001 C CNN "Tolerance"
	1    6150 6650
	0    1    1    0   
$EndComp
$Comp
L C C505
U 1 1 57111D32
P 5700 6300
F 0 "C505" H 5700 6400 40  0000 L CNN
F 1 "2n7" H 5710 6215 40  0000 L CNN
F 2 "MyKiCadLibs-Footprints:SMD-0805" H 5738 6150 30  0001 C CNN
F 3 "" H 5700 6400 60  0000 C CNN
F 4 "50V" H 5715 6145 40  0000 L CNN "Voltage"
F 5 "C0G" H 5715 6075 40  0000 L CNN "Type"
F 6 "Ceramic capacitor" H 5700 6600 40  0001 L CNN "Description"
F 7 "5%" H 5770 5935 40  0001 C CNN "Tolerance"
F 8 "0805" H 5710 6005 40  0001 L CNN "Size"
	1    5700 6300
	-1   0    0    1   
$EndComp
$Comp
L R R511
U 1 1 57111D3C
P 5400 7000
F 0 "R511" V 5320 7000 40  0000 C CNN
F 1 "240" V 5407 7001 40  0000 C CNN
F 2 "MyKiCadLibs-Footprints:SMD-1206" V 5330 7000 30  0001 C CNN
F 3 "" V 5320 7000 30  0000 C CNN
F 4 "250mW" V 5500 7000 40  0001 C CNN "Power"
F 5 "MELF0204 1% =>250mW or 1206 1% =>250mW" V 5645 7000 40  0001 C CNN "Description"
F 6 "1206" V 5575 7000 40  0001 C CNN "Size"
F 7 "1%" V 5725 7000 40  0001 C CNN "Tolerance"
	1    5400 7000
	0    -1   -1   0   
$EndComp
$Comp
L R R512
U 1 1 57111D46
P 5400 7850
F 0 "R512" V 5320 7850 40  0000 C CNN
F 1 "240" V 5407 7851 40  0000 C CNN
F 2 "MyKiCadLibs-Footprints:SMD-1206" V 5330 7850 30  0001 C CNN
F 3 "" V 5320 7850 30  0000 C CNN
F 4 "250mW" V 5500 7850 40  0001 C CNN "Power"
F 5 "MELF0204 1% =>250mW or 1206 1% =>250mW" V 5645 7850 40  0001 C CNN "Description"
F 6 "1206" V 5575 7850 40  0001 C CNN "Size"
F 7 "1%" V 5725 7850 40  0001 C CNN "Tolerance"
	1    5400 7850
	0    -1   1    0   
$EndComp
$Comp
L R R527
U 1 1 57111D50
P 6050 7000
F 0 "R527" V 5970 7000 40  0000 C CNN
F 1 "100" V 6057 7001 40  0000 C CNN
F 2 "MyKiCadLibs-Footprints:SMD-1206" V 5980 7000 30  0001 C CNN
F 3 "" V 5970 7000 30  0000 C CNN
F 4 "250mW" V 6150 7000 40  0001 C CNN "Power"
F 5 "MELF0204 1% =>250mW or 1206 1% =>250mW" V 6295 7000 40  0001 C CNN "Description"
F 6 "1206" V 6225 7000 40  0001 C CNN "Size"
F 7 "1%" V 6375 7000 40  0001 C CNN "Tolerance"
	1    6050 7000
	0    -1   -1   0   
$EndComp
$Comp
L R R528
U 1 1 57111D5A
P 6050 7850
F 0 "R528" V 5970 7850 40  0000 C CNN
F 1 "100" V 6057 7851 40  0000 C CNN
F 2 "MyKiCadLibs-Footprints:SMD-1206" V 5980 7850 30  0001 C CNN
F 3 "" V 5970 7850 30  0000 C CNN
F 4 "250mW" V 6150 7850 40  0001 C CNN "Power"
F 5 "MELF0204 1% =>250mW or 1206 1% =>250mW" V 6295 7850 40  0001 C CNN "Description"
F 6 "1206" V 6225 7850 40  0001 C CNN "Size"
F 7 "1%" V 6375 7850 40  0001 C CNN "Tolerance"
	1    6050 7850
	0    -1   -1   0   
$EndComp
$Comp
L R R543
U 1 1 57111D64
P 6150 7200
F 0 "R543" V 6070 7200 40  0000 C CNN
F 1 "100k" V 6157 7201 40  0000 C CNN
F 2 "MyKiCadLibs-Footprints:SMD-1206" V 6080 7200 30  0001 C CNN
F 3 "" V 6070 7200 30  0000 C CNN
F 4 "250mW" V 6250 7200 40  0001 C CNN "Power"
F 5 "MELF0204 1% =>250mW or 1206 1% =>250mW" V 6395 7200 40  0001 C CNN "Description"
F 6 "1206" V 6325 7200 40  0001 C CNN "Size"
F 7 "1%" V 6475 7200 40  0001 C CNN "Tolerance"
	1    6150 7200
	0    1    -1   0   
$EndComp
$Comp
L R R544
U 1 1 57111D6E
P 6150 7700
F 0 "R544" V 6070 7700 40  0000 C CNN
F 1 "100k" V 6157 7701 40  0000 C CNN
F 2 "MyKiCadLibs-Footprints:SMD-1206" V 6080 7700 30  0001 C CNN
F 3 "" V 6070 7700 30  0000 C CNN
F 4 "250mW" V 6250 7700 40  0001 C CNN "Power"
F 5 "MELF0204 1% =>250mW or 1206 1% =>250mW" V 6395 7700 40  0001 C CNN "Description"
F 6 "1206" V 6325 7700 40  0001 C CNN "Size"
F 7 "1%" V 6475 7700 40  0001 C CNN "Tolerance"
	1    6150 7700
	0    1    1    0   
$EndComp
$Comp
L C C506
U 1 1 57111D79
P 5700 7350
F 0 "C506" H 5700 7450 40  0000 L CNN
F 1 "2n7" H 5710 7265 40  0000 L CNN
F 2 "MyKiCadLibs-Footprints:SMD-0805" H 5738 7200 30  0001 C CNN
F 3 "" H 5700 7450 60  0000 C CNN
F 4 "50V" H 5715 7195 40  0000 L CNN "Voltage"
F 5 "C0G" H 5715 7125 40  0000 L CNN "Type"
F 6 "Ceramic capacitor" H 5700 7650 40  0001 L CNN "Description"
F 7 "5%" H 5770 6985 40  0001 C CNN "Tolerance"
F 8 "0805" H 5710 7055 40  0001 L CNN "Size"
	1    5700 7350
	-1   0    0    1   
$EndComp
$Comp
L R R513
U 1 1 57111D83
P 5400 8050
F 0 "R513" V 5320 8050 40  0000 C CNN
F 1 "240" V 5407 8051 40  0000 C CNN
F 2 "MyKiCadLibs-Footprints:SMD-1206" V 5330 8050 30  0001 C CNN
F 3 "" V 5320 8050 30  0000 C CNN
F 4 "250mW" V 5500 8050 40  0001 C CNN "Power"
F 5 "MELF0204 1% =>250mW or 1206 1% =>250mW" V 5645 8050 40  0001 C CNN "Description"
F 6 "1206" V 5575 8050 40  0001 C CNN "Size"
F 7 "1%" V 5725 8050 40  0001 C CNN "Tolerance"
	1    5400 8050
	0    -1   -1   0   
$EndComp
$Comp
L R R514
U 1 1 57111D8D
P 5400 8900
F 0 "R514" V 5320 8900 40  0000 C CNN
F 1 "240" V 5407 8901 40  0000 C CNN
F 2 "MyKiCadLibs-Footprints:SMD-1206" V 5330 8900 30  0001 C CNN
F 3 "" V 5320 8900 30  0000 C CNN
F 4 "250mW" V 5500 8900 40  0001 C CNN "Power"
F 5 "MELF0204 1% =>250mW or 1206 1% =>250mW" V 5645 8900 40  0001 C CNN "Description"
F 6 "1206" V 5575 8900 40  0001 C CNN "Size"
F 7 "1%" V 5725 8900 40  0001 C CNN "Tolerance"
	1    5400 8900
	0    -1   1    0   
$EndComp
$Comp
L R R529
U 1 1 57111D97
P 6050 8050
F 0 "R529" V 5970 8050 40  0000 C CNN
F 1 "100" V 6057 8051 40  0000 C CNN
F 2 "MyKiCadLibs-Footprints:SMD-1206" V 5980 8050 30  0001 C CNN
F 3 "" V 5970 8050 30  0000 C CNN
F 4 "250mW" V 6150 8050 40  0001 C CNN "Power"
F 5 "MELF0204 1% =>250mW or 1206 1% =>250mW" V 6295 8050 40  0001 C CNN "Description"
F 6 "1206" V 6225 8050 40  0001 C CNN "Size"
F 7 "1%" V 6375 8050 40  0001 C CNN "Tolerance"
	1    6050 8050
	0    -1   -1   0   
$EndComp
$Comp
L R R530
U 1 1 57111DA1
P 6050 8900
F 0 "R530" V 5970 8900 40  0000 C CNN
F 1 "100" V 6057 8901 40  0000 C CNN
F 2 "MyKiCadLibs-Footprints:SMD-1206" V 5980 8900 30  0001 C CNN
F 3 "" V 5970 8900 30  0000 C CNN
F 4 "250mW" V 6150 8900 40  0001 C CNN "Power"
F 5 "MELF0204 1% =>250mW or 1206 1% =>250mW" V 6295 8900 40  0001 C CNN "Description"
F 6 "1206" V 6225 8900 40  0001 C CNN "Size"
F 7 "1%" V 6375 8900 40  0001 C CNN "Tolerance"
	1    6050 8900
	0    -1   -1   0   
$EndComp
$Comp
L R R545
U 1 1 57111DAB
P 6150 8250
F 0 "R545" V 6070 8250 40  0000 C CNN
F 1 "100k" V 6157 8251 40  0000 C CNN
F 2 "MyKiCadLibs-Footprints:SMD-1206" V 6080 8250 30  0001 C CNN
F 3 "" V 6070 8250 30  0000 C CNN
F 4 "250mW" V 6250 8250 40  0001 C CNN "Power"
F 5 "MELF0204 1% =>250mW or 1206 1% =>250mW" V 6395 8250 40  0001 C CNN "Description"
F 6 "1206" V 6325 8250 40  0001 C CNN "Size"
F 7 "1%" V 6475 8250 40  0001 C CNN "Tolerance"
	1    6150 8250
	0    1    -1   0   
$EndComp
$Comp
L R R546
U 1 1 57111DB5
P 6150 8750
F 0 "R546" V 6070 8750 40  0000 C CNN
F 1 "100k" V 6157 8751 40  0000 C CNN
F 2 "MyKiCadLibs-Footprints:SMD-1206" V 6080 8750 30  0001 C CNN
F 3 "" V 6070 8750 30  0000 C CNN
F 4 "250mW" V 6250 8750 40  0001 C CNN "Power"
F 5 "MELF0204 1% =>250mW or 1206 1% =>250mW" V 6395 8750 40  0001 C CNN "Description"
F 6 "1206" V 6325 8750 40  0001 C CNN "Size"
F 7 "1%" V 6475 8750 40  0001 C CNN "Tolerance"
	1    6150 8750
	0    1    1    0   
$EndComp
$Comp
L C C507
U 1 1 57111DC0
P 5700 8400
F 0 "C507" H 5700 8500 40  0000 L CNN
F 1 "2n7" H 5710 8315 40  0000 L CNN
F 2 "MyKiCadLibs-Footprints:SMD-0805" H 5738 8250 30  0001 C CNN
F 3 "" H 5700 8500 60  0000 C CNN
F 4 "50V" H 5715 8245 40  0000 L CNN "Voltage"
F 5 "C0G" H 5715 8175 40  0000 L CNN "Type"
F 6 "Ceramic capacitor" H 5700 8700 40  0001 L CNN "Description"
F 7 "5%" H 5770 8035 40  0001 C CNN "Tolerance"
F 8 "0805" H 5710 8105 40  0001 L CNN "Size"
	1    5700 8400
	-1   0    0    1   
$EndComp
$Comp
L R R515
U 1 1 57111DCA
P 5400 9100
F 0 "R515" V 5320 9100 40  0000 C CNN
F 1 "240" V 5407 9101 40  0000 C CNN
F 2 "MyKiCadLibs-Footprints:SMD-1206" V 5330 9100 30  0001 C CNN
F 3 "" V 5320 9100 30  0000 C CNN
F 4 "250mW" V 5500 9100 40  0001 C CNN "Power"
F 5 "MELF0204 1% =>250mW or 1206 1% =>250mW" V 5645 9100 40  0001 C CNN "Description"
F 6 "1206" V 5575 9100 40  0001 C CNN "Size"
F 7 "1%" V 5725 9100 40  0001 C CNN "Tolerance"
	1    5400 9100
	0    -1   -1   0   
$EndComp
$Comp
L R R516
U 1 1 57111DD4
P 5400 9950
F 0 "R516" V 5320 9950 40  0000 C CNN
F 1 "240" V 5407 9951 40  0000 C CNN
F 2 "MyKiCadLibs-Footprints:SMD-1206" V 5330 9950 30  0001 C CNN
F 3 "" V 5320 9950 30  0000 C CNN
F 4 "250mW" V 5500 9950 40  0001 C CNN "Power"
F 5 "MELF0204 1% =>250mW or 1206 1% =>250mW" V 5645 9950 40  0001 C CNN "Description"
F 6 "1206" V 5575 9950 40  0001 C CNN "Size"
F 7 "1%" V 5725 9950 40  0001 C CNN "Tolerance"
	1    5400 9950
	0    -1   1    0   
$EndComp
$Comp
L R R531
U 1 1 57111DDE
P 6050 9100
F 0 "R531" V 5970 9100 40  0000 C CNN
F 1 "100" V 6057 9101 40  0000 C CNN
F 2 "MyKiCadLibs-Footprints:SMD-1206" V 5980 9100 30  0001 C CNN
F 3 "" V 5970 9100 30  0000 C CNN
F 4 "250mW" V 6150 9100 40  0001 C CNN "Power"
F 5 "MELF0204 1% =>250mW or 1206 1% =>250mW" V 6295 9100 40  0001 C CNN "Description"
F 6 "1206" V 6225 9100 40  0001 C CNN "Size"
F 7 "1%" V 6375 9100 40  0001 C CNN "Tolerance"
	1    6050 9100
	0    -1   -1   0   
$EndComp
$Comp
L R R532
U 1 1 57111DE8
P 6050 9950
F 0 "R532" V 5970 9950 40  0000 C CNN
F 1 "100" V 6057 9951 40  0000 C CNN
F 2 "MyKiCadLibs-Footprints:SMD-1206" V 5980 9950 30  0001 C CNN
F 3 "" V 5970 9950 30  0000 C CNN
F 4 "250mW" V 6150 9950 40  0001 C CNN "Power"
F 5 "MELF0204 1% =>250mW or 1206 1% =>250mW" V 6295 9950 40  0001 C CNN "Description"
F 6 "1206" V 6225 9950 40  0001 C CNN "Size"
F 7 "1%" V 6375 9950 40  0001 C CNN "Tolerance"
	1    6050 9950
	0    -1   -1   0   
$EndComp
$Comp
L R R547
U 1 1 57111DF2
P 6150 9300
F 0 "R547" V 6070 9300 40  0000 C CNN
F 1 "100k" V 6157 9301 40  0000 C CNN
F 2 "MyKiCadLibs-Footprints:SMD-1206" V 6080 9300 30  0001 C CNN
F 3 "" V 6070 9300 30  0000 C CNN
F 4 "250mW" V 6250 9300 40  0001 C CNN "Power"
F 5 "MELF0204 1% =>250mW or 1206 1% =>250mW" V 6395 9300 40  0001 C CNN "Description"
F 6 "1206" V 6325 9300 40  0001 C CNN "Size"
F 7 "1%" V 6475 9300 40  0001 C CNN "Tolerance"
	1    6150 9300
	0    1    -1   0   
$EndComp
$Comp
L R R548
U 1 1 57111DFC
P 6150 9800
F 0 "R548" V 6070 9800 40  0000 C CNN
F 1 "100k" V 6157 9801 40  0000 C CNN
F 2 "MyKiCadLibs-Footprints:SMD-1206" V 6080 9800 30  0001 C CNN
F 3 "" V 6070 9800 30  0000 C CNN
F 4 "250mW" V 6250 9800 40  0001 C CNN "Power"
F 5 "MELF0204 1% =>250mW or 1206 1% =>250mW" V 6395 9800 40  0001 C CNN "Description"
F 6 "1206" V 6325 9800 40  0001 C CNN "Size"
F 7 "1%" V 6475 9800 40  0001 C CNN "Tolerance"
	1    6150 9800
	0    1    1    0   
$EndComp
$Comp
L C C508
U 1 1 57111E07
P 5700 9450
F 0 "C508" H 5700 9550 40  0000 L CNN
F 1 "2n7" H 5710 9365 40  0000 L CNN
F 2 "MyKiCadLibs-Footprints:SMD-0805" H 5738 9300 30  0001 C CNN
F 3 "" H 5700 9550 60  0000 C CNN
F 4 "50V" H 5715 9295 40  0000 L CNN "Voltage"
F 5 "C0G" H 5715 9225 40  0000 L CNN "Type"
F 6 "Ceramic capacitor" H 5700 9750 40  0001 L CNN "Description"
F 7 "5%" H 5770 9085 40  0001 C CNN "Tolerance"
F 8 "0805" H 5710 9155 40  0001 L CNN "Size"
	1    5700 9450
	-1   0    0    1   
$EndComp
$Comp
L GNDA #PWR502
U 1 1 5711360D
P 9750 1850
F 0 "#PWR502" H 9750 1600 50  0001 C CNN
F 1 "GNDA" H 9750 1700 50  0000 C CNN
F 2 "" H 9750 1850 60  0000 C CNN
F 3 "" H 9750 1850 60  0000 C CNN
	1    9750 1850
	1    0    0    -1  
$EndComp
$Comp
L GNDA #PWR504
U 1 1 57113613
P 9750 2900
F 0 "#PWR504" H 9750 2650 50  0001 C CNN
F 1 "GNDA" H 9750 2750 50  0000 C CNN
F 2 "" H 9750 2900 60  0000 C CNN
F 3 "" H 9750 2900 60  0000 C CNN
	1    9750 2900
	1    0    0    -1  
$EndComp
$Comp
L GNDA #PWR506
U 1 1 57113619
P 9750 3950
F 0 "#PWR506" H 9750 3700 50  0001 C CNN
F 1 "GNDA" H 9750 3800 50  0000 C CNN
F 2 "" H 9750 3950 60  0000 C CNN
F 3 "" H 9750 3950 60  0000 C CNN
	1    9750 3950
	1    0    0    -1  
$EndComp
$Comp
L GNDA #PWR512
U 1 1 5711361F
P 9750 5000
F 0 "#PWR512" H 9750 4750 50  0001 C CNN
F 1 "GNDA" H 9750 4850 50  0000 C CNN
F 2 "" H 9750 5000 60  0000 C CNN
F 3 "" H 9750 5000 60  0000 C CNN
	1    9750 5000
	1    0    0    -1  
$EndComp
Wire Wire Line
	9350 1450 9500 1450
Connection ~ 9400 1450
Wire Wire Line
	9350 2300 9500 2300
Wire Wire Line
	9400 1450 9400 1600
Wire Wire Line
	9400 2300 9400 2000
Connection ~ 9400 2300
Wire Wire Line
	9550 1650 9550 2150
Wire Wire Line
	9550 1750 9750 1750
Wire Wire Line
	9750 1750 9750 1850
Connection ~ 9550 1750
Wire Wire Line
	9550 1650 9600 1650
Wire Wire Line
	9550 2150 9600 2150
Wire Wire Line
	10000 2300 10650 2300
Wire Wire Line
	10150 2300 10150 2150
Wire Wire Line
	10150 2150 10100 2150
Wire Wire Line
	10000 1450 10750 1450
Wire Wire Line
	10150 1450 10150 1650
Wire Wire Line
	10150 1650 10100 1650
Wire Wire Line
	9350 2500 9500 2500
Connection ~ 9400 2500
Wire Wire Line
	9350 3350 9500 3350
Wire Wire Line
	9400 2500 9400 2650
Wire Wire Line
	9400 3350 9400 3050
Connection ~ 9400 3350
Wire Wire Line
	9550 2700 9550 3200
Wire Wire Line
	9550 2800 9750 2800
Wire Wire Line
	9750 2800 9750 2900
Connection ~ 9550 2800
Wire Wire Line
	9550 2700 9600 2700
Wire Wire Line
	9550 3200 9600 3200
Wire Wire Line
	10150 3200 10150 3450
Wire Wire Line
	10150 3200 10100 3200
Wire Wire Line
	10000 2500 10550 2500
Wire Wire Line
	10150 2500 10150 2700
Wire Wire Line
	10150 2700 10100 2700
Wire Wire Line
	9350 3550 9500 3550
Connection ~ 9400 3550
Wire Wire Line
	9350 4400 9500 4400
Wire Wire Line
	9400 3550 9400 3700
Wire Wire Line
	9400 4400 9400 4100
Connection ~ 9400 4400
Wire Wire Line
	9550 3750 9550 4250
Wire Wire Line
	9550 3850 9750 3850
Wire Wire Line
	9750 3850 9750 3950
Connection ~ 9550 3850
Wire Wire Line
	9550 3750 9600 3750
Wire Wire Line
	9550 4250 9600 4250
Wire Wire Line
	10000 4400 10150 4400
Wire Wire Line
	10150 4400 10150 4250
Wire Wire Line
	10550 4250 10100 4250
Wire Wire Line
	10000 3550 11050 3550
Wire Wire Line
	10150 3550 10150 3750
Wire Wire Line
	10150 3750 10100 3750
Wire Wire Line
	9350 4600 9500 4600
Connection ~ 9400 4600
Wire Wire Line
	9350 5450 9500 5450
Wire Wire Line
	9400 4600 9400 4750
Wire Wire Line
	9400 5450 9400 5150
Connection ~ 9400 5450
Wire Wire Line
	9550 4800 9550 5300
Wire Wire Line
	9550 4900 9750 4900
Wire Wire Line
	9750 4900 9750 5000
Connection ~ 9550 4900
Wire Wire Line
	9550 4800 9600 4800
Wire Wire Line
	9550 5300 9600 5300
Wire Wire Line
	10750 5450 10000 5450
Wire Wire Line
	10150 5450 10150 5300
Wire Wire Line
	10150 5300 10100 5300
Wire Wire Line
	10650 4600 10000 4600
Wire Wire Line
	10150 4600 10150 4800
Wire Wire Line
	10150 4800 10100 4800
Connection ~ 10150 1450
Connection ~ 10150 2300
Connection ~ 10150 2500
Connection ~ 10150 3350
Connection ~ 10150 5450
Connection ~ 10150 4600
Connection ~ 10150 4250
Connection ~ 10150 3550
Wire Wire Line
	10150 3450 11050 3450
Wire Wire Line
	10000 3350 10150 3350
$Comp
L R R549
U 1 1 5711367A
P 9100 1450
F 0 "R549" V 9020 1450 40  0000 C CNN
F 1 "240" V 9107 1451 40  0000 C CNN
F 2 "MyKiCadLibs-Footprints:SMD-1206" V 9030 1450 30  0001 C CNN
F 3 "" V 9020 1450 30  0000 C CNN
F 4 "250mW" V 9200 1450 40  0001 C CNN "Power"
F 5 "MELF0204 1% =>250mW or 1206 1% =>250mW" V 9345 1450 40  0001 C CNN "Description"
F 6 "1206" V 9275 1450 40  0001 C CNN "Size"
F 7 "1%" V 9425 1450 40  0001 C CNN "Tolerance"
	1    9100 1450
	0    -1   -1   0   
$EndComp
$Comp
L R R550
U 1 1 57113684
P 9100 2300
F 0 "R550" V 9020 2300 40  0000 C CNN
F 1 "240" V 9107 2301 40  0000 C CNN
F 2 "MyKiCadLibs-Footprints:SMD-1206" V 9030 2300 30  0001 C CNN
F 3 "" V 9020 2300 30  0000 C CNN
F 4 "250mW" V 9200 2300 40  0001 C CNN "Power"
F 5 "MELF0204 1% =>250mW or 1206 1% =>250mW" V 9345 2300 40  0001 C CNN "Description"
F 6 "1206" V 9275 2300 40  0001 C CNN "Size"
F 7 "1%" V 9425 2300 40  0001 C CNN "Tolerance"
	1    9100 2300
	0    -1   1    0   
$EndComp
$Comp
L R R565
U 1 1 5711368E
P 9750 1450
F 0 "R565" V 9670 1450 40  0000 C CNN
F 1 "100" V 9757 1451 40  0000 C CNN
F 2 "MyKiCadLibs-Footprints:SMD-1206" V 9680 1450 30  0001 C CNN
F 3 "" V 9670 1450 30  0000 C CNN
F 4 "250mW" V 9850 1450 40  0001 C CNN "Power"
F 5 "MELF0204 1% =>250mW or 1206 1% =>250mW" V 9995 1450 40  0001 C CNN "Description"
F 6 "1206" V 9925 1450 40  0001 C CNN "Size"
F 7 "1%" V 10075 1450 40  0001 C CNN "Tolerance"
	1    9750 1450
	0    -1   1    0   
$EndComp
$Comp
L R R566
U 1 1 57113698
P 9750 2300
F 0 "R566" V 9670 2300 40  0000 C CNN
F 1 "100" V 9757 2301 40  0000 C CNN
F 2 "MyKiCadLibs-Footprints:SMD-1206" V 9680 2300 30  0001 C CNN
F 3 "" V 9670 2300 30  0000 C CNN
F 4 "250mW" V 9850 2300 40  0001 C CNN "Power"
F 5 "MELF0204 1% =>250mW or 1206 1% =>250mW" V 9995 2300 40  0001 C CNN "Description"
F 6 "1206" V 9925 2300 40  0001 C CNN "Size"
F 7 "1%" V 10075 2300 40  0001 C CNN "Tolerance"
	1    9750 2300
	0    -1   -1   0   
$EndComp
$Comp
L R R581
U 1 1 571136A2
P 9850 1650
F 0 "R581" V 9770 1650 40  0000 C CNN
F 1 "100k" V 9857 1651 40  0000 C CNN
F 2 "MyKiCadLibs-Footprints:SMD-1206" V 9780 1650 30  0001 C CNN
F 3 "" V 9770 1650 30  0000 C CNN
F 4 "250mW" V 9950 1650 40  0001 C CNN "Power"
F 5 "MELF0204 1% =>250mW or 1206 1% =>250mW" V 10095 1650 40  0001 C CNN "Description"
F 6 "1206" V 10025 1650 40  0001 C CNN "Size"
F 7 "1%" V 10175 1650 40  0001 C CNN "Tolerance"
	1    9850 1650
	0    1    -1   0   
$EndComp
$Comp
L R R582
U 1 1 571136AC
P 9850 2150
F 0 "R582" V 9770 2150 40  0000 C CNN
F 1 "100k" V 9857 2151 40  0000 C CNN
F 2 "MyKiCadLibs-Footprints:SMD-1206" V 9780 2150 30  0001 C CNN
F 3 "" V 9770 2150 30  0000 C CNN
F 4 "250mW" V 9950 2150 40  0001 C CNN "Power"
F 5 "MELF0204 1% =>250mW or 1206 1% =>250mW" V 10095 2150 40  0001 C CNN "Description"
F 6 "1206" V 10025 2150 40  0001 C CNN "Size"
F 7 "1%" V 10175 2150 40  0001 C CNN "Tolerance"
	1    9850 2150
	0    1    1    0   
$EndComp
$Comp
L C C509
U 1 1 571136B7
P 9400 1800
F 0 "C509" H 9400 1900 40  0000 L CNN
F 1 "2n7" H 9410 1715 40  0000 L CNN
F 2 "MyKiCadLibs-Footprints:SMD-0805" H 9438 1650 30  0001 C CNN
F 3 "" H 9400 1900 60  0000 C CNN
F 4 "50V" H 9415 1645 40  0000 L CNN "Voltage"
F 5 "C0G" H 9415 1575 40  0000 L CNN "Type"
F 6 "Ceramic capacitor" H 9400 2100 40  0001 L CNN "Description"
F 7 "5%" H 9470 1435 40  0001 C CNN "Tolerance"
F 8 "0805" H 9410 1505 40  0001 L CNN "Size"
	1    9400 1800
	-1   0    0    1   
$EndComp
$Comp
L R R551
U 1 1 571136C1
P 9100 2500
F 0 "R551" V 9020 2500 40  0000 C CNN
F 1 "240" V 9107 2501 40  0000 C CNN
F 2 "MyKiCadLibs-Footprints:SMD-1206" V 9030 2500 30  0001 C CNN
F 3 "" V 9020 2500 30  0000 C CNN
F 4 "250mW" V 9200 2500 40  0001 C CNN "Power"
F 5 "MELF0204 1% =>250mW or 1206 1% =>250mW" V 9345 2500 40  0001 C CNN "Description"
F 6 "1206" V 9275 2500 40  0001 C CNN "Size"
F 7 "1%" V 9425 2500 40  0001 C CNN "Tolerance"
	1    9100 2500
	0    -1   -1   0   
$EndComp
$Comp
L R R552
U 1 1 571136CB
P 9100 3350
F 0 "R552" V 9020 3350 40  0000 C CNN
F 1 "240" V 9107 3351 40  0000 C CNN
F 2 "MyKiCadLibs-Footprints:SMD-1206" V 9030 3350 30  0001 C CNN
F 3 "" V 9020 3350 30  0000 C CNN
F 4 "250mW" V 9200 3350 40  0001 C CNN "Power"
F 5 "MELF0204 1% =>250mW or 1206 1% =>250mW" V 9345 3350 40  0001 C CNN "Description"
F 6 "1206" V 9275 3350 40  0001 C CNN "Size"
F 7 "1%" V 9425 3350 40  0001 C CNN "Tolerance"
	1    9100 3350
	0    -1   1    0   
$EndComp
$Comp
L R R567
U 1 1 571136D5
P 9750 2500
F 0 "R567" V 9670 2500 40  0000 C CNN
F 1 "100" V 9757 2501 40  0000 C CNN
F 2 "MyKiCadLibs-Footprints:SMD-1206" V 9680 2500 30  0001 C CNN
F 3 "" V 9670 2500 30  0000 C CNN
F 4 "250mW" V 9850 2500 40  0001 C CNN "Power"
F 5 "MELF0204 1% =>250mW or 1206 1% =>250mW" V 9995 2500 40  0001 C CNN "Description"
F 6 "1206" V 9925 2500 40  0001 C CNN "Size"
F 7 "1%" V 10075 2500 40  0001 C CNN "Tolerance"
	1    9750 2500
	0    -1   -1   0   
$EndComp
$Comp
L R R568
U 1 1 571136DF
P 9750 3350
F 0 "R568" V 9670 3350 40  0000 C CNN
F 1 "100" V 9757 3351 40  0000 C CNN
F 2 "MyKiCadLibs-Footprints:SMD-1206" V 9680 3350 30  0001 C CNN
F 3 "" V 9670 3350 30  0000 C CNN
F 4 "250mW" V 9850 3350 40  0001 C CNN "Power"
F 5 "MELF0204 1% =>250mW or 1206 1% =>250mW" V 9995 3350 40  0001 C CNN "Description"
F 6 "1206" V 9925 3350 40  0001 C CNN "Size"
F 7 "1%" V 10075 3350 40  0001 C CNN "Tolerance"
	1    9750 3350
	0    -1   -1   0   
$EndComp
$Comp
L R R583
U 1 1 571136E9
P 9850 2700
F 0 "R583" V 9770 2700 40  0000 C CNN
F 1 "100k" V 9857 2701 40  0000 C CNN
F 2 "MyKiCadLibs-Footprints:SMD-1206" V 9780 2700 30  0001 C CNN
F 3 "" V 9770 2700 30  0000 C CNN
F 4 "250mW" V 9950 2700 40  0001 C CNN "Power"
F 5 "MELF0204 1% =>250mW or 1206 1% =>250mW" V 10095 2700 40  0001 C CNN "Description"
F 6 "1206" V 10025 2700 40  0001 C CNN "Size"
F 7 "1%" V 10175 2700 40  0001 C CNN "Tolerance"
	1    9850 2700
	0    1    -1   0   
$EndComp
$Comp
L R R584
U 1 1 571136F3
P 9850 3200
F 0 "R584" V 9770 3200 40  0000 C CNN
F 1 "100k" V 9857 3201 40  0000 C CNN
F 2 "MyKiCadLibs-Footprints:SMD-1206" V 9780 3200 30  0001 C CNN
F 3 "" V 9770 3200 30  0000 C CNN
F 4 "250mW" V 9950 3200 40  0001 C CNN "Power"
F 5 "MELF0204 1% =>250mW or 1206 1% =>250mW" V 10095 3200 40  0001 C CNN "Description"
F 6 "1206" V 10025 3200 40  0001 C CNN "Size"
F 7 "1%" V 10175 3200 40  0001 C CNN "Tolerance"
	1    9850 3200
	0    1    1    0   
$EndComp
$Comp
L C C510
U 1 1 571136FE
P 9400 2850
F 0 "C510" H 9400 2950 40  0000 L CNN
F 1 "2n7" H 9410 2765 40  0000 L CNN
F 2 "MyKiCadLibs-Footprints:SMD-0805" H 9438 2700 30  0001 C CNN
F 3 "" H 9400 2950 60  0000 C CNN
F 4 "50V" H 9415 2695 40  0000 L CNN "Voltage"
F 5 "C0G" H 9415 2625 40  0000 L CNN "Type"
F 6 "Ceramic capacitor" H 9400 3150 40  0001 L CNN "Description"
F 7 "5%" H 9470 2485 40  0001 C CNN "Tolerance"
F 8 "0805" H 9410 2555 40  0001 L CNN "Size"
	1    9400 2850
	-1   0    0    1   
$EndComp
$Comp
L R R553
U 1 1 57113708
P 9100 3550
F 0 "R553" V 9020 3550 40  0000 C CNN
F 1 "240" V 9107 3551 40  0000 C CNN
F 2 "MyKiCadLibs-Footprints:SMD-1206" V 9030 3550 30  0001 C CNN
F 3 "" V 9020 3550 30  0000 C CNN
F 4 "250mW" V 9200 3550 40  0001 C CNN "Power"
F 5 "MELF0204 1% =>250mW or 1206 1% =>250mW" V 9345 3550 40  0001 C CNN "Description"
F 6 "1206" V 9275 3550 40  0001 C CNN "Size"
F 7 "1%" V 9425 3550 40  0001 C CNN "Tolerance"
	1    9100 3550
	0    -1   -1   0   
$EndComp
$Comp
L R R554
U 1 1 57113712
P 9100 4400
F 0 "R554" V 9020 4400 40  0000 C CNN
F 1 "240" V 9107 4401 40  0000 C CNN
F 2 "MyKiCadLibs-Footprints:SMD-1206" V 9030 4400 30  0001 C CNN
F 3 "" V 9020 4400 30  0000 C CNN
F 4 "250mW" V 9200 4400 40  0001 C CNN "Power"
F 5 "MELF0204 1% =>250mW or 1206 1% =>250mW" V 9345 4400 40  0001 C CNN "Description"
F 6 "1206" V 9275 4400 40  0001 C CNN "Size"
F 7 "1%" V 9425 4400 40  0001 C CNN "Tolerance"
	1    9100 4400
	0    -1   1    0   
$EndComp
$Comp
L R R569
U 1 1 5711371C
P 9750 3550
F 0 "R569" V 9670 3550 40  0000 C CNN
F 1 "100" V 9757 3551 40  0000 C CNN
F 2 "MyKiCadLibs-Footprints:SMD-1206" V 9680 3550 30  0001 C CNN
F 3 "" V 9670 3550 30  0000 C CNN
F 4 "250mW" V 9850 3550 40  0001 C CNN "Power"
F 5 "MELF0204 1% =>250mW or 1206 1% =>250mW" V 9995 3550 40  0001 C CNN "Description"
F 6 "1206" V 9925 3550 40  0001 C CNN "Size"
F 7 "1%" V 10075 3550 40  0001 C CNN "Tolerance"
	1    9750 3550
	0    -1   -1   0   
$EndComp
$Comp
L R R570
U 1 1 57113726
P 9750 4400
F 0 "R570" V 9670 4400 40  0000 C CNN
F 1 "100" V 9757 4401 40  0000 C CNN
F 2 "MyKiCadLibs-Footprints:SMD-1206" V 9680 4400 30  0001 C CNN
F 3 "" V 9670 4400 30  0000 C CNN
F 4 "250mW" V 9850 4400 40  0001 C CNN "Power"
F 5 "MELF0204 1% =>250mW or 1206 1% =>250mW" V 9995 4400 40  0001 C CNN "Description"
F 6 "1206" V 9925 4400 40  0001 C CNN "Size"
F 7 "1%" V 10075 4400 40  0001 C CNN "Tolerance"
	1    9750 4400
	0    -1   -1   0   
$EndComp
$Comp
L R R585
U 1 1 57113730
P 9850 3750
F 0 "R585" V 9770 3750 40  0000 C CNN
F 1 "100k" V 9857 3751 40  0000 C CNN
F 2 "MyKiCadLibs-Footprints:SMD-1206" V 9780 3750 30  0001 C CNN
F 3 "" V 9770 3750 30  0000 C CNN
F 4 "250mW" V 9950 3750 40  0001 C CNN "Power"
F 5 "MELF0204 1% =>250mW or 1206 1% =>250mW" V 10095 3750 40  0001 C CNN "Description"
F 6 "1206" V 10025 3750 40  0001 C CNN "Size"
F 7 "1%" V 10175 3750 40  0001 C CNN "Tolerance"
	1    9850 3750
	0    1    -1   0   
$EndComp
$Comp
L R R586
U 1 1 5711373A
P 9850 4250
F 0 "R586" V 9770 4250 40  0000 C CNN
F 1 "100k" V 9857 4251 40  0000 C CNN
F 2 "MyKiCadLibs-Footprints:SMD-1206" V 9780 4250 30  0001 C CNN
F 3 "" V 9770 4250 30  0000 C CNN
F 4 "250mW" V 9950 4250 40  0001 C CNN "Power"
F 5 "MELF0204 1% =>250mW or 1206 1% =>250mW" V 10095 4250 40  0001 C CNN "Description"
F 6 "1206" V 10025 4250 40  0001 C CNN "Size"
F 7 "1%" V 10175 4250 40  0001 C CNN "Tolerance"
	1    9850 4250
	0    1    1    0   
$EndComp
$Comp
L C C511
U 1 1 57113745
P 9400 3900
F 0 "C511" H 9400 4000 40  0000 L CNN
F 1 "2n7" H 9410 3815 40  0000 L CNN
F 2 "MyKiCadLibs-Footprints:SMD-0805" H 9438 3750 30  0001 C CNN
F 3 "" H 9400 4000 60  0000 C CNN
F 4 "50V" H 9415 3745 40  0000 L CNN "Voltage"
F 5 "C0G" H 9415 3675 40  0000 L CNN "Type"
F 6 "Ceramic capacitor" H 9400 4200 40  0001 L CNN "Description"
F 7 "5%" H 9470 3535 40  0001 C CNN "Tolerance"
F 8 "0805" H 9410 3605 40  0001 L CNN "Size"
	1    9400 3900
	-1   0    0    1   
$EndComp
$Comp
L R R555
U 1 1 5711374F
P 9100 4600
F 0 "R555" V 9020 4600 40  0000 C CNN
F 1 "240" V 9107 4601 40  0000 C CNN
F 2 "MyKiCadLibs-Footprints:SMD-1206" V 9030 4600 30  0001 C CNN
F 3 "" V 9020 4600 30  0000 C CNN
F 4 "250mW" V 9200 4600 40  0001 C CNN "Power"
F 5 "MELF0204 1% =>250mW or 1206 1% =>250mW" V 9345 4600 40  0001 C CNN "Description"
F 6 "1206" V 9275 4600 40  0001 C CNN "Size"
F 7 "1%" V 9425 4600 40  0001 C CNN "Tolerance"
	1    9100 4600
	0    -1   -1   0   
$EndComp
$Comp
L R R556
U 1 1 57113759
P 9100 5450
F 0 "R556" V 9020 5450 40  0000 C CNN
F 1 "240" V 9107 5451 40  0000 C CNN
F 2 "MyKiCadLibs-Footprints:SMD-1206" V 9030 5450 30  0001 C CNN
F 3 "" V 9020 5450 30  0000 C CNN
F 4 "250mW" V 9200 5450 40  0001 C CNN "Power"
F 5 "MELF0204 1% =>250mW or 1206 1% =>250mW" V 9345 5450 40  0001 C CNN "Description"
F 6 "1206" V 9275 5450 40  0001 C CNN "Size"
F 7 "1%" V 9425 5450 40  0001 C CNN "Tolerance"
	1    9100 5450
	0    -1   1    0   
$EndComp
$Comp
L R R571
U 1 1 57113763
P 9750 4600
F 0 "R571" V 9670 4600 40  0000 C CNN
F 1 "100" V 9757 4601 40  0000 C CNN
F 2 "MyKiCadLibs-Footprints:SMD-1206" V 9680 4600 30  0001 C CNN
F 3 "" V 9670 4600 30  0000 C CNN
F 4 "250mW" V 9850 4600 40  0001 C CNN "Power"
F 5 "MELF0204 1% =>250mW or 1206 1% =>250mW" V 9995 4600 40  0001 C CNN "Description"
F 6 "1206" V 9925 4600 40  0001 C CNN "Size"
F 7 "1%" V 10075 4600 40  0001 C CNN "Tolerance"
	1    9750 4600
	0    -1   -1   0   
$EndComp
$Comp
L R R572
U 1 1 5711376D
P 9750 5450
F 0 "R572" V 9670 5450 40  0000 C CNN
F 1 "100" V 9757 5451 40  0000 C CNN
F 2 "MyKiCadLibs-Footprints:SMD-1206" V 9680 5450 30  0001 C CNN
F 3 "" V 9670 5450 30  0000 C CNN
F 4 "250mW" V 9850 5450 40  0001 C CNN "Power"
F 5 "MELF0204 1% =>250mW or 1206 1% =>250mW" V 9995 5450 40  0001 C CNN "Description"
F 6 "1206" V 9925 5450 40  0001 C CNN "Size"
F 7 "1%" V 10075 5450 40  0001 C CNN "Tolerance"
	1    9750 5450
	0    -1   -1   0   
$EndComp
$Comp
L R R587
U 1 1 57113777
P 9850 4800
F 0 "R587" V 9770 4800 40  0000 C CNN
F 1 "100k" V 9857 4801 40  0000 C CNN
F 2 "MyKiCadLibs-Footprints:SMD-1206" V 9780 4800 30  0001 C CNN
F 3 "" V 9770 4800 30  0000 C CNN
F 4 "250mW" V 9950 4800 40  0001 C CNN "Power"
F 5 "MELF0204 1% =>250mW or 1206 1% =>250mW" V 10095 4800 40  0001 C CNN "Description"
F 6 "1206" V 10025 4800 40  0001 C CNN "Size"
F 7 "1%" V 10175 4800 40  0001 C CNN "Tolerance"
	1    9850 4800
	0    1    -1   0   
$EndComp
$Comp
L R R588
U 1 1 57113781
P 9850 5300
F 0 "R588" V 9770 5300 40  0000 C CNN
F 1 "100k" V 9857 5301 40  0000 C CNN
F 2 "MyKiCadLibs-Footprints:SMD-1206" V 9780 5300 30  0001 C CNN
F 3 "" V 9770 5300 30  0000 C CNN
F 4 "250mW" V 9950 5300 40  0001 C CNN "Power"
F 5 "MELF0204 1% =>250mW or 1206 1% =>250mW" V 10095 5300 40  0001 C CNN "Description"
F 6 "1206" V 10025 5300 40  0001 C CNN "Size"
F 7 "1%" V 10175 5300 40  0001 C CNN "Tolerance"
	1    9850 5300
	0    1    1    0   
$EndComp
$Comp
L C C512
U 1 1 5711378C
P 9400 4950
F 0 "C512" H 9400 5050 40  0000 L CNN
F 1 "2n7" H 9410 4865 40  0000 L CNN
F 2 "MyKiCadLibs-Footprints:SMD-0805" H 9438 4800 30  0001 C CNN
F 3 "" H 9400 5050 60  0000 C CNN
F 4 "50V" H 9415 4795 40  0000 L CNN "Voltage"
F 5 "C0G" H 9415 4725 40  0000 L CNN "Type"
F 6 "Ceramic capacitor" H 9400 5250 40  0001 L CNN "Description"
F 7 "5%" H 9470 4585 40  0001 C CNN "Tolerance"
F 8 "0805" H 9410 4655 40  0001 L CNN "Size"
	1    9400 4950
	-1   0    0    1   
$EndComp
$Comp
L GNDA #PWR514
U 1 1 57113792
P 9750 6400
F 0 "#PWR514" H 9750 6150 50  0001 C CNN
F 1 "GNDA" H 9750 6250 50  0000 C CNN
F 2 "" H 9750 6400 60  0000 C CNN
F 3 "" H 9750 6400 60  0000 C CNN
	1    9750 6400
	1    0    0    -1  
$EndComp
$Comp
L GNDA #PWR516
U 1 1 57113798
P 9750 7450
F 0 "#PWR516" H 9750 7200 50  0001 C CNN
F 1 "GNDA" H 9750 7300 50  0000 C CNN
F 2 "" H 9750 7450 60  0000 C CNN
F 3 "" H 9750 7450 60  0000 C CNN
	1    9750 7450
	1    0    0    -1  
$EndComp
$Comp
L GNDA #PWR518
U 1 1 5711379E
P 9750 8500
F 0 "#PWR518" H 9750 8250 50  0001 C CNN
F 1 "GNDA" H 9750 8350 50  0000 C CNN
F 2 "" H 9750 8500 60  0000 C CNN
F 3 "" H 9750 8500 60  0000 C CNN
	1    9750 8500
	1    0    0    -1  
$EndComp
$Comp
L GNDA #PWR524
U 1 1 571137A4
P 9750 9550
F 0 "#PWR524" H 9750 9300 50  0001 C CNN
F 1 "GNDA" H 9750 9400 50  0000 C CNN
F 2 "" H 9750 9550 60  0000 C CNN
F 3 "" H 9750 9550 60  0000 C CNN
	1    9750 9550
	1    0    0    -1  
$EndComp
Wire Wire Line
	9350 6000 9500 6000
Connection ~ 9400 6000
Wire Wire Line
	9350 6850 9500 6850
Wire Wire Line
	9400 6000 9400 6150
Wire Wire Line
	9400 6850 9400 6550
Connection ~ 9400 6850
Wire Wire Line
	9550 6200 9550 6700
Wire Wire Line
	9550 6300 9750 6300
Wire Wire Line
	9750 6300 9750 6400
Connection ~ 9550 6300
Wire Wire Line
	9550 6200 9600 6200
Wire Wire Line
	9550 6700 9600 6700
Wire Wire Line
	10000 6850 10650 6850
Wire Wire Line
	10150 6850 10150 6700
Wire Wire Line
	10150 6700 10100 6700
Wire Wire Line
	10000 6000 10750 6000
Wire Wire Line
	10150 6000 10150 6200
Wire Wire Line
	10150 6200 10100 6200
Wire Wire Line
	9350 7050 9500 7050
Connection ~ 9400 7050
Wire Wire Line
	9350 7900 9500 7900
Wire Wire Line
	9400 7050 9400 7200
Wire Wire Line
	9400 7900 9400 7600
Connection ~ 9400 7900
Wire Wire Line
	9550 7250 9550 7750
Wire Wire Line
	9550 7350 9750 7350
Wire Wire Line
	9750 7350 9750 7450
Connection ~ 9550 7350
Wire Wire Line
	9550 7250 9600 7250
Wire Wire Line
	9550 7750 9600 7750
Wire Wire Line
	10150 7750 10150 8000
Wire Wire Line
	10150 7750 10100 7750
Wire Wire Line
	10000 7050 10550 7050
Wire Wire Line
	10150 7050 10150 7250
Wire Wire Line
	10150 7250 10100 7250
Wire Wire Line
	9350 8100 9500 8100
Connection ~ 9400 8100
Wire Wire Line
	9350 8950 9500 8950
Wire Wire Line
	9400 8100 9400 8250
Wire Wire Line
	9400 8950 9400 8650
Connection ~ 9400 8950
Wire Wire Line
	9550 8300 9550 8800
Wire Wire Line
	9550 8400 9750 8400
Wire Wire Line
	9750 8400 9750 8500
Connection ~ 9550 8400
Wire Wire Line
	9550 8300 9600 8300
Wire Wire Line
	9550 8800 9600 8800
Wire Wire Line
	10000 8950 10150 8950
Wire Wire Line
	10150 8950 10150 8800
Wire Wire Line
	10550 8800 10100 8800
Wire Wire Line
	10000 8100 11050 8100
Wire Wire Line
	10150 8100 10150 8300
Wire Wire Line
	10150 8300 10100 8300
Wire Wire Line
	9350 9150 9500 9150
Connection ~ 9400 9150
Wire Wire Line
	9350 10000 9500 10000
Wire Wire Line
	9400 9150 9400 9300
Wire Wire Line
	9400 10000 9400 9700
Connection ~ 9400 10000
Wire Wire Line
	9550 9350 9550 9850
Wire Wire Line
	9550 9450 9750 9450
Wire Wire Line
	9750 9450 9750 9550
Connection ~ 9550 9450
Wire Wire Line
	9550 9350 9600 9350
Wire Wire Line
	9550 9850 9600 9850
Wire Wire Line
	10750 10000 10000 10000
Wire Wire Line
	10150 10000 10150 9850
Wire Wire Line
	10150 9850 10100 9850
Wire Wire Line
	10650 9150 10000 9150
Wire Wire Line
	10150 9150 10150 9350
Wire Wire Line
	10150 9350 10100 9350
Connection ~ 10150 6000
Connection ~ 10150 6850
Connection ~ 10150 7050
Connection ~ 10150 7900
Connection ~ 10150 10000
Connection ~ 10150 9150
Connection ~ 10150 8800
Connection ~ 10150 8100
Wire Wire Line
	10150 8000 11050 8000
Wire Wire Line
	10000 7900 10150 7900
$Comp
L R R557
U 1 1 571137FF
P 9100 6000
F 0 "R557" V 9020 6000 40  0000 C CNN
F 1 "240" V 9107 6001 40  0000 C CNN
F 2 "MyKiCadLibs-Footprints:SMD-1206" V 9030 6000 30  0001 C CNN
F 3 "" V 9020 6000 30  0000 C CNN
F 4 "250mW" V 9200 6000 40  0001 C CNN "Power"
F 5 "MELF0204 1% =>250mW or 1206 1% =>250mW" V 9345 6000 40  0001 C CNN "Description"
F 6 "1206" V 9275 6000 40  0001 C CNN "Size"
F 7 "1%" V 9425 6000 40  0001 C CNN "Tolerance"
	1    9100 6000
	0    -1   -1   0   
$EndComp
$Comp
L R R558
U 1 1 57113809
P 9100 6850
F 0 "R558" V 9020 6850 40  0000 C CNN
F 1 "240" V 9107 6851 40  0000 C CNN
F 2 "MyKiCadLibs-Footprints:SMD-1206" V 9030 6850 30  0001 C CNN
F 3 "" V 9020 6850 30  0000 C CNN
F 4 "250mW" V 9200 6850 40  0001 C CNN "Power"
F 5 "MELF0204 1% =>250mW or 1206 1% =>250mW" V 9345 6850 40  0001 C CNN "Description"
F 6 "1206" V 9275 6850 40  0001 C CNN "Size"
F 7 "1%" V 9425 6850 40  0001 C CNN "Tolerance"
	1    9100 6850
	0    -1   1    0   
$EndComp
$Comp
L R R573
U 1 1 57113813
P 9750 6000
F 0 "R573" V 9670 6000 40  0000 C CNN
F 1 "100" V 9757 6001 40  0000 C CNN
F 2 "MyKiCadLibs-Footprints:SMD-1206" V 9680 6000 30  0001 C CNN
F 3 "" V 9670 6000 30  0000 C CNN
F 4 "250mW" V 9850 6000 40  0001 C CNN "Power"
F 5 "MELF0204 1% =>250mW or 1206 1% =>250mW" V 9995 6000 40  0001 C CNN "Description"
F 6 "1206" V 9925 6000 40  0001 C CNN "Size"
F 7 "1%" V 10075 6000 40  0001 C CNN "Tolerance"
	1    9750 6000
	0    -1   1    0   
$EndComp
$Comp
L R R574
U 1 1 5711381D
P 9750 6850
F 0 "R574" V 9670 6850 40  0000 C CNN
F 1 "100" V 9757 6851 40  0000 C CNN
F 2 "MyKiCadLibs-Footprints:SMD-1206" V 9680 6850 30  0001 C CNN
F 3 "" V 9670 6850 30  0000 C CNN
F 4 "250mW" V 9850 6850 40  0001 C CNN "Power"
F 5 "MELF0204 1% =>250mW or 1206 1% =>250mW" V 9995 6850 40  0001 C CNN "Description"
F 6 "1206" V 9925 6850 40  0001 C CNN "Size"
F 7 "1%" V 10075 6850 40  0001 C CNN "Tolerance"
	1    9750 6850
	0    -1   -1   0   
$EndComp
$Comp
L R R589
U 1 1 57113827
P 9850 6200
F 0 "R589" V 9770 6200 40  0000 C CNN
F 1 "100k" V 9857 6201 40  0000 C CNN
F 2 "MyKiCadLibs-Footprints:SMD-1206" V 9780 6200 30  0001 C CNN
F 3 "" V 9770 6200 30  0000 C CNN
F 4 "250mW" V 9950 6200 40  0001 C CNN "Power"
F 5 "MELF0204 1% =>250mW or 1206 1% =>250mW" V 10095 6200 40  0001 C CNN "Description"
F 6 "1206" V 10025 6200 40  0001 C CNN "Size"
F 7 "1%" V 10175 6200 40  0001 C CNN "Tolerance"
	1    9850 6200
	0    1    -1   0   
$EndComp
$Comp
L R R590
U 1 1 57113831
P 9850 6700
F 0 "R590" V 9770 6700 40  0000 C CNN
F 1 "100k" V 9857 6701 40  0000 C CNN
F 2 "MyKiCadLibs-Footprints:SMD-1206" V 9780 6700 30  0001 C CNN
F 3 "" V 9770 6700 30  0000 C CNN
F 4 "250mW" V 9950 6700 40  0001 C CNN "Power"
F 5 "MELF0204 1% =>250mW or 1206 1% =>250mW" V 10095 6700 40  0001 C CNN "Description"
F 6 "1206" V 10025 6700 40  0001 C CNN "Size"
F 7 "1%" V 10175 6700 40  0001 C CNN "Tolerance"
	1    9850 6700
	0    1    1    0   
$EndComp
$Comp
L C C513
U 1 1 5711383C
P 9400 6350
F 0 "C513" H 9400 6450 40  0000 L CNN
F 1 "2n7" H 9410 6265 40  0000 L CNN
F 2 "MyKiCadLibs-Footprints:SMD-0805" H 9438 6200 30  0001 C CNN
F 3 "" H 9400 6450 60  0000 C CNN
F 4 "50V" H 9415 6195 40  0000 L CNN "Voltage"
F 5 "C0G" H 9415 6125 40  0000 L CNN "Type"
F 6 "Ceramic capacitor" H 9400 6650 40  0001 L CNN "Description"
F 7 "5%" H 9470 5985 40  0001 C CNN "Tolerance"
F 8 "0805" H 9410 6055 40  0001 L CNN "Size"
	1    9400 6350
	-1   0    0    1   
$EndComp
$Comp
L R R559
U 1 1 57113846
P 9100 7050
F 0 "R559" V 9020 7050 40  0000 C CNN
F 1 "240" V 9107 7051 40  0000 C CNN
F 2 "MyKiCadLibs-Footprints:SMD-1206" V 9030 7050 30  0001 C CNN
F 3 "" V 9020 7050 30  0000 C CNN
F 4 "250mW" V 9200 7050 40  0001 C CNN "Power"
F 5 "MELF0204 1% =>250mW or 1206 1% =>250mW" V 9345 7050 40  0001 C CNN "Description"
F 6 "1206" V 9275 7050 40  0001 C CNN "Size"
F 7 "1%" V 9425 7050 40  0001 C CNN "Tolerance"
	1    9100 7050
	0    -1   -1   0   
$EndComp
$Comp
L R R560
U 1 1 57113850
P 9100 7900
F 0 "R560" V 9020 7900 40  0000 C CNN
F 1 "240" V 9107 7901 40  0000 C CNN
F 2 "MyKiCadLibs-Footprints:SMD-1206" V 9030 7900 30  0001 C CNN
F 3 "" V 9020 7900 30  0000 C CNN
F 4 "250mW" V 9200 7900 40  0001 C CNN "Power"
F 5 "MELF0204 1% =>250mW or 1206 1% =>250mW" V 9345 7900 40  0001 C CNN "Description"
F 6 "1206" V 9275 7900 40  0001 C CNN "Size"
F 7 "1%" V 9425 7900 40  0001 C CNN "Tolerance"
	1    9100 7900
	0    -1   1    0   
$EndComp
$Comp
L R R575
U 1 1 5711385A
P 9750 7050
F 0 "R575" V 9670 7050 40  0000 C CNN
F 1 "100" V 9757 7051 40  0000 C CNN
F 2 "MyKiCadLibs-Footprints:SMD-1206" V 9680 7050 30  0001 C CNN
F 3 "" V 9670 7050 30  0000 C CNN
F 4 "250mW" V 9850 7050 40  0001 C CNN "Power"
F 5 "MELF0204 1% =>250mW or 1206 1% =>250mW" V 9995 7050 40  0001 C CNN "Description"
F 6 "1206" V 9925 7050 40  0001 C CNN "Size"
F 7 "1%" V 10075 7050 40  0001 C CNN "Tolerance"
	1    9750 7050
	0    -1   -1   0   
$EndComp
$Comp
L R R576
U 1 1 57113864
P 9750 7900
F 0 "R576" V 9670 7900 40  0000 C CNN
F 1 "100" V 9757 7901 40  0000 C CNN
F 2 "MyKiCadLibs-Footprints:SMD-1206" V 9680 7900 30  0001 C CNN
F 3 "" V 9670 7900 30  0000 C CNN
F 4 "250mW" V 9850 7900 40  0001 C CNN "Power"
F 5 "MELF0204 1% =>250mW or 1206 1% =>250mW" V 9995 7900 40  0001 C CNN "Description"
F 6 "1206" V 9925 7900 40  0001 C CNN "Size"
F 7 "1%" V 10075 7900 40  0001 C CNN "Tolerance"
	1    9750 7900
	0    -1   -1   0   
$EndComp
$Comp
L R R591
U 1 1 5711386E
P 9850 7250
F 0 "R591" V 9770 7250 40  0000 C CNN
F 1 "100k" V 9857 7251 40  0000 C CNN
F 2 "MyKiCadLibs-Footprints:SMD-1206" V 9780 7250 30  0001 C CNN
F 3 "" V 9770 7250 30  0000 C CNN
F 4 "250mW" V 9950 7250 40  0001 C CNN "Power"
F 5 "MELF0204 1% =>250mW or 1206 1% =>250mW" V 10095 7250 40  0001 C CNN "Description"
F 6 "1206" V 10025 7250 40  0001 C CNN "Size"
F 7 "1%" V 10175 7250 40  0001 C CNN "Tolerance"
	1    9850 7250
	0    1    -1   0   
$EndComp
$Comp
L R R592
U 1 1 57113878
P 9850 7750
F 0 "R592" V 9770 7750 40  0000 C CNN
F 1 "100k" V 9857 7751 40  0000 C CNN
F 2 "MyKiCadLibs-Footprints:SMD-1206" V 9780 7750 30  0001 C CNN
F 3 "" V 9770 7750 30  0000 C CNN
F 4 "250mW" V 9950 7750 40  0001 C CNN "Power"
F 5 "MELF0204 1% =>250mW or 1206 1% =>250mW" V 10095 7750 40  0001 C CNN "Description"
F 6 "1206" V 10025 7750 40  0001 C CNN "Size"
F 7 "1%" V 10175 7750 40  0001 C CNN "Tolerance"
	1    9850 7750
	0    1    1    0   
$EndComp
$Comp
L C C514
U 1 1 57113883
P 9400 7400
F 0 "C514" H 9400 7500 40  0000 L CNN
F 1 "2n7" H 9410 7315 40  0000 L CNN
F 2 "MyKiCadLibs-Footprints:SMD-0805" H 9438 7250 30  0001 C CNN
F 3 "" H 9400 7500 60  0000 C CNN
F 4 "50V" H 9415 7245 40  0000 L CNN "Voltage"
F 5 "C0G" H 9415 7175 40  0000 L CNN "Type"
F 6 "Ceramic capacitor" H 9400 7700 40  0001 L CNN "Description"
F 7 "5%" H 9470 7035 40  0001 C CNN "Tolerance"
F 8 "0805" H 9410 7105 40  0001 L CNN "Size"
	1    9400 7400
	-1   0    0    1   
$EndComp
$Comp
L R R561
U 1 1 5711388D
P 9100 8100
F 0 "R561" V 9020 8100 40  0000 C CNN
F 1 "240" V 9107 8101 40  0000 C CNN
F 2 "MyKiCadLibs-Footprints:SMD-1206" V 9030 8100 30  0001 C CNN
F 3 "" V 9020 8100 30  0000 C CNN
F 4 "250mW" V 9200 8100 40  0001 C CNN "Power"
F 5 "MELF0204 1% =>250mW or 1206 1% =>250mW" V 9345 8100 40  0001 C CNN "Description"
F 6 "1206" V 9275 8100 40  0001 C CNN "Size"
F 7 "1%" V 9425 8100 40  0001 C CNN "Tolerance"
	1    9100 8100
	0    -1   -1   0   
$EndComp
$Comp
L R R562
U 1 1 57113897
P 9100 8950
F 0 "R562" V 9020 8950 40  0000 C CNN
F 1 "240" V 9107 8951 40  0000 C CNN
F 2 "MyKiCadLibs-Footprints:SMD-1206" V 9030 8950 30  0001 C CNN
F 3 "" V 9020 8950 30  0000 C CNN
F 4 "250mW" V 9200 8950 40  0001 C CNN "Power"
F 5 "MELF0204 1% =>250mW or 1206 1% =>250mW" V 9345 8950 40  0001 C CNN "Description"
F 6 "1206" V 9275 8950 40  0001 C CNN "Size"
F 7 "1%" V 9425 8950 40  0001 C CNN "Tolerance"
	1    9100 8950
	0    -1   1    0   
$EndComp
$Comp
L R R577
U 1 1 571138A1
P 9750 8100
F 0 "R577" V 9670 8100 40  0000 C CNN
F 1 "100" V 9757 8101 40  0000 C CNN
F 2 "MyKiCadLibs-Footprints:SMD-1206" V 9680 8100 30  0001 C CNN
F 3 "" V 9670 8100 30  0000 C CNN
F 4 "250mW" V 9850 8100 40  0001 C CNN "Power"
F 5 "MELF0204 1% =>250mW or 1206 1% =>250mW" V 9995 8100 40  0001 C CNN "Description"
F 6 "1206" V 9925 8100 40  0001 C CNN "Size"
F 7 "1%" V 10075 8100 40  0001 C CNN "Tolerance"
	1    9750 8100
	0    -1   -1   0   
$EndComp
$Comp
L R R578
U 1 1 571138AB
P 9750 8950
F 0 "R578" V 9670 8950 40  0000 C CNN
F 1 "100" V 9757 8951 40  0000 C CNN
F 2 "MyKiCadLibs-Footprints:SMD-1206" V 9680 8950 30  0001 C CNN
F 3 "" V 9670 8950 30  0000 C CNN
F 4 "250mW" V 9850 8950 40  0001 C CNN "Power"
F 5 "MELF0204 1% =>250mW or 1206 1% =>250mW" V 9995 8950 40  0001 C CNN "Description"
F 6 "1206" V 9925 8950 40  0001 C CNN "Size"
F 7 "1%" V 10075 8950 40  0001 C CNN "Tolerance"
	1    9750 8950
	0    -1   -1   0   
$EndComp
$Comp
L R R593
U 1 1 571138B5
P 9850 8300
F 0 "R593" V 9770 8300 40  0000 C CNN
F 1 "100k" V 9857 8301 40  0000 C CNN
F 2 "MyKiCadLibs-Footprints:SMD-1206" V 9780 8300 30  0001 C CNN
F 3 "" V 9770 8300 30  0000 C CNN
F 4 "250mW" V 9950 8300 40  0001 C CNN "Power"
F 5 "MELF0204 1% =>250mW or 1206 1% =>250mW" V 10095 8300 40  0001 C CNN "Description"
F 6 "1206" V 10025 8300 40  0001 C CNN "Size"
F 7 "1%" V 10175 8300 40  0001 C CNN "Tolerance"
	1    9850 8300
	0    1    -1   0   
$EndComp
$Comp
L R R594
U 1 1 571138BF
P 9850 8800
F 0 "R594" V 9770 8800 40  0000 C CNN
F 1 "100k" V 9857 8801 40  0000 C CNN
F 2 "MyKiCadLibs-Footprints:SMD-1206" V 9780 8800 30  0001 C CNN
F 3 "" V 9770 8800 30  0000 C CNN
F 4 "250mW" V 9950 8800 40  0001 C CNN "Power"
F 5 "MELF0204 1% =>250mW or 1206 1% =>250mW" V 10095 8800 40  0001 C CNN "Description"
F 6 "1206" V 10025 8800 40  0001 C CNN "Size"
F 7 "1%" V 10175 8800 40  0001 C CNN "Tolerance"
	1    9850 8800
	0    1    1    0   
$EndComp
$Comp
L C C515
U 1 1 571138CA
P 9400 8450
F 0 "C515" H 9400 8550 40  0000 L CNN
F 1 "2n7" H 9410 8365 40  0000 L CNN
F 2 "MyKiCadLibs-Footprints:SMD-0805" H 9438 8300 30  0001 C CNN
F 3 "" H 9400 8550 60  0000 C CNN
F 4 "50V" H 9415 8295 40  0000 L CNN "Voltage"
F 5 "C0G" H 9415 8225 40  0000 L CNN "Type"
F 6 "Ceramic capacitor" H 9400 8750 40  0001 L CNN "Description"
F 7 "5%" H 9470 8085 40  0001 C CNN "Tolerance"
F 8 "0805" H 9410 8155 40  0001 L CNN "Size"
	1    9400 8450
	-1   0    0    1   
$EndComp
$Comp
L R R563
U 1 1 571138D4
P 9100 9150
F 0 "R563" V 9020 9150 40  0000 C CNN
F 1 "240" V 9107 9151 40  0000 C CNN
F 2 "MyKiCadLibs-Footprints:SMD-1206" V 9030 9150 30  0001 C CNN
F 3 "" V 9020 9150 30  0000 C CNN
F 4 "250mW" V 9200 9150 40  0001 C CNN "Power"
F 5 "MELF0204 1% =>250mW or 1206 1% =>250mW" V 9345 9150 40  0001 C CNN "Description"
F 6 "1206" V 9275 9150 40  0001 C CNN "Size"
F 7 "1%" V 9425 9150 40  0001 C CNN "Tolerance"
	1    9100 9150
	0    -1   -1   0   
$EndComp
$Comp
L R R564
U 1 1 571138DE
P 9100 10000
F 0 "R564" V 9020 10000 40  0000 C CNN
F 1 "240" V 9107 10001 40  0000 C CNN
F 2 "MyKiCadLibs-Footprints:SMD-1206" V 9030 10000 30  0001 C CNN
F 3 "" V 9020 10000 30  0000 C CNN
F 4 "250mW" V 9200 10000 40  0001 C CNN "Power"
F 5 "MELF0204 1% =>250mW or 1206 1% =>250mW" V 9345 10000 40  0001 C CNN "Description"
F 6 "1206" V 9275 10000 40  0001 C CNN "Size"
F 7 "1%" V 9425 10000 40  0001 C CNN "Tolerance"
	1    9100 10000
	0    -1   1    0   
$EndComp
$Comp
L R R579
U 1 1 571138E8
P 9750 9150
F 0 "R579" V 9670 9150 40  0000 C CNN
F 1 "100" V 9757 9151 40  0000 C CNN
F 2 "MyKiCadLibs-Footprints:SMD-1206" V 9680 9150 30  0001 C CNN
F 3 "" V 9670 9150 30  0000 C CNN
F 4 "250mW" V 9850 9150 40  0001 C CNN "Power"
F 5 "MELF0204 1% =>250mW or 1206 1% =>250mW" V 9995 9150 40  0001 C CNN "Description"
F 6 "1206" V 9925 9150 40  0001 C CNN "Size"
F 7 "1%" V 10075 9150 40  0001 C CNN "Tolerance"
	1    9750 9150
	0    -1   -1   0   
$EndComp
$Comp
L R R580
U 1 1 571138F2
P 9750 10000
F 0 "R580" V 9670 10000 40  0000 C CNN
F 1 "100" V 9757 10001 40  0000 C CNN
F 2 "MyKiCadLibs-Footprints:SMD-1206" V 9680 10000 30  0001 C CNN
F 3 "" V 9670 10000 30  0000 C CNN
F 4 "250mW" V 9850 10000 40  0001 C CNN "Power"
F 5 "MELF0204 1% =>250mW or 1206 1% =>250mW" V 9995 10000 40  0001 C CNN "Description"
F 6 "1206" V 9925 10000 40  0001 C CNN "Size"
F 7 "1%" V 10075 10000 40  0001 C CNN "Tolerance"
	1    9750 10000
	0    -1   -1   0   
$EndComp
$Comp
L R R595
U 1 1 571138FC
P 9850 9350
F 0 "R595" V 9770 9350 40  0000 C CNN
F 1 "100k" V 9857 9351 40  0000 C CNN
F 2 "MyKiCadLibs-Footprints:SMD-1206" V 9780 9350 30  0001 C CNN
F 3 "" V 9770 9350 30  0000 C CNN
F 4 "250mW" V 9950 9350 40  0001 C CNN "Power"
F 5 "MELF0204 1% =>250mW or 1206 1% =>250mW" V 10095 9350 40  0001 C CNN "Description"
F 6 "1206" V 10025 9350 40  0001 C CNN "Size"
F 7 "1%" V 10175 9350 40  0001 C CNN "Tolerance"
	1    9850 9350
	0    1    -1   0   
$EndComp
$Comp
L R R596
U 1 1 57113906
P 9850 9850
F 0 "R596" V 9770 9850 40  0000 C CNN
F 1 "100k" V 9857 9851 40  0000 C CNN
F 2 "MyKiCadLibs-Footprints:SMD-1206" V 9780 9850 30  0001 C CNN
F 3 "" V 9770 9850 30  0000 C CNN
F 4 "250mW" V 9950 9850 40  0001 C CNN "Power"
F 5 "MELF0204 1% =>250mW or 1206 1% =>250mW" V 10095 9850 40  0001 C CNN "Description"
F 6 "1206" V 10025 9850 40  0001 C CNN "Size"
F 7 "1%" V 10175 9850 40  0001 C CNN "Tolerance"
	1    9850 9850
	0    1    1    0   
$EndComp
$Comp
L C C516
U 1 1 57113911
P 9400 9500
F 0 "C516" H 9400 9600 40  0000 L CNN
F 1 "2n7" H 9410 9415 40  0000 L CNN
F 2 "MyKiCadLibs-Footprints:SMD-0805" H 9438 9350 30  0001 C CNN
F 3 "" H 9400 9600 60  0000 C CNN
F 4 "50V" H 9415 9345 40  0000 L CNN "Voltage"
F 5 "C0G" H 9415 9275 40  0000 L CNN "Type"
F 6 "Ceramic capacitor" H 9400 9800 40  0001 L CNN "Description"
F 7 "5%" H 9470 9135 40  0001 C CNN "Tolerance"
F 8 "0805" H 9410 9205 40  0001 L CNN "Size"
	1    9400 9500
	-1   0    0    1   
$EndComp
$EndSCHEMATC
