EESchema Schematic File Version 2
LIBS:power
LIBS:MyKiCadLibs-Lib
LIBS:DACOne-cache
EELAYER 25 0
EELAYER END
$Descr A4 11693 8268
encoding utf-8
Sheet 3 6
Title "DACOne - ADAU1966 with Passive Output Filters"
Date "2018-04-30"
Rev "3.0"
Comp "Open Hardware DSP Platform - www.ohdsp.org"
Comment1 "MERCHANTABILITY, SATISFACTORY QUALITY AND FITNESS FOR A PARTICULAR PURPOSE."
Comment2 "is distributed WITHOUT ANY EXPRESS OR IMPLIED WARRANTY, INCLUDING OF "
Comment3 "Licensed under the TAPR Open Hardware License (www.tapr.org/OHL). This documentation"
Comment4 "Copyright Paul Janicki 2018"
$EndDescr
$Comp
L GNDA #PWR302
U 1 1 562E6E50
P 5150 2600
F 0 "#PWR302" H 5150 2350 50  0001 C CNN
F 1 "GNDA" H 5150 2450 50  0000 C CNN
F 2 "" H 5150 2600 60  0000 C CNN
F 3 "" H 5150 2600 60  0000 C CNN
	1    5150 2600
	1    0    0    -1  
$EndComp
$Comp
L GNDD #PWR303
U 1 1 562E6E68
P 5400 2600
F 0 "#PWR303" H 5400 2350 50  0001 C CNN
F 1 "GNDD" H 5400 2450 50  0000 C CNN
F 2 "" H 5400 2600 60  0000 C CNN
F 3 "" H 5400 2600 60  0000 C CNN
	1    5400 2600
	1    0    0    -1  
$EndComp
$Comp
L PWR_FLAG #FLG301
U 1 1 562E6E80
P 5400 1150
F 0 "#FLG301" H 5400 1245 50  0001 C CNN
F 1 "PWR_FLAG" H 5400 1330 50  0000 C CNN
F 2 "" H 5400 1150 60  0000 C CNN
F 3 "" H 5400 1150 60  0000 C CNN
	1    5400 1150
	1    0    0    -1  
$EndComp
$Comp
L PWR_FLAG #FLG303
U 1 1 562E6EA9
P 5775 2600
F 0 "#FLG303" H 5775 2695 50  0001 C CNN
F 1 "PWR_FLAG" H 5775 2780 50  0000 C CNN
F 2 "" H 5775 2600 60  0000 C CNN
F 3 "" H 5775 2600 60  0000 C CNN
	1    5775 2600
	-1   0    0    1   
$EndComp
$Comp
L GNDD #PWR308
U 1 1 562EAB2F
P 3650 4600
F 0 "#PWR308" H 3650 4350 50  0001 C CNN
F 1 "GNDD" H 3650 4450 50  0000 C CNN
F 2 "" H 3650 4600 60  0000 C CNN
F 3 "" H 3650 4600 60  0000 C CNN
	1    3650 4600
	1    0    0    -1  
$EndComp
$Comp
L GNDD #PWR312
U 1 1 562F243C
P 3650 6400
F 0 "#PWR312" H 3650 6150 50  0001 C CNN
F 1 "GNDD" H 3650 6250 50  0000 C CNN
F 2 "" H 3650 6400 60  0000 C CNN
F 3 "" H 3650 6400 60  0000 C CNN
	1    3650 6400
	1    0    0    -1  
$EndComp
$Comp
L GNDD #PWR306
U 1 1 56347330
P 1400 4400
F 0 "#PWR306" H 1400 4150 50  0001 C CNN
F 1 "GNDD" H 1400 4250 50  0000 C CNN
F 2 "" H 1400 4400 60  0000 C CNN
F 3 "" H 1400 4400 60  0000 C CNN
	1    1400 4400
	1    0    0    -1  
$EndComp
$Comp
L GNDD #PWR310
U 1 1 5632B5BB
P 2700 5050
F 0 "#PWR310" H 2700 4800 50  0001 C CNN
F 1 "GNDD" H 2700 4900 50  0000 C CNN
F 2 "" H 2700 5050 60  0000 C CNN
F 3 "" H 2700 5050 60  0000 C CNN
	1    2700 5050
	1    0    0    -1  
$EndComp
$Comp
L GNDD #PWR307
U 1 1 56858FEE
P 3050 4500
F 0 "#PWR307" H 3050 4250 50  0001 C CNN
F 1 "GNDD" H 3050 4350 50  0000 C CNN
F 2 "" H 3050 4500 60  0000 C CNN
F 3 "" H 3050 4500 60  0000 C CNN
	1    3050 4500
	1    0    0    -1  
$EndComp
Text Notes 650  6950 0    60   ~ 0
Mounting Holes
$Comp
L PWR_FLAG #FLG302
U 1 1 568FF282
P 8350 1150
F 0 "#FLG302" H 8350 1245 50  0001 C CNN
F 1 "PWR_FLAG" H 8350 1330 50  0000 C CNN
F 2 "" H 8350 1150 60  0000 C CNN
F 3 "" H 8350 1150 60  0000 C CNN
	1    8350 1150
	1    0    0    -1  
$EndComp
$Comp
L PWR_FLAG #FLG304
U 1 1 568FF837
P 7100 3700
F 0 "#FLG304" H 7100 3795 50  0001 C CNN
F 1 "PWR_FLAG" H 7100 3880 50  0000 C CNN
F 2 "" H 7100 3700 60  0000 C CNN
F 3 "" H 7100 3700 60  0000 C CNN
	1    7100 3700
	1    0    0    -1  
$EndComp
$Comp
L PWR_FLAG #FLG305
U 1 1 568FFCDD
P 6700 5500
F 0 "#FLG305" H 6700 5595 50  0001 C CNN
F 1 "PWR_FLAG" H 6700 5680 50  0000 C CNN
F 2 "" H 6700 5500 60  0000 C CNN
F 3 "" H 6700 5500 60  0000 C CNN
	1    6700 5500
	1    0    0    -1  
$EndComp
$Comp
L GNDD #PWR309
U 1 1 569657F9
P 9150 4850
F 0 "#PWR309" H 9150 4600 50  0001 C CNN
F 1 "GNDD" H 9150 4700 50  0000 C CNN
F 2 "" H 9150 4850 60  0000 C CNN
F 3 "" H 9150 4850 60  0000 C CNN
	1    9150 4850
	1    0    0    -1  
$EndComp
Text Notes 900  925  0    118  ~ 0
Analogue PSU
Text Notes 900  3000 0    118  ~ 0
Digital PSU
Text Notes 900  1050 0    60   ~ 0
9V input, this generates 5V for the DAC analogue supply
Text Notes 900  3300 0    60   ~ 0
5V input, this generates 3V3 and 2V5 for DAC digital supplies\nMaximum 5.5V input\nThese rails will only start once the 9V supply is powered
Text Notes 5350 1950 0    60   ~ 0
5V Supply
Text Notes 6400 4000 0    60   ~ 0
3V3 Supply
Text Notes 6400 5800 0    60   ~ 0
2V5 Supply
Text Notes 3550 5250 0    60   ~ 0
Delay 2V5 to start \nafter 3V3 (RC=1s)
$Comp
L MNT_HOLE MNT301
U 1 1 56D798C8
P 750 7150
F 0 "MNT301" H 750 7250 60  0000 C CNN
F 1 "MNT_HOLE" H 750 7250 60  0001 C CNN
F 2 "MyKiCadLibs-Footprints:MNT_HOLE_3.2mm" H 750 7250 60  0001 C CNN
F 3 "" H 750 7250 60  0000 C CNN
	1    750  7150
	1    0    0    -1  
$EndComp
$Comp
L MNT_HOLE MNT302
U 1 1 56D79AC2
P 750 7400
F 0 "MNT302" H 750 7500 60  0000 C CNN
F 1 "MNT_HOLE" H 750 7500 60  0001 C CNN
F 2 "MyKiCadLibs-Footprints:MNT_HOLE_3.2mm" H 750 7500 60  0001 C CNN
F 3 "" H 750 7500 60  0000 C CNN
	1    750  7400
	1    0    0    -1  
$EndComp
$Comp
L MNT_HOLE MNT303
U 1 1 56D79C5C
P 1150 7150
F 0 "MNT303" H 1150 7250 60  0000 C CNN
F 1 "MNT_HOLE" H 1150 7250 60  0001 C CNN
F 2 "MyKiCadLibs-Footprints:MNT_HOLE_3.2mm" H 1150 7250 60  0001 C CNN
F 3 "" H 1150 7250 60  0000 C CNN
	1    1150 7150
	1    0    0    -1  
$EndComp
$Comp
L MNT_HOLE MNT304
U 1 1 56D79C62
P 1150 7400
F 0 "MNT304" H 1150 7500 60  0000 C CNN
F 1 "MNT_HOLE" H 1150 7500 60  0001 C CNN
F 2 "MyKiCadLibs-Footprints:MNT_HOLE_3.2mm" H 1150 7500 60  0001 C CNN
F 3 "" H 1150 7500 60  0000 C CNN
	1    1150 7400
	1    0    0    -1  
$EndComp
$Comp
L MNT_HOLE FID1
U 1 1 56EADDED
P 1850 7150
F 0 "FID1" H 1850 7250 60  0000 C CNN
F 1 "MNT_HOLE" H 1850 7250 60  0001 C CNN
F 2 "MyKiCadLibs-Footprints:FID-1MM-3MM" H 1850 7250 60  0001 C CNN
F 3 "" H 1850 7250 60  0000 C CNN
F 4 "Fiducial" H 1850 7150 60  0001 C CNN "Description"
	1    1850 7150
	1    0    0    -1  
$EndComp
$Comp
L IC-REG-POS-TLV700 U302
U 1 1 56EB1356
P 5100 5600
F 0 "U302" H 5350 5850 60  0000 C CNN
F 1 "TLV70025DDC" H 5600 5750 60  0000 C CNN
F 2 "MyKiCadLibs-Footprints:IC-SOT23-5" H 5100 5600 60  0001 C CNN
F 3 "" H 5100 5600 60  0000 C CNN
F 4 "TLV700 200-mA, Low-IQ, Low-Dropout Regulator for Portable Devices - Fixed 2V5" H 5100 5600 60  0001 C CNN "Description"
	1    5100 5600
	1    0    0    -1  
$EndComp
$Comp
L CONN_2x1 P303
U 1 1 570DF4CA
P 1300 2200
F 0 "P303" V 1795 2045 40  0000 C CNN
F 1 "CONN_2x1" V 1740 2160 40  0000 C CNN
F 2 "MyKiCadLibs-Footprints:CONN-2WAY-2.54mm-3.81mm-SPACING" H 1640 2090 60  0001 C CNN
F 3 "" H 1640 2090 60  0000 C CNN
F 4 "2 way screw terminal, 2.54mm to 3.81mm pitch" H 1550 1950 40  0001 C CNN "Description"
	1    1300 2200
	-1   0    0    -1  
$EndComp
$Comp
L CONN_2x1 P304
U 1 1 570DF982
P 1350 4250
F 0 "P304" V 1845 4095 40  0000 C CNN
F 1 "CONN_2x1" V 1790 4210 40  0000 C CNN
F 2 "MyKiCadLibs-Footprints:CONN-2WAY-2.54mm-3.81mm-SPACING" H 1690 4140 60  0001 C CNN
F 3 "" H 1690 4140 60  0000 C CNN
F 4 "2 way screw terminal, 2.54mm to 3.81mm pitch" H 1600 4000 40  0001 C CNN "Description"
	1    1350 4250
	-1   0    0    -1  
$EndComp
$Comp
L CP1 C301
U 1 1 5712FBF2
P 2100 1850
F 0 "C301" H 2150 1950 50  0000 L CNN
F 1 "220u" H 2150 1750 50  0000 L CNN
F 2 "MyKiCadLibs-Footprints:CAP-TH-D8mmP3.5mm" H 2100 1850 60  0001 C CNN
F 3 "" H 2100 1850 60  0000 C CNN
F 4 "25V" H 2225 1670 50  0000 C CNN "Voltage"
F 5 "3.5mm Pitch, 8mm Diameter" H 2100 1850 60  0001 C CNN "Size"
F 6 "Aluminium electrolytic low impedance capacitor - eg Panasonic FC or FR parts" H 2100 1850 60  0001 C CNN "Description"
	1    2100 1850
	1    0    0    -1  
$EndComp
$Comp
L C C302
U 1 1 5712FC0E
P 2450 1850
F 0 "C302" H 2450 1950 40  0000 L CNN
F 1 "22u" H 2460 1765 40  0000 L CNN
F 2 "MyKiCadLibs-Footprints:SMD-0805" H 2488 1700 30  0001 C CNN
F 3 "" H 2450 1950 60  0000 C CNN
F 4 "25V" H 2465 1695 40  0000 L CNN "Voltage"
F 5 "X5R" H 2465 1625 40  0000 L CNN "Type"
F 6 "Ceramic capacitor" H 2450 2150 40  0001 L CNN "Description"
F 7 "20%" H 2520 1485 40  0001 C CNN "Tolerance"
F 8 "0805" H 2460 1555 40  0001 L CNN "Size"
	1    2450 1850
	1    0    0    -1  
$EndComp
$Comp
L C C303
U 1 1 5712FC1A
P 2700 1850
F 0 "C303" H 2700 1950 40  0000 L CNN
F 1 "100n" H 2710 1765 40  0000 L CNN
F 2 "MyKiCadLibs-Footprints:SMD-0805" H 2738 1700 30  0001 C CNN
F 3 "" H 2700 1950 60  0000 C CNN
F 4 "50V" H 2715 1695 40  0000 L CNN "Voltage"
F 5 "X7R" H 2715 1625 40  0000 L CNN "Type"
F 6 "Ceramic capacitor" H 2700 2150 40  0001 L CNN "Description"
F 7 "10%" H 2770 1485 40  0001 C CNN "Tolerance"
F 8 "0805" H 2710 1555 40  0001 L CNN "Size"
	1    2700 1850
	1    0    0    -1  
$EndComp
$Comp
L C C305
U 1 1 5712FC26
P 2950 1850
F 0 "C305" H 2950 1950 40  0000 L CNN
F 1 "10n" H 2960 1765 40  0000 L CNN
F 2 "MyKiCadLibs-Footprints:SMD-0805" H 2988 1700 30  0001 C CNN
F 3 "" H 2950 1950 60  0000 C CNN
F 4 "50V" H 2965 1695 40  0000 L CNN "Voltage"
F 5 "X7R" H 2965 1625 40  0000 L CNN "Type"
F 6 "Ceramic capacitor" H 2950 2150 40  0001 L CNN "Description"
F 7 "10%" H 3020 1485 40  0001 C CNN "Tolerance"
F 8 "0805" H 2960 1555 40  0001 L CNN "Size"
	1    2950 1850
	1    0    0    -1  
$EndComp
$Comp
L INDUCTOR L302
U 1 1 5712FDC8
P 3350 1250
F 0 "L302" V 3300 1250 40  0000 C CNN
F 1 "600R@100MHz" V 3450 1250 40  0000 C CNN
F 2 "MyKiCadLibs-Footprints:SMD-0805" H 3350 1250 60  0001 C CNN
F 3 "" H 3350 1250 60  0000 C CNN
F 4 "=>0.3A" V 3500 1250 40  0000 C CNN "Current"
F 5 "Ferrite bead, current rating 0.3A or higher, 600R@100MHz" V 3550 1300 40  0001 C CNN "Description"
F 6 "0805" V 3605 1250 40  0001 C CNN "Size"
	1    3350 1250
	0    -1   -1   0   
$EndComp
$Comp
L CP1 C312
U 1 1 57130F60
P 4050 1850
F 0 "C312" H 4100 1950 50  0000 L CNN
F 1 "220u" H 4100 1750 50  0000 L CNN
F 2 "MyKiCadLibs-Footprints:CAP-TH-D8mmP3.5mm" H 4050 1850 60  0001 C CNN
F 3 "" H 4050 1850 60  0000 C CNN
F 4 "25V" H 4175 1670 50  0000 C CNN "Voltage"
F 5 "3.5mm Pitch, 8mm Diameter" H 4050 1850 60  0001 C CNN "Size"
F 6 "Aluminium electrolytic low impedance capacitor - eg Panasonic FC or FR parts" H 4050 1850 60  0001 C CNN "Description"
	1    4050 1850
	1    0    0    -1  
$EndComp
$Comp
L C C315
U 1 1 57130F6B
P 4350 1850
F 0 "C315" H 4350 1950 40  0000 L CNN
F 1 "22u" H 4360 1765 40  0000 L CNN
F 2 "MyKiCadLibs-Footprints:SMD-0805" H 4388 1700 30  0001 C CNN
F 3 "" H 4350 1950 60  0000 C CNN
F 4 "25V" H 4365 1695 40  0000 L CNN "Voltage"
F 5 "X5R" H 4365 1625 40  0000 L CNN "Type"
F 6 "Ceramic capacitor" H 4350 2150 40  0001 L CNN "Description"
F 7 "20%" H 4420 1485 40  0001 C CNN "Tolerance"
F 8 "0805" H 4360 1555 40  0001 L CNN "Size"
	1    4350 1850
	1    0    0    -1  
$EndComp
$Comp
L C C316
U 1 1 57130F76
P 4600 1850
F 0 "C316" H 4600 1950 40  0000 L CNN
F 1 "100n" H 4610 1765 40  0000 L CNN
F 2 "MyKiCadLibs-Footprints:SMD-0805" H 4638 1700 30  0001 C CNN
F 3 "" H 4600 1950 60  0000 C CNN
F 4 "50V" H 4615 1695 40  0000 L CNN "Voltage"
F 5 "X7R" H 4615 1625 40  0000 L CNN "Type"
F 6 "Ceramic capacitor" H 4600 2150 40  0001 L CNN "Description"
F 7 "10%" H 4670 1485 40  0001 C CNN "Tolerance"
F 8 "0805" H 4610 1555 40  0001 L CNN "Size"
	1    4600 1850
	1    0    0    -1  
$EndComp
$Comp
L C C318
U 1 1 57130F81
P 4850 1850
F 0 "C318" H 4850 1950 40  0000 L CNN
F 1 "10n" H 4860 1765 40  0000 L CNN
F 2 "MyKiCadLibs-Footprints:SMD-0805" H 4888 1700 30  0001 C CNN
F 3 "" H 4850 1950 60  0000 C CNN
F 4 "50V" H 4865 1695 40  0000 L CNN "Voltage"
F 5 "X7R" H 4865 1625 40  0000 L CNN "Type"
F 6 "Ceramic capacitor" H 4850 2150 40  0001 L CNN "Description"
F 7 "10%" H 4920 1485 40  0001 C CNN "Tolerance"
F 8 "0805" H 4860 1555 40  0001 L CNN "Size"
	1    4850 1850
	1    0    0    -1  
$EndComp
$Comp
L C C309
U 1 1 571322CF
P 3700 1600
F 0 "C309" H 3700 1700 40  0000 L CNN
F 1 "100p" H 3710 1515 40  0000 L CNN
F 2 "MyKiCadLibs-Footprints:SMD-0805" H 3738 1450 30  0001 C CNN
F 3 "" H 3700 1700 60  0000 C CNN
F 4 "50V" H 3715 1445 40  0000 L CNN "Voltage"
F 5 "C0G" H 3715 1375 40  0000 L CNN "Type"
F 6 "Ceramic capacitor" H 3700 1900 40  0001 L CNN "Description"
F 7 "5%" H 3770 1235 40  0001 C CNN "Tolerance"
F 8 "0805" H 3710 1305 40  0001 L CNN "Size"
	1    3700 1600
	1    0    0    -1  
$EndComp
$Comp
L R R302
U 1 1 571322DA
P 3700 2150
F 0 "R302" V 3620 2150 40  0000 C CNN
F 1 "47" V 3707 2151 40  0000 C CNN
F 2 "MyKiCadLibs-Footprints:SMD-0805" V 3630 2150 30  0001 C CNN
F 3 "" V 3620 2150 30  0000 C CNN
F 4 "100mW" V 3800 2150 40  0001 C CNN "Power"
F 5 "Thick or thin film resistor" V 3945 2150 40  0001 C CNN "Description"
F 6 "0805" V 3875 2150 40  0001 C CNN "Size"
F 7 "1%" V 4025 2150 40  0001 C CNN "Tolerance"
	1    3700 2150
	1    0    0    -1  
$EndComp
$Comp
L C C328
U 1 1 571334A5
P 8500 1800
F 0 "C328" H 8500 1900 40  0000 L CNN
F 1 "100n" H 8510 1715 40  0000 L CNN
F 2 "MyKiCadLibs-Footprints:SMD-0805" H 8538 1650 30  0001 C CNN
F 3 "" H 8500 1900 60  0000 C CNN
F 4 "50V" H 8515 1645 40  0000 L CNN "Voltage"
F 5 "X7R" H 8515 1575 40  0000 L CNN "Type"
F 6 "Ceramic capacitor" H 8500 2100 40  0001 L CNN "Description"
F 7 "10%" H 8570 1435 40  0001 C CNN "Tolerance"
F 8 "0805" H 8510 1505 40  0001 L CNN "Size"
	1    8500 1800
	1    0    0    -1  
$EndComp
$Comp
L C C329
U 1 1 571334B1
P 8750 1800
F 0 "C329" H 8750 1900 40  0000 L CNN
F 1 "10n" H 8760 1715 40  0000 L CNN
F 2 "MyKiCadLibs-Footprints:SMD-0805" H 8788 1650 30  0001 C CNN
F 3 "" H 8750 1900 60  0000 C CNN
F 4 "50V" H 8765 1645 40  0000 L CNN "Voltage"
F 5 "X7R" H 8765 1575 40  0000 L CNN "Type"
F 6 "Ceramic capacitor" H 8750 2100 40  0001 L CNN "Description"
F 7 "10%" H 8820 1435 40  0001 C CNN "Tolerance"
F 8 "0805" H 8760 1505 40  0001 L CNN "Size"
	1    8750 1800
	1    0    0    -1  
$EndComp
$Comp
L CP1 C325
U 1 1 571334BB
P 7950 1800
F 0 "C325" H 8000 1900 50  0000 L CNN
F 1 "220u" H 8000 1700 50  0000 L CNN
F 2 "MyKiCadLibs-Footprints:CAP-TH-D6.3mmP2.5mm" H 7950 1800 60  0001 C CNN
F 3 "" H 7950 1800 60  0000 C CNN
F 4 "10V" H 8075 1620 50  0000 C CNN "Voltage"
F 5 "2.5mm Pitch, 6.3mm Diameter" H 7950 1800 60  0001 C CNN "Size"
F 6 "Aluminium electrolytic low impedance capacitor - eg Panasonic FC or FR parts" H 7950 1800 60  0001 C CNN "Description"
	1    7950 1800
	1    0    0    -1  
$EndComp
$Comp
L LED D309
U 1 1 571348D2
P 9150 4600
F 0 "D309" H 9150 4700 50  0000 C CNN
F 1 "Green LED 1206" H 9150 4450 50  0000 C CNN
F 2 "MyKiCadLibs-Footprints:SMD-1206" H 9150 4600 60  0001 C CNN
F 3 "" H 9150 4600 60  0000 C CNN
F 4 "Green LED - SMD - Vf 1.8V to 2.2V" H 9150 4600 60  0001 C CNN "Description"
F 5 "1206" H 9150 4600 60  0001 C CNN "Size"
	1    9150 4600
	0    -1   1    0   
$EndComp
$Comp
L CP1 C306
U 1 1 57136948
P 3050 4200
F 0 "C306" H 3100 4300 50  0000 L CNN
F 1 "220u" H 3100 4100 50  0000 L CNN
F 2 "MyKiCadLibs-Footprints:CAP-TH-D8mmP3.5mm" H 3050 4200 60  0001 C CNN
F 3 "" H 3050 4200 60  0000 C CNN
F 4 "25V" H 3175 4020 50  0000 C CNN "Voltage"
F 5 "3.5mm Pitch, 8mm Diameter" H 3050 4200 60  0001 C CNN "Size"
F 6 "Aluminium electrolytic low impedance capacitor - eg Panasonic FC or FR parts" H 3050 4200 60  0001 C CNN "Description"
	1    3050 4200
	1    0    0    -1  
$EndComp
$Comp
L C C304
U 1 1 57136CA2
P 2700 4200
F 0 "C304" H 2700 4300 40  0000 L CNN
F 1 "100p" H 2710 4115 40  0000 L CNN
F 2 "MyKiCadLibs-Footprints:SMD-0805" H 2738 4050 30  0001 C CNN
F 3 "" H 2700 4300 60  0000 C CNN
F 4 "50V" H 2715 4045 40  0000 L CNN "Voltage"
F 5 "C0G" H 2715 3975 40  0000 L CNN "Type"
F 6 "Ceramic capacitor" H 2700 4500 40  0001 L CNN "Description"
F 7 "5%" H 2770 3835 40  0001 C CNN "Tolerance"
F 8 "0805" H 2710 3905 40  0001 L CNN "Size"
	1    2700 4200
	1    0    0    -1  
$EndComp
$Comp
L R R301
U 1 1 57136CAC
P 2700 4750
F 0 "R301" V 2620 4750 40  0000 C CNN
F 1 "47" V 2707 4751 40  0000 C CNN
F 2 "MyKiCadLibs-Footprints:SMD-0805" V 2630 4750 30  0001 C CNN
F 3 "" V 2620 4750 30  0000 C CNN
F 4 "100mW" V 2800 4750 40  0001 C CNN "Power"
F 5 "Thick or thin film resistor" V 2945 4750 40  0001 C CNN "Description"
F 6 "0805" V 2875 4750 40  0001 C CNN "Size"
F 7 "1%" V 3025 4750 40  0001 C CNN "Tolerance"
	1    2700 4750
	1    0    0    -1  
$EndComp
$Comp
L INDUCTOR L301
U 1 1 57137BD6
P 2350 3800
F 0 "L301" V 2300 3800 40  0000 C CNN
F 1 "600R@100MHz" V 2450 3800 40  0000 C CNN
F 2 "MyKiCadLibs-Footprints:SMD-0805" H 2350 3800 60  0001 C CNN
F 3 "" H 2350 3800 60  0000 C CNN
F 4 "=>0.3A" V 2500 3800 40  0000 C CNN "Current"
F 5 "Ferrite bead, current rating 0.3A or higher, 600R@100MHz" V 2550 3850 40  0001 C CNN "Description"
F 6 "0805" V 2605 3800 40  0001 C CNN "Size"
	1    2350 3800
	0    -1   -1   0   
$EndComp
$Comp
L C C307
U 1 1 57138710
P 3650 4200
F 0 "C307" H 3650 4300 40  0000 L CNN
F 1 "22u" H 3660 4115 40  0000 L CNN
F 2 "MyKiCadLibs-Footprints:SMD-0805" H 3688 4050 30  0001 C CNN
F 3 "" H 3650 4300 60  0000 C CNN
F 4 "25V" H 3665 4045 40  0000 L CNN "Voltage"
F 5 "X5R" H 3665 3975 40  0000 L CNN "Type"
F 6 "Ceramic capacitor" H 3650 4500 40  0001 L CNN "Description"
F 7 "20%" H 3720 3835 40  0001 C CNN "Tolerance"
F 8 "0805" H 3660 3905 40  0001 L CNN "Size"
	1    3650 4200
	1    0    0    -1  
$EndComp
$Comp
L C C310
U 1 1 5713871B
P 3900 4200
F 0 "C310" H 3900 4300 40  0000 L CNN
F 1 "100n" H 3910 4115 40  0000 L CNN
F 2 "MyKiCadLibs-Footprints:SMD-0805" H 3938 4050 30  0001 C CNN
F 3 "" H 3900 4300 60  0000 C CNN
F 4 "50V" H 3915 4045 40  0000 L CNN "Voltage"
F 5 "X7R" H 3915 3975 40  0000 L CNN "Type"
F 6 "Ceramic capacitor" H 3900 4500 40  0001 L CNN "Description"
F 7 "10%" H 3970 3835 40  0001 C CNN "Tolerance"
F 8 "0805" H 3910 3905 40  0001 L CNN "Size"
	1    3900 4200
	1    0    0    -1  
$EndComp
$Comp
L C C313
U 1 1 57138726
P 4150 4200
F 0 "C313" H 4150 4300 40  0000 L CNN
F 1 "10n" H 4160 4115 40  0000 L CNN
F 2 "MyKiCadLibs-Footprints:SMD-0805" H 4188 4050 30  0001 C CNN
F 3 "" H 4150 4300 60  0000 C CNN
F 4 "50V" H 4165 4045 40  0000 L CNN "Voltage"
F 5 "X7R" H 4165 3975 40  0000 L CNN "Type"
F 6 "Ceramic capacitor" H 4150 4500 40  0001 L CNN "Description"
F 7 "10%" H 4220 3835 40  0001 C CNN "Tolerance"
F 8 "0805" H 4160 3905 40  0001 L CNN "Size"
	1    4150 4200
	1    0    0    -1  
$EndComp
$Comp
L C C308
U 1 1 571390B5
P 3650 6000
F 0 "C308" H 3650 6100 40  0000 L CNN
F 1 "22u" H 3660 5915 40  0000 L CNN
F 2 "MyKiCadLibs-Footprints:SMD-0805" H 3688 5850 30  0001 C CNN
F 3 "" H 3650 6100 60  0000 C CNN
F 4 "25V" H 3665 5845 40  0000 L CNN "Voltage"
F 5 "X5R" H 3665 5775 40  0000 L CNN "Type"
F 6 "Ceramic capacitor" H 3650 6300 40  0001 L CNN "Description"
F 7 "20%" H 3720 5635 40  0001 C CNN "Tolerance"
F 8 "0805" H 3660 5705 40  0001 L CNN "Size"
	1    3650 6000
	1    0    0    -1  
$EndComp
$Comp
L C C311
U 1 1 571390C0
P 3900 6000
F 0 "C311" H 3900 6100 40  0000 L CNN
F 1 "100n" H 3910 5915 40  0000 L CNN
F 2 "MyKiCadLibs-Footprints:SMD-0805" H 3938 5850 30  0001 C CNN
F 3 "" H 3900 6100 60  0000 C CNN
F 4 "50V" H 3915 5845 40  0000 L CNN "Voltage"
F 5 "X7R" H 3915 5775 40  0000 L CNN "Type"
F 6 "Ceramic capacitor" H 3900 6300 40  0001 L CNN "Description"
F 7 "10%" H 3970 5635 40  0001 C CNN "Tolerance"
F 8 "0805" H 3910 5705 40  0001 L CNN "Size"
	1    3900 6000
	1    0    0    -1  
$EndComp
$Comp
L C C314
U 1 1 571390CB
P 4150 6000
F 0 "C314" H 4150 6100 40  0000 L CNN
F 1 "10n" H 4160 5915 40  0000 L CNN
F 2 "MyKiCadLibs-Footprints:SMD-0805" H 4188 5850 30  0001 C CNN
F 3 "" H 4150 6100 60  0000 C CNN
F 4 "50V" H 4165 5845 40  0000 L CNN "Voltage"
F 5 "X7R" H 4165 5775 40  0000 L CNN "Type"
F 6 "Ceramic capacitor" H 4150 6300 40  0001 L CNN "Description"
F 7 "10%" H 4220 5635 40  0001 C CNN "Tolerance"
F 8 "0805" H 4160 5705 40  0001 L CNN "Size"
	1    4150 6000
	1    0    0    -1  
$EndComp
$Comp
L C C320
U 1 1 5713A381
P 7000 4200
F 0 "C320" H 7000 4300 40  0000 L CNN
F 1 "22u" H 7010 4115 40  0000 L CNN
F 2 "MyKiCadLibs-Footprints:SMD-0805" H 7038 4050 30  0001 C CNN
F 3 "" H 7000 4300 60  0000 C CNN
F 4 "10V" H 7015 4045 40  0000 L CNN "Voltage"
F 5 "X5R" H 7015 3975 40  0000 L CNN "Type"
F 6 "Ceramic capacitor" H 7000 4500 40  0001 L CNN "Description"
F 7 "20%" H 7070 3835 40  0001 C CNN "Tolerance"
F 8 "0805" H 7010 3905 40  0001 L CNN "Size"
	1    7000 4200
	1    0    0    -1  
$EndComp
$Comp
L C C321
U 1 1 5713A38C
P 7250 4200
F 0 "C321" H 7250 4300 40  0000 L CNN
F 1 "100n" H 7260 4115 40  0000 L CNN
F 2 "MyKiCadLibs-Footprints:SMD-0805" H 7288 4050 30  0001 C CNN
F 3 "" H 7250 4300 60  0000 C CNN
F 4 "50V" H 7265 4045 40  0000 L CNN "Voltage"
F 5 "X7R" H 7265 3975 40  0000 L CNN "Type"
F 6 "Ceramic capacitor" H 7250 4500 40  0001 L CNN "Description"
F 7 "10%" H 7320 3835 40  0001 C CNN "Tolerance"
F 8 "0805" H 7260 3905 40  0001 L CNN "Size"
	1    7250 4200
	1    0    0    -1  
$EndComp
$Comp
L C C322
U 1 1 5713A397
P 7500 4200
F 0 "C322" H 7500 4300 40  0000 L CNN
F 1 "10n" H 7510 4115 40  0000 L CNN
F 2 "MyKiCadLibs-Footprints:SMD-0805" H 7538 4050 30  0001 C CNN
F 3 "" H 7500 4300 60  0000 C CNN
F 4 "50V" H 7515 4045 40  0000 L CNN "Voltage"
F 5 "X7R" H 7515 3975 40  0000 L CNN "Type"
F 6 "Ceramic capacitor" H 7500 4500 40  0001 L CNN "Description"
F 7 "10%" H 7570 3835 40  0001 C CNN "Tolerance"
F 8 "0805" H 7510 3905 40  0001 L CNN "Size"
	1    7500 4200
	1    0    0    -1  
$EndComp
$Comp
L C C323
U 1 1 5713AD08
P 7000 6000
F 0 "C323" H 7000 6100 40  0000 L CNN
F 1 "22u" H 7010 5915 40  0000 L CNN
F 2 "MyKiCadLibs-Footprints:SMD-0805" H 7038 5850 30  0001 C CNN
F 3 "" H 7000 6100 60  0000 C CNN
F 4 "10V" H 7015 5845 40  0000 L CNN "Voltage"
F 5 "X5R" H 7015 5775 40  0000 L CNN "Type"
F 6 "Ceramic capacitor" H 7000 6300 40  0001 L CNN "Description"
F 7 "20%" H 7070 5635 40  0001 C CNN "Tolerance"
F 8 "0805" H 7010 5705 40  0001 L CNN "Size"
	1    7000 6000
	1    0    0    -1  
$EndComp
$Comp
L C C324
U 1 1 5713AD13
P 7250 6000
F 0 "C324" H 7250 6100 40  0000 L CNN
F 1 "100n" H 7260 5915 40  0000 L CNN
F 2 "MyKiCadLibs-Footprints:SMD-0805" H 7288 5850 30  0001 C CNN
F 3 "" H 7250 6100 60  0000 C CNN
F 4 "50V" H 7265 5845 40  0000 L CNN "Voltage"
F 5 "X7R" H 7265 5775 40  0000 L CNN "Type"
F 6 "Ceramic capacitor" H 7250 6300 40  0001 L CNN "Description"
F 7 "10%" H 7320 5635 40  0001 C CNN "Tolerance"
F 8 "0805" H 7260 5705 40  0001 L CNN "Size"
	1    7250 6000
	1    0    0    -1  
$EndComp
$Comp
L C C326
U 1 1 5713AD1E
P 7500 6000
F 0 "C326" H 7500 6100 40  0000 L CNN
F 1 "10n" H 7510 5915 40  0000 L CNN
F 2 "MyKiCadLibs-Footprints:SMD-0805" H 7538 5850 30  0001 C CNN
F 3 "" H 7500 6100 60  0000 C CNN
F 4 "50V" H 7515 5845 40  0000 L CNN "Voltage"
F 5 "X7R" H 7515 5775 40  0000 L CNN "Type"
F 6 "Ceramic capacitor" H 7500 6300 40  0001 L CNN "Description"
F 7 "10%" H 7570 5635 40  0001 C CNN "Tolerance"
F 8 "0805" H 7510 5705 40  0001 L CNN "Size"
	1    7500 6000
	1    0    0    -1  
$EndComp
$Comp
L C C317
U 1 1 5713C099
P 4500 6050
F 0 "C317" H 4500 6150 40  0000 L CNN
F 1 "22u" H 4510 5965 40  0000 L CNN
F 2 "MyKiCadLibs-Footprints:SMD-0805" H 4538 5900 30  0001 C CNN
F 3 "" H 4500 6150 60  0000 C CNN
F 4 "10V" H 4515 5895 40  0000 L CNN "Voltage"
F 5 "X5R" H 4515 5825 40  0000 L CNN "Type"
F 6 "Ceramic capacitor" H 4500 6350 40  0001 L CNN "Description"
F 7 "20%" H 4570 5685 40  0001 C CNN "Tolerance"
F 8 "0805" H 4510 5755 40  0001 L CNN "Size"
	1    4500 6050
	1    0    0    -1  
$EndComp
$Comp
L R R311
U 1 1 5713D80A
P 7400 1450
F 0 "R311" V 7320 1450 40  0000 C CNN
F 1 "6k8" V 7407 1451 40  0000 C CNN
F 2 "MyKiCadLibs-Footprints:SMD-0805" V 7330 1450 30  0001 C CNN
F 3 "" V 7320 1450 30  0000 C CNN
F 4 "100mW" V 7500 1450 40  0001 C CNN "Power"
F 5 "Thick or thin film resistor" V 7645 1450 40  0001 C CNN "Description"
F 6 "0805" V 7575 1450 40  0001 C CNN "Size"
F 7 "1%" V 7725 1450 40  0001 C CNN "Tolerance"
	1    7400 1450
	0    1    1    0   
$EndComp
$Comp
L R R303
U 1 1 5713EA20
P 4150 5400
F 0 "R303" V 4070 5400 40  0000 C CNN
F 1 "47k" V 4157 5401 40  0000 C CNN
F 2 "MyKiCadLibs-Footprints:SMD-0805" V 4080 5400 30  0001 C CNN
F 3 "" V 4070 5400 30  0000 C CNN
F 4 "100mW" V 4250 5400 40  0001 C CNN "Power"
F 5 "Thick or thin film resistor" V 4395 5400 40  0001 C CNN "Description"
F 6 "0805" V 4325 5400 40  0001 C CNN "Size"
F 7 "1%" V 4475 5400 40  0001 C CNN "Tolerance"
	1    4150 5400
	0    1    -1   0   
$EndComp
$Comp
L R R312
U 1 1 5713FC63
P 9150 4000
F 0 "R312" V 9070 4000 40  0000 C CNN
F 1 "470" V 9157 4001 40  0000 C CNN
F 2 "MyKiCadLibs-Footprints:SMD-0805" V 9080 4000 30  0001 C CNN
F 3 "" V 9070 4000 30  0000 C CNN
F 4 "100mW" V 9250 4000 40  0001 C CNN "Power"
F 5 "Thick or thin film resistor" V 9395 4000 40  0001 C CNN "Description"
F 6 "0805" V 9325 4000 40  0001 C CNN "Size"
F 7 "1%" V 9475 4000 40  0001 C CNN "Tolerance"
	1    9150 4000
	1    0    0    -1  
$EndComp
$Comp
L MNT_HOLE FID2
U 1 1 5718726E
P 2200 7150
F 0 "FID2" H 2200 7250 60  0000 C CNN
F 1 "MNT_HOLE" H 2200 7250 60  0001 C CNN
F 2 "MyKiCadLibs-Footprints:FID-1MM-3MM" H 2200 7250 60  0001 C CNN
F 3 "" H 2200 7250 60  0000 C CNN
F 4 "Fiducial" H 2200 7150 60  0001 C CNN "Description"
	1    2200 7150
	1    0    0    -1  
$EndComp
$Comp
L MNT_HOLE FID3
U 1 1 57187404
P 1850 7400
F 0 "FID3" H 1850 7500 60  0000 C CNN
F 1 "MNT_HOLE" H 1850 7500 60  0001 C CNN
F 2 "MyKiCadLibs-Footprints:FID-1MM-3MM" H 1850 7500 60  0001 C CNN
F 3 "" H 1850 7500 60  0000 C CNN
F 4 "Fiducial" H 1850 7400 60  0001 C CNN "Description"
	1    1850 7400
	1    0    0    -1  
$EndComp
$Comp
L MNT_HOLE FID4
U 1 1 571875A4
P 2200 7400
F 0 "FID4" H 2200 7500 60  0000 C CNN
F 1 "MNT_HOLE" H 2200 7500 60  0001 C CNN
F 2 "MyKiCadLibs-Footprints:FID-1MM-3MM" H 2200 7500 60  0001 C CNN
F 3 "" H 2200 7500 60  0000 C CNN
F 4 "Fiducial" H 2200 7400 60  0001 C CNN "Description"
	1    2200 7400
	1    0    0    -1  
$EndComp
Text Notes 900  750  0    118  ~ 0
Power Supply
$Comp
L R R309
U 1 1 592B3E28
P 7000 2050
F 0 "R309" V 6920 2050 40  0000 C CNN
F 1 "2k2" V 7007 2051 40  0000 C CNN
F 2 "MyKiCadLibs-Footprints:SMD-0805" V 6930 2050 30  0001 C CNN
F 3 "" V 6920 2050 30  0000 C CNN
F 4 "100mW" V 7100 2050 40  0001 C CNN "Power"
F 5 "Thick or thin film resistor" V 7245 2050 40  0001 C CNN "Description"
F 6 "0805" V 7175 2050 40  0001 C CNN "Size"
F 7 "1%" V 7325 2050 40  0001 C CNN "Tolerance"
	1    7000 2050
	1    0    0    -1  
$EndComp
$Comp
L IC-REG-POS-TLV700 U301
U 1 1 592B7139
P 5100 3800
F 0 "U301" H 5350 4050 60  0000 C CNN
F 1 "TLV70033DDC" H 5600 3950 60  0000 C CNN
F 2 "MyKiCadLibs-Footprints:IC-SOT23-5" H 5100 3800 60  0001 C CNN
F 3 "" H 5100 3800 60  0000 C CNN
F 4 "TLV700 200-mA, Low-IQ, Low-Dropout Regulator for Portable Devices - Fixed 2V5" H 5100 3800 60  0001 C CNN "Description"
	1    5100 3800
	1    0    0    -1  
$EndComp
$Comp
L R R304
U 1 1 592B7E19
P 4800 4200
F 0 "R304" V 4720 4200 40  0000 C CNN
F 1 "220k" V 4807 4201 40  0000 C CNN
F 2 "MyKiCadLibs-Footprints:SMD-0805" V 4730 4200 30  0001 C CNN
F 3 "" V 4720 4200 30  0000 C CNN
F 4 "100mW" V 4900 4200 40  0001 C CNN "Power"
F 5 "Thick or thin film resistor" V 5045 4200 40  0001 C CNN "Description"
F 6 "0805" V 4975 4200 40  0001 C CNN "Size"
F 7 "1%" V 5125 4200 40  0001 C CNN "Tolerance"
	1    4800 4200
	1    0    0    1   
$EndComp
$Comp
L R R305
U 1 1 592B84C5
P 4150 3600
F 0 "R305" V 4070 3600 40  0000 C CNN
F 1 "10k" V 4157 3601 40  0000 C CNN
F 2 "MyKiCadLibs-Footprints:SMD-0805" V 4080 3600 30  0001 C CNN
F 3 "" V 4070 3600 30  0000 C CNN
F 4 "100mW" V 4250 3600 40  0001 C CNN "Power"
F 5 "Thick or thin film resistor" V 4395 3600 40  0001 C CNN "Description"
F 6 "0805" V 4325 3600 40  0001 C CNN "Size"
F 7 "1%" V 4475 3600 40  0001 C CNN "Tolerance"
	1    4150 3600
	0    1    -1   0   
$EndComp
Text Notes 6200 3150 0    60   ~ 0
3V3 to start with 5V0
$Comp
L C C319
U 1 1 592BADCD
P 4500 4250
F 0 "C319" H 4500 4350 40  0000 L CNN
F 1 "100n" H 4510 4165 40  0000 L CNN
F 2 "MyKiCadLibs-Footprints:SMD-0805" H 4538 4100 30  0001 C CNN
F 3 "" H 4500 4350 60  0000 C CNN
F 4 "50V" H 4515 4095 40  0000 L CNN "Voltage"
F 5 "X7R" H 4515 4025 40  0000 L CNN "Type"
F 6 "Ceramic capacitor" H 4500 4550 40  0001 L CNN "Description"
F 7 "10%" H 4570 3885 40  0001 C CNN "Tolerance"
F 8 "0805" H 4510 3955 40  0001 L CNN "Size"
	1    4500 4250
	1    0    0    -1  
$EndComp
$Comp
L DIODE D311
U 1 1 592BCFAE
P 5450 3200
F 0 "D311" H 5450 3300 40  0000 C CNN
F 1 "1N5819HW" H 5450 3100 40  0000 C CNN
F 2 "MyKiCadLibs-Footprints:DIODE-SOD-123" H 5450 3200 60  0001 C CNN
F 3 "" H 5450 3200 60  0000 C CNN
F 4 "1A 40V Schottky Rectifier - SOD-123" H 5450 3200 60  0001 C CNN "Description"
	1    5450 3200
	1    0    0    -1  
$EndComp
$Comp
L +3V3 #PWR305
U 1 1 592C4186
P 7500 3750
F 0 "#PWR305" H 7500 3600 50  0001 C CNN
F 1 "+3V3" H 7500 3890 50  0000 C CNN
F 2 "" H 7500 3750 50  0001 C CNN
F 3 "" H 7500 3750 50  0001 C CNN
	1    7500 3750
	1    0    0    -1  
$EndComp
$Comp
L +5VA #PWR301
U 1 1 592C4569
P 9050 1200
F 0 "#PWR301" H 9050 1050 50  0001 C CNN
F 1 "+5VA" H 9050 1340 50  0000 C CNN
F 2 "" H 9050 1200 50  0001 C CNN
F 3 "" H 9050 1200 50  0001 C CNN
	1    9050 1200
	1    0    0    -1  
$EndComp
$Comp
L +2V5 #PWR311
U 1 1 592C4E1F
P 7500 5550
F 0 "#PWR311" H 7500 5400 50  0001 C CNN
F 1 "+2V5" H 7500 5690 50  0000 C CNN
F 2 "" H 7500 5550 50  0001 C CNN
F 3 "" H 7500 5550 50  0001 C CNN
	1    7500 5550
	1    0    0    -1  
$EndComp
$Comp
L +3V3 #PWR304
U 1 1 592C6283
P 9150 3700
F 0 "#PWR304" H 9150 3550 50  0001 C CNN
F 1 "+3V3" H 9150 3840 50  0000 C CNN
F 2 "" H 9150 3700 50  0001 C CNN
F 3 "" H 9150 3700 50  0001 C CNN
	1    9150 3700
	1    0    0    -1  
$EndComp
$Comp
L IC-REG-POS-TPS7A45xx U303
U 1 1 592BF283
P 5850 1250
F 0 "U303" H 6100 1500 60  0000 C CNN
F 1 "TPS7A4501DCQ" H 6350 1400 60  0000 C CNN
F 2 "MyKiCadLibs-Footprints:IC-SOT223-6" H 5850 1250 60  0001 C CNN
F 3 "" H 5850 1250 60  0000 C CNN
F 4 "TI TPS7A4501DCQ Regulator" H 5850 1250 60  0001 C CNN "Description"
	1    5850 1250
	1    0    0    -1  
$EndComp
$Comp
L C C327
U 1 1 592C1378
P 8250 1800
F 0 "C327" H 8250 1900 40  0000 L CNN
F 1 "22u" H 8260 1715 40  0000 L CNN
F 2 "MyKiCadLibs-Footprints:SMD-0805" H 8288 1650 30  0001 C CNN
F 3 "" H 8250 1900 60  0000 C CNN
F 4 "10V" H 8265 1645 40  0000 L CNN "Voltage"
F 5 "X5R" H 8265 1575 40  0000 L CNN "Type"
F 6 "Ceramic capacitor" H 8250 2100 40  0001 L CNN "Description"
F 7 "20%" H 8320 1435 40  0001 C CNN "Tolerance"
F 8 "0805" H 8260 1505 40  0001 L CNN "Size"
	1    8250 1800
	1    0    0    -1  
$EndComp
$Comp
L R R306
U 1 1 59A1D9A6
P 4800 6000
F 0 "R306" V 4720 6000 40  0000 C CNN
F 1 "220k" V 4807 6001 40  0000 C CNN
F 2 "MyKiCadLibs-Footprints:SMD-0805" V 4730 6000 30  0001 C CNN
F 3 "" V 4720 6000 30  0000 C CNN
F 4 "100mW" V 4900 6000 40  0001 C CNN "Power"
F 5 "Thick or thin film resistor" V 5045 6000 40  0001 C CNN "Description"
F 6 "0805" V 4975 6000 40  0001 C CNN "Size"
F 7 "1%" V 5125 6000 40  0001 C CNN "Tolerance"
	1    4800 6000
	1    0    0    1   
$EndComp
Text Notes 2800 7600 0    118  ~ 0
TLV700xx EN pins should be max \nVin (recommended) but abs. max is 6V\n\nHow do we derive this simply \nand safely given logic high can be Vin?
$Comp
L DIODE D305
U 1 1 59B19B98
P 5650 4900
F 0 "D305" H 5650 5000 40  0000 C CNN
F 1 "1N5819HW" H 5650 4800 40  0000 C CNN
F 2 "MyKiCadLibs-Footprints:DIODE-SOD-123" H 5650 4900 60  0001 C CNN
F 3 "" H 5650 4900 60  0000 C CNN
F 4 "1A 40V Schottky Rectifier - SOD-123" H 5650 4900 60  0001 C CNN "Description"
	1    5650 4900
	1    0    0    -1  
$EndComp
$Comp
L DIODE D301
U 1 1 59B1A637
P 1750 3800
F 0 "D301" H 1750 3900 40  0000 C CNN
F 1 "1N5819HW" H 1750 3700 40  0000 C CNN
F 2 "MyKiCadLibs-Footprints:DIODE-SOD-123" H 1750 3800 60  0001 C CNN
F 3 "" H 1750 3800 60  0000 C CNN
F 4 "1A 40V Schottky Rectifier - SOD-123" H 1750 3800 60  0001 C CNN "Description"
	1    1750 3800
	1    0    0    -1  
$EndComp
$Comp
L DIODE D307
U 1 1 59B1A927
P 7800 4200
F 0 "D307" H 7800 4300 40  0000 C CNN
F 1 "1N5819HW" H 7800 4100 40  0000 C CNN
F 2 "MyKiCadLibs-Footprints:DIODE-SOD-123" H 7800 4200 60  0001 C CNN
F 3 "" H 7800 4200 60  0000 C CNN
F 4 "1A 40V Schottky Rectifier - SOD-123" H 7800 4200 60  0001 C CNN "Description"
	1    7800 4200
	0    -1   -1   0   
$EndComp
$Comp
L DIODE D308
U 1 1 59B1B0FB
P 7800 6000
F 0 "D308" H 7800 6100 40  0000 C CNN
F 1 "1N5819HW" H 7800 5900 40  0000 C CNN
F 2 "MyKiCadLibs-Footprints:DIODE-SOD-123" H 7800 6000 60  0001 C CNN
F 3 "" H 7800 6000 60  0000 C CNN
F 4 "1A 40V Schottky Rectifier - SOD-123" H 7800 6000 60  0001 C CNN "Description"
	1    7800 6000
	0    -1   -1   0   
$EndComp
$Comp
L DIODE D304
U 1 1 59B1B579
P 5700 5200
F 0 "D304" H 5700 5300 40  0000 C CNN
F 1 "1N5819HW" H 5700 5100 40  0000 C CNN
F 2 "MyKiCadLibs-Footprints:DIODE-SOD-123" H 5700 5200 60  0001 C CNN
F 3 "" H 5700 5200 60  0000 C CNN
F 4 "1A 40V Schottky Rectifier - SOD-123" H 5700 5200 60  0001 C CNN "Description"
	1    5700 5200
	-1   0    0    1   
$EndComp
$Comp
L DIODE D303
U 1 1 59B1B869
P 5850 3450
F 0 "D303" H 5850 3550 40  0000 C CNN
F 1 "1N5819HW" H 5850 3350 40  0000 C CNN
F 2 "MyKiCadLibs-Footprints:DIODE-SOD-123" H 5850 3450 60  0001 C CNN
F 3 "" H 5850 3450 60  0000 C CNN
F 4 "1A 40V Schottky Rectifier - SOD-123" H 5850 3450 60  0001 C CNN "Description"
	1    5850 3450
	-1   0    0    1   
$EndComp
$Comp
L DIODE D310
U 1 1 59B1BE4F
P 9050 1850
F 0 "D310" H 9050 1950 40  0000 C CNN
F 1 "1N5819HW" H 9050 1750 40  0000 C CNN
F 2 "MyKiCadLibs-Footprints:DIODE-SOD-123" H 9050 1850 60  0001 C CNN
F 3 "" H 9050 1850 60  0000 C CNN
F 4 "1A 40V Schottky Rectifier - SOD-123" H 9050 1850 60  0001 C CNN "Description"
	1    9050 1850
	0    -1   -1   0   
$EndComp
$Comp
L DIODE D306
U 1 1 59B1C4F9
P 6700 900
F 0 "D306" H 6700 1000 40  0000 C CNN
F 1 "1N5819HW" H 6700 800 40  0000 C CNN
F 2 "MyKiCadLibs-Footprints:DIODE-SOD-123" H 6700 900 60  0001 C CNN
F 3 "" H 6700 900 60  0000 C CNN
F 4 "1A 40V Schottky Rectifier - SOD-123" H 6700 900 60  0001 C CNN "Description"
	1    6700 900 
	-1   0    0    1   
$EndComp
$Comp
L DIODE D302
U 1 1 59B1CE58
P 1800 1250
F 0 "D302" H 1800 1350 40  0000 C CNN
F 1 "1N5819HW" H 1800 1150 40  0000 C CNN
F 2 "MyKiCadLibs-Footprints:DIODE-SOD-123" H 1800 1250 60  0001 C CNN
F 3 "" H 1800 1250 60  0000 C CNN
F 4 "1A 40V Schottky Rectifier - SOD-123" H 1800 1250 60  0001 C CNN "Description"
	1    1800 1250
	1    0    0    -1  
$EndComp
Connection ~ 4600 2500
Wire Wire Line
	4600 2500 4600 2050
Connection ~ 4050 2500
Wire Wire Line
	4050 2500 4050 2050
Connection ~ 4050 1250
Wire Wire Line
	4600 1250 4600 1650
Wire Wire Line
	4050 1250 4050 1650
Wire Wire Line
	2000 1250 3050 1250
Wire Wire Line
	5400 1250 5400 1150
Wire Wire Line
	1500 2200 1500 1250
Wire Wire Line
	1300 2200 1500 2200
Connection ~ 5400 2500
Wire Wire Line
	5775 2500 5775 2600
Connection ~ 5150 2500
Wire Wire Line
	5400 2500 5400 2600
Wire Wire Line
	5150 2500 5150 2600
Wire Wire Line
	1500 2300 1500 2500
Wire Wire Line
	1300 2300 1500 2300
Wire Wire Line
	3700 2500 3700 2400
Wire Wire Line
	3700 1400 3700 1250
Connection ~ 3700 1250
Connection ~ 3700 2500
Connection ~ 4600 1250
Wire Wire Line
	2700 2500 2700 2050
Wire Wire Line
	2100 2500 2100 2050
Wire Wire Line
	2700 1250 2700 1650
Wire Wire Line
	2100 1250 2100 1650
Wire Wire Line
	2950 2500 2950 2050
Wire Wire Line
	2950 1250 2950 1650
Connection ~ 2100 2500
Connection ~ 2700 2500
Connection ~ 2950 2500
Connection ~ 2100 1250
Connection ~ 2700 1250
Connection ~ 2950 1250
Wire Wire Line
	2650 3800 5100 3800
Wire Wire Line
	4150 3800 4150 4000
Wire Wire Line
	3900 4000 3900 3800
Connection ~ 4150 3800
Connection ~ 3900 3800
Wire Wire Line
	3900 4550 3900 4400
Wire Wire Line
	4150 4550 4150 4400
Connection ~ 3900 4550
Connection ~ 4150 4550
Wire Wire Line
	3650 4000 3650 3800
Wire Wire Line
	3650 4400 3650 4600
Wire Wire Line
	6150 3800 7500 3800
Wire Wire Line
	7000 3800 7000 4000
Wire Wire Line
	7250 3800 7250 4000
Connection ~ 7000 3800
Wire Wire Line
	7500 3750 7500 4000
Connection ~ 7250 3800
Wire Wire Line
	7000 4550 7000 4400
Wire Wire Line
	7250 4550 7250 4400
Connection ~ 7000 4550
Wire Wire Line
	7500 4550 7500 4400
Connection ~ 7250 4550
Connection ~ 7500 3800
Wire Wire Line
	3400 5600 5100 5600
Wire Wire Line
	4150 5600 4150 5800
Wire Wire Line
	3900 5800 3900 5600
Connection ~ 4150 5600
Connection ~ 3900 5600
Wire Wire Line
	3650 6200 3650 6400
Wire Wire Line
	3900 6350 3900 6200
Wire Wire Line
	3650 6350 7800 6350
Wire Wire Line
	4150 6350 4150 6200
Connection ~ 3900 6350
Wire Wire Line
	5650 6350 5650 6150
Connection ~ 4150 6350
Wire Wire Line
	3650 5800 3650 5600
Wire Wire Line
	6150 5600 7500 5600
Wire Wire Line
	7000 5600 7000 5800
Wire Wire Line
	7250 5600 7250 5800
Connection ~ 7000 5600
Wire Wire Line
	7500 5550 7500 5800
Connection ~ 7250 5600
Connection ~ 5650 6350
Wire Wire Line
	7000 6350 7000 6200
Wire Wire Line
	7250 6350 7250 6200
Connection ~ 7000 6350
Wire Wire Line
	7500 6350 7500 6200
Connection ~ 7250 6350
Connection ~ 7500 5600
Wire Wire Line
	3650 1250 5850 1250
Wire Wire Line
	1400 4400 1400 4350
Wire Wire Line
	1400 4350 1350 4350
Wire Wire Line
	1400 4250 1350 4250
Wire Wire Line
	1400 3800 1400 4250
Wire Wire Line
	1550 3800 1400 3800
Wire Wire Line
	2700 5000 2700 5050
Wire Wire Line
	2700 3800 2700 4000
Connection ~ 2700 3800
Wire Wire Line
	2050 3800 1950 3800
Wire Wire Line
	3400 5600 3400 3800
Connection ~ 3400 3800
Wire Wire Line
	6900 1250 9350 1250
Wire Wire Line
	8350 1250 9050 1250
Wire Wire Line
	7950 1250 7950 1600
Connection ~ 7950 1250
Wire Wire Line
	8500 1250 8500 1600
Wire Wire Line
	9050 1200 9050 1650
Connection ~ 8500 1250
Connection ~ 9050 1250
Wire Wire Line
	1500 2500 9050 2500
Wire Wire Line
	1500 1250 1600 1250
Connection ~ 3650 3800
Connection ~ 3650 4550
Connection ~ 3650 5600
Connection ~ 3650 6350
Wire Wire Line
	4850 1650 4850 1250
Connection ~ 4850 1250
Wire Wire Line
	4850 2050 4850 2500
Connection ~ 4850 2500
Connection ~ 5400 1250
Connection ~ 5775 2500
Wire Wire Line
	7950 2000 7950 2500
Connection ~ 7950 2500
Wire Wire Line
	8500 2500 8500 2000
Wire Wire Line
	8750 2500 8750 2000
Connection ~ 8500 2500
Wire Wire Line
	3050 4500 3050 4400
Wire Wire Line
	3050 4000 3050 3800
Connection ~ 3050 3800
Wire Wire Line
	4350 1650 4350 1250
Connection ~ 4350 1250
Wire Wire Line
	4350 2050 4350 2500
Connection ~ 4350 2500
Wire Wire Line
	2450 1650 2450 1250
Wire Wire Line
	2450 2050 2450 2500
Connection ~ 2450 1250
Connection ~ 2450 2500
Wire Wire Line
	4500 6250 4500 6350
Connection ~ 4500 6350
Wire Wire Line
	5850 4900 8050 4900
Wire Wire Line
	7500 3900 8050 3900
Connection ~ 7500 3900
Wire Wire Line
	8350 1150 8350 1250
Connection ~ 8350 1250
Wire Wire Line
	7100 3700 7100 3800
Connection ~ 7100 3800
Wire Wire Line
	6700 5500 6700 5600
Connection ~ 6700 5600
Wire Wire Line
	6500 900  5600 900 
Wire Wire Line
	5600 900  5600 1250
Connection ~ 5600 1250
Wire Wire Line
	6900 900  7200 900 
Wire Wire Line
	7200 900  7200 1250
Connection ~ 7200 1250
Wire Wire Line
	8750 1600 8750 1250
Connection ~ 8750 1250
Wire Wire Line
	9050 2500 9050 2050
Connection ~ 8750 2500
Wire Wire Line
	5650 3450 4900 3450
Wire Wire Line
	4900 3450 4900 3800
Connection ~ 4900 3800
Wire Wire Line
	6050 3450 6300 3450
Wire Wire Line
	6300 3450 6300 3800
Connection ~ 6300 3800
Wire Wire Line
	7800 4000 7800 3900
Wire Wire Line
	7800 4550 7800 4400
Connection ~ 7500 4550
Wire Wire Line
	5500 5200 4900 5200
Wire Wire Line
	4900 5200 4900 5600
Connection ~ 4900 5600
Wire Wire Line
	5900 5200 6400 5200
Wire Wire Line
	6400 5200 6400 5600
Connection ~ 6400 5600
Wire Wire Line
	7800 5800 7800 5700
Wire Wire Line
	7800 5700 7500 5700
Connection ~ 7500 5700
Wire Wire Line
	7800 6350 7800 6200
Connection ~ 7500 6350
Wire Wire Line
	9150 4250 9150 4400
Wire Wire Line
	9150 4850 9150 4800
Wire Wire Line
	9150 3700 9150 3750
Connection ~ 7800 3900
Wire Wire Line
	8050 3900 8050 4900
Wire Wire Line
	3700 1800 3700 1900
Wire Wire Line
	2700 4400 2700 4500
Wire Wire Line
	3650 4550 7800 4550
Wire Wire Line
	5650 4350 5650 4550
Connection ~ 5650 4550
Wire Wire Line
	4500 4450 4500 4550
Connection ~ 4500 4550
Wire Wire Line
	5650 3200 9350 3200
Wire Wire Line
	9350 3200 9350 1250
Wire Wire Line
	6400 1800 6400 2500
Connection ~ 6400 2500
Wire Wire Line
	5850 1450 5700 1450
Wire Wire Line
	5700 1450 5700 1250
Connection ~ 5700 1250
Wire Wire Line
	7000 1450 7000 1800
Wire Wire Line
	6900 1450 7150 1450
Wire Wire Line
	7000 2300 7000 2500
Connection ~ 7000 2500
Wire Wire Line
	8250 1600 8250 1250
Connection ~ 8250 1250
Wire Wire Line
	8250 2000 8250 2500
Connection ~ 8250 2500
Wire Wire Line
	4500 5700 5000 5700
Wire Wire Line
	4800 5700 4800 5750
Connection ~ 4500 5700
Wire Wire Line
	5000 5700 5000 5800
Wire Wire Line
	5000 5800 5100 5800
Connection ~ 4800 5700
Wire Wire Line
	4800 6250 4800 6350
Connection ~ 4800 6350
Wire Wire Line
	4800 4450 4800 4550
Connection ~ 4800 4550
Wire Wire Line
	5100 4000 5000 4000
Wire Wire Line
	5000 4000 5000 3900
Wire Wire Line
	5000 3900 4500 3900
Wire Wire Line
	4800 3900 4800 3950
Connection ~ 4800 3900
Connection ~ 4500 3900
Wire Wire Line
	4400 3600 4500 3600
Wire Wire Line
	4500 3200 4500 4050
Wire Wire Line
	3900 3600 3750 3600
Wire Wire Line
	3750 3600 3750 3800
Connection ~ 3750 3800
Wire Wire Line
	4500 3200 5250 3200
Connection ~ 4500 3600
Wire Wire Line
	3900 5400 3750 5400
Wire Wire Line
	3750 5400 3750 5600
Connection ~ 3750 5600
Wire Wire Line
	4400 5400 4500 5400
Wire Wire Line
	4500 4900 4500 5850
Wire Wire Line
	5450 4900 4500 4900
Connection ~ 4500 5400
Connection ~ 7000 1450
Wire Wire Line
	7650 1450 7950 1450
Connection ~ 7950 1450
Wire Wire Line
	6150 4000 6300 4000
Wire Wire Line
	6300 4000 6300 4550
Connection ~ 6300 4550
Wire Wire Line
	6150 5800 6300 5800
Wire Wire Line
	6300 5800 6300 6350
Connection ~ 6300 6350
$EndSCHEMATC
